{
    "_id": "sFaAWmy1szDRmFtk",
    "data": {
        "attributes": {
            "ac": {
                "value": 10
            },
            "hardness": 0,
            "hasHealth": false,
            "hp": {
                "details": "",
                "max": 0,
                "temp": 0,
                "tempmax": 0,
                "value": 0
            },
            "stealth": {
                "details": "<p>(expert)</p>",
                "value": 21
            }
        },
        "creatureType": "",
        "details": {
            "description": "<p>Allies appear to shed their disguises and reveal themselves to be malevolent monsters.</p>",
            "disable": "<p>DC 28 Deception (expert) twice to confound the haunt with your own deceptions, or DC 28 Occultism (trained) twice to create a ward against the haunt's mental influence</p>",
            "isComplex": true,
            "level": {
                "value": 8
            },
            "reset": "<p>The haunt deactivates 1 minute after all creatures leave the area but resets immediately thereafter.</p>",
            "routine": "<p>(1 action, illusion, incapacitation, occult) The haunt continues to confound victims' senses and inspire them to commit violence against each other. Each creature in the haunt's area must attempt a DC 26 Will save.</p>\n<p><strong>Critical Success</strong> The creature is unaffected and temporarily immune for 1 minute.</p>\n<p><strong>Success</strong> The creature is unaffected.</p>\n<p><strong>Failure</strong> The creature is confused for 1 round.</p>\n<p><strong>Critical Failure</strong> The creature is confused for 1 minute.</p>"
        },
        "saves": {
            "fortitude": {
                "saveDetail": "",
                "value": 0
            },
            "reflex": {
                "saveDetail": "",
                "value": 0
            },
            "will": {
                "saveDetail": "",
                "value": 0
            }
        },
        "source": {
            "value": "Pathfinder Gamemastery Guide"
        },
        "statusEffects": [],
        "traits": {
            "ci": [],
            "di": {
                "custom": "",
                "selected": {},
                "value": []
            },
            "dr": [],
            "dv": [],
            "rarity": "common",
            "size": {
                "value": "med"
            },
            "traits": {
                "custom": "",
                "value": [
                    "haunt"
                ]
            }
        }
    },
    "effects": [],
    "flags": {},
    "img": "systems/pf2e/icons/default-icons/hazard.svg",
    "items": [
        {
            "_id": "QrgnumULVnz8pWfK",
            "data": {
                "actionCategory": {
                    "value": ""
                },
                "actionType": {
                    "value": "reaction"
                },
                "actions": {
                    "value": null
                },
                "description": {
                    "value": "<p data-visibility=\"gm\"><strong>Trigger</strong> Two or more creatures enter the haunt's area.</p>\n<p><strong>Effect</strong> Each creature sees the forms of nearby creatures shift and change, appearing to transform into fiendish or aberrant beings with a thirst for blood. Each creature in the area must attempt a @Check[type:will|dc:30] save.</p>\n<hr />\n<p><strong>Critical Success</strong> The creature sees through the illusions entirely and is temporarily immune to the haunt's routine for 1 minute.</p>\n<p><strong>Success</strong> The creature is unaffected by the strange images.</p>\n<p><strong>Failure</strong> The creature believes the illusions to be true; if they become confused by the haunt's routine, they can't attempt flat checks to end the confused condition when they take damage.</p>\n<p><strong>Critical Failure</strong> As failure, but the creature is left with a lingering suspicion of others and can't benefit from Aid reactions for 24 hours.</p>"
                },
                "requirements": {
                    "value": ""
                },
                "rules": [],
                "slug": null,
                "source": {
                    "value": ""
                },
                "traits": {
                    "custom": "",
                    "rarity": "common",
                    "value": [
                        "illusion",
                        "occult"
                    ]
                },
                "trigger": {
                    "value": ""
                },
                "weapon": {
                    "value": ""
                }
            },
            "effects": [],
            "flags": {},
            "img": "systems/pf2e/icons/actions/Reaction.webp",
            "name": "Unmask",
            "sort": 100000,
            "type": "action"
        }
    ],
    "name": "Confounding Betrayal",
    "token": {
        "disposition": 0,
        "height": 1,
        "img": "systems/pf2e/icons/default-icons/hazard.svg",
        "name": "Confounding Betrayal",
        "width": 1
    },
    "type": "hazard"
}
