{
    "_id": "eADadfrHPkGNTjEB",
    "content": "<p>This character once inadvertently shoved you off a ledge or balcony. You're mostly certain it was a mistake, but the fall was terrifying, and you've resolved to never be caught unaware like that again.</p>\n<p>Add the @Compendium[pf2e.feats-srd.Cat Fall]{Cat Fall} skill feat to your background options.</p>",
    "flags": {},
    "name": "Accidental Fall",
    "permission": {
        "default": 0
    }
}
