{
    "_id": "W2ccu0zeLNHDlCXe",
    "content": "<p>In your early life, you were often picked on. The callousness of bullies sharpened your resolve to stand up for yourself and others.</p>\n<p>Add the @Compendium[pf2e.feats-srd.Intimidating Glare]{Intimidating Glare} skill feat to your background options</p>",
    "flags": {},
    "name": "Bullied",
    "permission": {
        "default": 0
    }
}
