{
    "_id": "WXQbdAmQM9HBjc0R",
    "content": "<p>You once warned off an admirer seeking this character's affections. You still maintain that the match would have been a poor one and that you did this character a favor.</p>\n<p>Add the @Compendium[pf2e.feats-srd.Quick Coercion]{Quick Coercion} skill feat to your background options.</p>",
    "flags": {},
    "name": "Relationship Ender",
    "permission": {
        "default": 0
    }
}
