{
    "_id": "ynObDI0VbZ4sqeMI",
    "data": {
        "boosts": {
            "0": {
                "value": [
                    "con",
                    "wis"
                ]
            },
            "1": {
                "value": [
                    "cha",
                    "con",
                    "dex",
                    "int",
                    "str",
                    "wis"
                ]
            }
        },
        "description": {
            "value": "<p>When the Great Quake rumbled across the eastern lands and opened the rift that southerners called \"the Worldwound,\" you answered the call to arms to fight back the demonic hordes. What you saw during the war changed you forever-so much so that you became a wanderer, hermit, or other voluntary outcast. When you came upon the Broken Tusk following, you determined you'd finally found a people whose values and traditions made you feel whole again. The Broken Tusk was supposedly once a much bigger following, and so you've joined them in the hopes of helping them heal old wounds and rebuild in the shadow of loss. In the process, perhaps this new family will help you do the same.</p>\n<p>Choose two ability boosts. One must be to <strong>Constitution</strong> or <strong>Wisdom</strong>, and one is a free ability boost.</p>\n<p>You're trained in the Religion skill and the Demon Lore skill. You gain the @Compendium[pf2e.feats-srd.Pilgrim's Token]{Pilgrim's Token} skill feat.</p>"
        },
        "items": {
            "eu46h": {
                "id": "BqceQIKE0lwIS98s",
                "img": "systems/pf2e/icons/features/feats/feats.webp",
                "level": 1,
                "name": "Pilgrim's Token",
                "pack": "pf2e.feats-srd"
            }
        },
        "rules": [],
        "source": {
            "value": "Pathfinder: Quest for the Frozen Flame Player's Guide"
        },
        "trainedLore": "Demon",
        "trainedSkills": {
            "custom": "",
            "value": [
                "rel"
            ]
        },
        "traits": {
            "custom": "",
            "rarity": "uncommon",
            "value": []
        }
    },
    "effects": [],
    "flags": {},
    "img": "systems/pf2e/icons/default-icons/background.svg",
    "name": "Ex-Mendevian Crusader",
    "type": "background"
}
