{
    "_id": "93icIDHD4IrqI2oV",
    "data": {
        "boosts": {
            "0": {
                "value": [
                    "con",
                    "wis"
                ]
            },
            "1": {
                "value": [
                    "cha",
                    "con",
                    "dex",
                    "int",
                    "str",
                    "wis"
                ]
            }
        },
        "description": {
            "value": "<p><strong>Prerequisite</strong> Region - Mwangi Expanse</p>\n<hr />\n<p>You've managed to eke out an existence in the storm-wracked Sodden Lands and have become an expert at scavenging food and tools.</p>\n<p>Choose two ability boosts. One must be to <strong>Constitution</strong> or <strong>Wisdom</strong>, and one is a free ability boost.</p>\n<p>You're trained in the Survival skill and the Swamp Lore skill. You gain the @Compendium[pf2e.feats-srd.Forager]{Forager} skill feat.</p>"
        },
        "items": {
            "cp6du": {
                "id": "8qebBeOJsyRIchcu",
                "img": "systems/pf2e/icons/features/feats/feats.webp",
                "level": "1",
                "name": "Forager",
                "pack": "pf2e.feats-srd"
            }
        },
        "rules": [],
        "source": {
            "value": "Pathfinder Lost Omens: World Guide"
        },
        "trainedLore": "Swamp Lore",
        "trainedSkills": {
            "value": [
                "sur"
            ]
        },
        "traits": {
            "custom": "",
            "rarity": "common",
            "value": []
        }
    },
    "effects": [],
    "flags": {},
    "img": "systems/pf2e/icons/default-icons/background.svg",
    "name": "Sodden Scavenger",
    "type": "background"
}
