{
    "_id": "B4R0LK8bgw0Vjtf0",
    "data": {
        "baseItem": null,
        "brokenThreshold": {
            "value": 0
        },
        "bulkCapacity": {
            "value": ""
        },
        "collapsed": {
            "value": false
        },
        "containerId": {
            "value": ""
        },
        "description": {
            "value": "<p>This aeon stone must be activated to provide a benefit. The resonant power allows you to cast the <em>@Compendium[pf2e.spells-srd.Read Aura]{Read Aura}</em> cantrip as an arcane innate spell.</p>\n<hr />\n<p><strong>Activate</strong> <span class=\"pf2-icon\">R</span> envision</p>\n<p><strong>Frequency</strong> once per day</p>\n<p><strong>Trigger</strong> A spell targets you</p>\n<p><strong>Effect</strong> The stone casts a 6th-level <em>@Compendium[pf2e.spells-srd.Dispel Magic]{Dispel Magic}</em> spell in an attempt to counteract the triggering spell, with a counteract modifier of [[/r 1d20+22]]. This can be used only on spells that specifically target you-not area spells that don't have targets. If it succeeds, it counteracts the spell for all targets if other creatures were targeted in addition to you.</p>\n<p>Each time you activate this <em>aeon stone</em>, attempt a DC 5 flat check. On a failure, the stone permanently turns into a <em>dull gray aeon stone</em>.</p>"
        },
        "equipped": {
            "value": false
        },
        "equippedBulk": {
            "value": ""
        },
        "hardness": {
            "value": 0
        },
        "hp": {
            "value": 0
        },
        "identification": {
            "misidentified": {},
            "status": "identified",
            "unidentified": {
                "data": {
                    "description": {
                        "value": ""
                    }
                },
                "img": "",
                "name": ""
            }
        },
        "invested": {
            "value": false
        },
        "level": {
            "value": 13
        },
        "maxHp": {
            "value": 0
        },
        "negateBulk": {
            "value": "0"
        },
        "preciousMaterial": {
            "value": ""
        },
        "preciousMaterialGrade": {
            "value": ""
        },
        "price": {
            "value": "2,200 gp"
        },
        "quantity": {
            "value": 1
        },
        "rules": [],
        "size": {
            "value": "med"
        },
        "source": {
            "value": "Pathfinder Core Rulebook"
        },
        "stackGroup": {
            "value": ""
        },
        "traits": {
            "custom": "",
            "rarity": "uncommon",
            "value": [
                "invested",
                "magical",
                "transmutation"
            ]
        },
        "usage": {
            "value": "worn"
        },
        "weight": {
            "value": "-"
        }
    },
    "effects": [],
    "flags": {},
    "img": "systems/pf2e/icons/equipment/worn-items/other-worn-items/aeon-stone-pale-lavender-ellipsoid.webp",
    "name": "Aeon Stone (Pale Lavender Ellipsoid)",
    "type": "equipment"
}
