{
    "_id": "yAqGhT0GuZrkvWZl",
    "data": {
        "baseItem": null,
        "brokenThreshold": {
            "value": 0
        },
        "bulkCapacity": {
            "value": ""
        },
        "collapsed": {
            "value": false
        },
        "containerId": {
            "value": ""
        },
        "description": {
            "value": "<p>This concave lens has a drifting crimson cloud resembling slowly swirling blood within it. While you have the Crimson Fulcrum Lens invested, you seethe with malevolent fury you can barely contain. You gain a +2 item bonus to saving throws against fear effects and a +2 item bonus to your melee Strike damage (this increases to a +4 item bonus to damage if the melee Strike is a jaws attack). You can also activate the lens in the following ways.</p>\n<p>@Compendium[pf2e.equipment-effects.Effect: Crimson Fulcrum Lens]{Effect: Crimson Fulcrum Lens}</p>\n<hr />\n<p><strong>Activate</strong> <span class=\"pf2-icon\">2</span> Interact</p>\n<p><strong>Frequency</strong> once per day</p>\n<p><strong>Effect</strong> You grasp the Crimson Fulcrum Lens in one hand and make a Strike that doesn't require that hand. The Strike deals an additional 1d8 precision damage (or 2d8 precision damage if you make a jaws Strike) and doesn't count toward your multiple attack penalty.</p>\n<p><strong>Activate</strong> <span class=\"pf2-icon\">2</span> Interact (attack, possession)</p>\n<p><strong>Effect</strong> While grasping the lens, make a melee spell attack roll with a modifier of +18. On a hit, you force the splinter of Nhimbaloth's essence from the lens to possess the target. You're no longer invested in the lens, and the target gains the benefits as though it had invested the lens but can't activate the lens's other abilities. This effect is permanent, but it can be ended by any effect that removes a possession effect. The lens doesn't have any magical abilities until the possession effect ends; when it does, the essence returns to the lens.</p>"
        },
        "equipped": {
            "value": false
        },
        "equippedBulk": {
            "value": ""
        },
        "hardness": {
            "value": 0
        },
        "hp": {
            "value": 0
        },
        "identification": {
            "misidentified": {},
            "status": "identified",
            "unidentified": {
                "data": {
                    "description": {
                        "value": ""
                    }
                },
                "img": "",
                "name": ""
            }
        },
        "invested": {
            "value": false
        },
        "level": {
            "value": 9
        },
        "maxHp": {
            "value": 0
        },
        "negateBulk": {
            "value": "0"
        },
        "preciousMaterial": {
            "value": ""
        },
        "preciousMaterialGrade": {
            "value": ""
        },
        "price": {
            "value": "700 gp"
        },
        "quantity": {
            "value": 1
        },
        "rules": [],
        "size": {
            "value": "med"
        },
        "source": {
            "value": "Pathfinder #165: Eyes of Empty Death"
        },
        "stackGroup": {
            "value": ""
        },
        "traits": {
            "custom": "",
            "rarity": "unique",
            "value": [
                "enchantment",
                "invested",
                "occult"
            ]
        },
        "usage": {
            "value": "held-in-one-hand"
        },
        "weight": {
            "value": "1"
        }
    },
    "effects": [],
    "flags": {},
    "img": "systems/pf2e/icons/equipment/other/crimson-fulcrum-lenses.webp",
    "name": "Crimson Fulcrum Lens",
    "type": "equipment"
}
