{
    "_id": "JM5qwlv2bi7Zgm7n",
    "data": {
        "baseItem": null,
        "brokenThreshold": {
            "value": 0
        },
        "bulkCapacity": {
            "value": ""
        },
        "collapsed": {
            "value": false
        },
        "containerId": {
            "value": null
        },
        "description": {
            "value": "<p>This enormous stone glows with a pale light and emits a quiet hum. Each <em>Jahan waystone</em> is part of a paired link. The paired stones correspond in the color of the light they emit, as well as the specific tone at which they hum.</p>\n<hr />\n<p><strong>Activate</strong> (1 minute) envision, Interact</p>\n<p><strong>Effect</strong> You place your hand on the stone and focus on the stone's light. The stone's glow envelopes all creatures in a 10-foot radius with its light and attempts to teleport the creatures to its paired stone. If there is no open space within 30 feet of the target waystone, the teleportation attempt fails. A creature can resist the teleportation with a successful DC 45 Will save.</p>"
        },
        "equipped": {
            "value": false
        },
        "equippedBulk": {
            "value": ""
        },
        "hardness": {
            "value": 0
        },
        "hp": {
            "value": 0
        },
        "identification": {
            "misidentified": {},
            "status": "identified",
            "unidentified": {
                "data": {
                    "description": {
                        "value": ""
                    }
                },
                "img": "",
                "name": ""
            }
        },
        "invested": {
            "value": null
        },
        "level": {
            "value": 21
        },
        "maxHp": {
            "value": 0
        },
        "negateBulk": {
            "value": "0"
        },
        "preciousMaterial": {
            "value": null
        },
        "preciousMaterialGrade": {
            "value": null
        },
        "price": {
            "value": "0 gp"
        },
        "quantity": {
            "value": 1
        },
        "rules": [],
        "size": {
            "value": "med"
        },
        "source": {
            "value": "Pathfinder Lost Omens: The Mwangi Expanse"
        },
        "stackGroup": {
            "value": ""
        },
        "traits": {
            "custom": "",
            "rarity": "rare",
            "value": [
                "artifact",
                "conjuration",
                "magical",
                "teleportation"
            ]
        },
        "usage": {
            "value": "held-in-one-hand"
        },
        "weight": {
            "value": "-"
        }
    },
    "effects": [],
    "flags": {},
    "img": "systems/pf2e/icons/default-icons/equipment.svg",
    "name": "Jahan Waystone",
    "type": "equipment"
}
