{
    "_id": "O1W40RBvlZW069Mw",
    "data": {
        "baseItem": null,
        "brokenThreshold": {
            "value": 0
        },
        "bulkCapacity": {
            "value": ""
        },
        "collapsed": {
            "value": false
        },
        "containerId": {
            "value": ""
        },
        "description": {
            "value": "<p><strong>Activate</strong> 1 minute (Interact)</p>\n<hr />\n<p>Astrolabes can be used for navigation in unfamiliar or featureless locations. To use an astrolabe, the holder must be trained in Survival.</p>\n<p>By spending 1 minute to measure the height of the stars and planets, a holder who knows the time and date can determine the latitude, and a holder who knows their latitude can determine the date and time.</p>\n<p>An astrolabe also grants a +1 item bonus on checks to identify celestial bodies. A mariner's astrolabe contains additional stabilizers that make it suitable for use on moving surfaces, such as the deck of a ship.</p>\n<hr />\n<p>Automatically applied effects:</p>\n<ul>\n<li>+1 item bonus on checks to identify celestial bodies</li>\n</ul>"
        },
        "equipped": {
            "value": false
        },
        "equippedBulk": {
            "value": ""
        },
        "hardness": {
            "value": 0
        },
        "hp": {
            "value": 0
        },
        "identification": {
            "misidentified": {},
            "status": "identified",
            "unidentified": {
                "data": {
                    "description": {
                        "value": ""
                    }
                },
                "img": "",
                "name": ""
            }
        },
        "invested": {
            "value": false
        },
        "level": {
            "value": 3
        },
        "maxHp": {
            "value": 0
        },
        "negateBulk": {
            "value": "0"
        },
        "preciousMaterial": {
            "value": ""
        },
        "preciousMaterialGrade": {
            "value": ""
        },
        "price": {
            "value": "50 gp"
        },
        "quantity": {
            "value": 1
        },
        "rules": [
            {
                "key": "FlatModifier",
                "label": "Mariner's Astrolabe (identify celestial bodies)",
                "predicate": {
                    "all": [
                        "action:recall-knowledge",
                        "identify"
                    ],
                    "any": [
                        "celestial-body"
                    ]
                },
                "selector": "skill-check",
                "type": "item",
                "value": 1
            }
        ],
        "size": {
            "value": "med"
        },
        "source": {
            "value": "Pathfinder Lost Omens: Pathfinder Society Guide"
        },
        "stackGroup": {
            "value": ""
        },
        "traits": {
            "custom": "",
            "rarity": "uncommon",
            "value": []
        },
        "usage": {
            "value": "held-in-two-hands"
        },
        "weight": {
            "value": "L"
        }
    },
    "effects": [],
    "flags": {},
    "img": "systems/pf2e/icons/equipment/adventuring-gear/astrolabe.webp",
    "name": "Mariner's Astrolabe",
    "type": "equipment"
}
