{
    "_id": "WKdmAhoji9Y9RC7D",
    "data": {
        "baseItem": null,
        "brokenThreshold": {
            "value": 0
        },
        "bulkCapacity": {
            "value": ""
        },
        "collapsed": {
            "value": false
        },
        "containerId": {
            "value": ""
        },
        "description": {
            "value": "<p>This large slide whistle appears to be made of fine brass, the sides of which are engraved with musical notes and dancing clowns.</p>\n<p><strong>Activate</strong> 1 minute (command, envision, Interact)</p>\n<p><strong>Effect</strong> You blow a tune upon the slide whistle, causing the whistle to expand. The whistle sprouts from one into several, and then creates a large wooden frame and keyboard. By the time the unfolding is complete, the whistle fully transforms into a calliope, a wagon-sized contraption consisting of several steam whistles played like an organ. The calliope is heavy and anchored in place.</p>\n<p>You have a +1 item bonus to Performance checks to play the calliope. The calliope has a tendency to produce music for a few seconds after you cease playing it, adding a jaunty and overlong conclusion to your music.</p>\n<p>If you use an Interact action to pull the small metal ring on the underside of the <em>marvelous calliope</em>, the calliope collapses back down into a slide whistle.</p>\n<p><strong>Activate</strong> <span class=\"pf2-icon\">D</span> Interact</p>\n<p><strong>Frequency</strong> once per hour</p>\n<p><strong>Effect</strong> You play the calliope, causing it to cast <em>@Compendium[pf2e.spells-srd.Charm]{Charm}</em> on one of the listeners.</p>\n<hr />\n<p>Automatically applied effects:</p>\n<ul>\n<li>+1 item bonus to Performance checks while playing music the calliope</li>\n</ul>"
        },
        "equipped": {
            "value": false
        },
        "equippedBulk": {
            "value": ""
        },
        "hardness": {
            "value": 0
        },
        "hp": {
            "value": 0
        },
        "identification": {
            "misidentified": {},
            "status": "identified",
            "unidentified": {
                "data": {
                    "description": {
                        "value": ""
                    }
                },
                "img": "",
                "name": ""
            }
        },
        "invested": {
            "value": false
        },
        "level": {
            "value": 4
        },
        "maxHp": {
            "value": 0
        },
        "negateBulk": {
            "value": ""
        },
        "preciousMaterial": {
            "value": ""
        },
        "preciousMaterialGrade": {
            "value": ""
        },
        "price": {
            "value": "100 gp"
        },
        "quantity": {
            "value": 1
        },
        "rules": [
            {
                "key": "FlatModifier",
                "label": "Marvelous Calliope (playing it)",
                "predicate": {
                    "all": [
                        "playing"
                    ]
                },
                "selector": "performance",
                "type": "item",
                "value": 1
            }
        ],
        "size": {
            "value": "med"
        },
        "source": {
            "value": "Pathfinder #152: Legacy of the Lost God"
        },
        "stackGroup": {
            "value": ""
        },
        "traits": {
            "custom": "",
            "rarity": "uncommon",
            "value": [
                "conjuration",
                "magical",
                "structure"
            ]
        },
        "usage": {
            "value": "held-in-one-hand"
        },
        "weight": {
            "value": "L"
        }
    },
    "effects": [],
    "flags": {},
    "img": "systems/pf2e/icons/equipment/structures/marvelous-calliope.webp",
    "name": "Marvelous Calliope",
    "type": "equipment"
}
