{
    "_id": "hL6z9KnndTO2L12f",
    "data": {
        "baseItem": null,
        "brokenThreshold": {
            "value": 0
        },
        "bulkCapacity": {
            "value": ""
        },
        "collapsed": {
            "value": false
        },
        "containerId": {
            "value": null
        },
        "description": {
            "value": "<p>This mask appears to be a pool of mirrored, shifting silver adhered to a thin metal plate. When you place it against your face, it melds to the shape of your head. The material is breathable and light, and does not obscure vision. You gain a +2 item bonus to Deception, Diplomacy, Intimidation, and Performance checks while wearing the mask.</p>\n<p>When you invest the mask, you either increase your Charisma score by 2 or increase it to 18, whichever would give you a higher score.</p>\n<p>@Compendium[pf2e.equipment-effects.Equipment Effect: Mask of Allure]{Equipment Effect: Mask of Allure}</p>\n<hr />\n<p><strong>Activate</strong> <span class=\"pf2-icon\">f</span> envision (visual)</p>\n<p><strong>Frequency</strong> once per day</p>\n<p><strong>Trigger</strong> You attempt a Deception, Diplomacy, Intimidation, or Performance check</p>\n<p><strong>Effect</strong> You gain a +4 status bonus to the triggering check. This ability has no effect if you're under the effects of a disguise that hides the mask of allure. Depending on the skill used, the mirrored silver transforms into one of the following appearances.</p>\n<ul>\n<li><strong>Deception</strong> A swirl of silver, which entirely obscures and conceals your normal features.</li>\n<li><strong>Diplomacy</strong> A kind, gentle and inviting expression.</li>\n<li><strong>Intimidation</strong> A monstrous visage that shocks viewers into paying attention.</li>\n<li><strong>Performance</strong> A jovial humanoid face, the mouth cracked wide with a comedic smile or a tragic frown, depending on the nature of the performance.</li>\n</ul>"
        },
        "equipped": {
            "value": false
        },
        "equippedBulk": {
            "value": ""
        },
        "hardness": {
            "value": 0
        },
        "hp": {
            "value": 0
        },
        "identification": {
            "misidentified": {},
            "status": "identified",
            "unidentified": {
                "data": {
                    "description": {
                        "value": ""
                    }
                },
                "img": "",
                "name": ""
            }
        },
        "invested": {
            "value": null
        },
        "level": {
            "value": 18
        },
        "maxHp": {
            "value": 0
        },
        "negateBulk": {
            "value": "0"
        },
        "preciousMaterial": {
            "value": null
        },
        "preciousMaterialGrade": {
            "value": null
        },
        "price": {
            "value": "24000 gp"
        },
        "quantity": {
            "value": 1
        },
        "rules": [
            {
                "key": "FlatModifier",
                "selector": "deception",
                "type": "item",
                "value": 2
            },
            {
                "key": "FlatModifier",
                "selector": "diplomacy",
                "type": "item",
                "value": 2
            },
            {
                "key": "FlatModifier",
                "selector": "intimidation",
                "type": "item",
                "value": 2
            },
            {
                "key": "FlatModifier",
                "selector": "performance",
                "type": "item",
                "value": 2
            },
            {
                "key": "ActiveEffectLike",
                "mode": "add",
                "path": "data.abilities.cha.value",
                "value": 2
            },
            {
                "key": "ActiveEffectLike",
                "mode": "upgrade",
                "path": "data.abilities.cha.value",
                "value": 18
            }
        ],
        "size": {
            "value": "med"
        },
        "source": {
            "value": "Pathfinder Secrets of Magic"
        },
        "stackGroup": {
            "value": ""
        },
        "traits": {
            "custom": "",
            "rarity": "common",
            "value": [
                "apex",
                "enchantment",
                "invested",
                "magical"
            ]
        },
        "usage": {
            "value": "wornmask"
        },
        "weight": {
            "value": "L"
        }
    },
    "effects": [],
    "flags": {},
    "img": "systems/pf2e/icons/default-icons/equipment.svg",
    "name": "Mask of Allure",
    "type": "equipment"
}
