{
    "_id": "YOgUBjv2YHzPFKUb",
    "data": {
        "baseItem": null,
        "brokenThreshold": {
            "value": 0
        },
        "bulkCapacity": {
            "value": ""
        },
        "collapsed": {
            "value": false
        },
        "containerId": {
            "value": ""
        },
        "description": {
            "value": "<p>The most rare and valuable skymetal, orichalcum is coveted for its incredible time-related magical properties. This dull, coppery metal isn't as physically sturdy as adamantine, but orichalcum's time-bending properties protect it, granting it greater Hardness and Hit Points. If an orichalcum item takes damage but isn't destroyed, it repairs itself completely 24 hours later.</p><h2>Orichalcum Items</h2>\n<table class=\"pf2-table\">\n<thead>\n<tr>\n<th>Orichalcum Items</th>\n<th>Hardness</th>\n<th>HP</th>\n<th>BT</th>\n</tr>\n</thead>\n<tbody>\n<tr>\n<td>Thin Items</td>\n<td> </td>\n<td> </td>\n<td> </td>\n</tr>\n<tr>\n<td>High-grade</td>\n<td>16</td>\n<td>64</td>\n<td>32</td>\n</tr>\n<tr>\n<td>Items</td>\n<td> </td>\n<td> </td>\n<td> </td>\n</tr>\n<tr>\n<td>High-grade<strong></strong><p><strong></strong></p></td>\n<td>18</td>\n<td>72</td>\n<td>36</td>\n</tr>\n<tr>\n<td>Structure</td>\n<td> </td>\n<td> </td>\n<td> </td>\n</tr>\n<tr>\n<td>High-grade<strong></strong><p><strong></strong></p></td>\n<td>35</td>\n<td>140</td>\n<td>70</td>\n</tr>\n</tbody>\n</table>"
        },
        "equipped": {
            "value": false
        },
        "equippedBulk": {
            "value": ""
        },
        "hardness": {
            "value": 0
        },
        "hp": {
            "value": 0
        },
        "identification": {
            "misidentified": {},
            "status": "identified",
            "unidentified": {
                "data": {
                    "description": {
                        "value": ""
                    }
                },
                "img": "",
                "name": ""
            }
        },
        "invested": {
            "value": false
        },
        "level": {
            "value": 0
        },
        "maxHp": {
            "value": 0
        },
        "negateBulk": {
            "value": "0"
        },
        "preciousMaterial": {
            "value": ""
        },
        "preciousMaterialGrade": {
            "value": ""
        },
        "price": {
            "value": "1,000 gp"
        },
        "quantity": {
            "value": 1
        },
        "rules": [],
        "size": {
            "value": "med"
        },
        "source": {
            "value": "Pathfinder Core Rulebook"
        },
        "stackGroup": {
            "value": ""
        },
        "traits": {
            "custom": "",
            "rarity": "rare",
            "value": [
                "precious"
            ]
        },
        "usage": {
            "value": "held-in-one-hand"
        },
        "weight": {
            "value": "L"
        }
    },
    "effects": [],
    "flags": {},
    "img": "systems/pf2e/icons/equipment/materials/orichalcum-chunk.webp",
    "name": "Orichalcum Chunk",
    "type": "equipment"
}
