{
    "_id": "J7ZoRlhqiP6988t2",
    "data": {
        "activation": {
            "condition": "",
            "cost": 0,
            "type": ""
        },
        "autoDestroy": {
            "_deprecated": true,
            "value": true
        },
        "autoUse": {
            "_deprecated": true,
            "value": true
        },
        "baseItem": null,
        "brokenThreshold": {
            "value": 0
        },
        "bulkCapacity": {
            "value": ""
        },
        "charges": {
            "_deprecated": true,
            "max": 0,
            "value": 0
        },
        "collapsed": {
            "value": false
        },
        "consumableType": {
            "value": "other"
        },
        "consume": {
            "_deprecated": true,
            "value": ""
        },
        "containerId": {
            "value": null
        },
        "description": {
            "value": "<p><strong>Activate</strong> <span class=\"pf2-icon\">1</span> Interact</p>\n<hr />\n<p>This mask is made from the gills of the red-rib salamander, an amphibious creature unique to Terwa Lake.</p>\n<p>Once activated, the mask intensifies the odors of gaseous toxins, allowing you to automatically detect toxic fumes within 30 feet and their approximate source (making the source undetected instead of unnoticed).</p>\n<p>You can't wear other masks while you're wearing a red-rib gill mask.</p>\n<p>After Activating the mask, you also gain the listed item bonus to Fortitude saves against inhaled effects; this bonus is increased against the deadly volcanic gas known around Terwa Lake as Dead Man's Breath, and possibly against other similar volcanic gases at the GM's discretion.</p>\n<hr />\n<p><strong>Type: Moderate</strong></p>\n<p>The item bonus is +2, or +3 against Dead Man's Breath, and the duration is 1 hour.</p>\n<hr />\n<p>@Compendium[pf2e.equipment-effects.Effect: Red-Rib Gill Mask (Moderate)]{Effect: Red-Rib Gill Mask (Moderate)}</p>"
        },
        "duration": {
            "units": "",
            "value": null
        },
        "equipped": {
            "value": false
        },
        "equippedBulk": {
            "value": ""
        },
        "hardness": {
            "value": 0
        },
        "hp": {
            "value": 0
        },
        "identification": {
            "misidentified": {},
            "status": "identified",
            "unidentified": {
                "data": {
                    "description": {
                        "value": ""
                    }
                },
                "img": "",
                "name": ""
            }
        },
        "level": {
            "value": 8
        },
        "maxHp": {
            "value": 0
        },
        "negateBulk": {
            "value": "0"
        },
        "preciousMaterial": {
            "value": null
        },
        "preciousMaterialGrade": {
            "value": null
        },
        "price": {
            "value": "100 gp"
        },
        "quantity": {
            "value": 1
        },
        "range": {
            "long": null,
            "units": "",
            "value": null
        },
        "rules": [],
        "size": {
            "value": "med"
        },
        "source": {
            "value": "Pathfinder #171: Hurricane's Howl"
        },
        "spell": {
            "data": null,
            "heightenedLevel": null
        },
        "stackGroup": {
            "value": ""
        },
        "target": {
            "type": "",
            "units": "",
            "value": null
        },
        "traits": {
            "custom": "",
            "rarity": "rare",
            "value": [
                "alchemical",
                "consumable"
            ]
        },
        "usage": {
            "value": "wornmask"
        },
        "uses": {
            "autoDestroy": true,
            "autoUse": true,
            "max": 0,
            "per": null,
            "value": 0
        },
        "weight": {
            "value": "L"
        }
    },
    "effects": [],
    "flags": {},
    "img": "systems/pf2e/icons/equipment/worn-items/apex-items/headband-of-inspired-wisdom.webp",
    "name": "Red-Rib Gill Mask (Moderate)",
    "type": "consumable"
}
