{
    "_id": "6nJZGgIJIY3x0b1Q",
    "data": {
        "baseItem": null,
        "brokenThreshold": {
            "value": 0
        },
        "bulkCapacity": {
            "value": ""
        },
        "collapsed": {
            "value": false
        },
        "containerId": {
            "value": null
        },
        "description": {
            "value": "<p>This clockwork traveler's chair has spinnerets and spider legs that allow it to roll up walls, fire web lines to pull you to a location, and obstruct foes with webs. While using the chair, you gain a climb Speed equal to your Speed.</p>\n<hr />\n<p><strong>Activate</strong> <span class=\"pf2-icon\">1</span> Interact</p>\n<p><strong>Frequency</strong> Once per minute</p>\n<p><strong>Effect</strong> The chair shoots a web line at a solid wall, floor, or ceiling up to 60 feet away and then pulls itself and you to that location.</p>\n<hr />\n<p><strong>Activate</strong><span class=\"pf2-icon\">3</span><strong></strong> Interact</p>\n<p><strong>Frequency</strong> Once per hour</p>\n<p><strong>Effect</strong> You cause the chair to launch an enormous web to hinder your foes, with the effects of a 4th-level @Compendium[pf2e.spells-srd.Web]{Web} spell.</p>"
        },
        "equipped": {
            "value": false
        },
        "equippedBulk": {
            "value": ""
        },
        "hardness": {
            "value": 0
        },
        "hp": {
            "value": 0
        },
        "identification": {
            "misidentified": {},
            "status": "identified",
            "unidentified": {
                "data": {
                    "description": {
                        "value": ""
                    }
                },
                "img": "",
                "name": ""
            }
        },
        "invested": {
            "value": null
        },
        "level": {
            "value": 12
        },
        "maxHp": {
            "value": 0
        },
        "negateBulk": {
            "value": "0"
        },
        "preciousMaterial": {
            "value": null
        },
        "preciousMaterialGrade": {
            "value": null
        },
        "price": {
            "value": "1800 gp"
        },
        "quantity": {
            "value": 1
        },
        "rules": [
            {
                "key": "BaseSpeed",
                "selector": "climb",
                "value": "@actor.attributes.speed.value"
            }
        ],
        "size": {
            "value": "med"
        },
        "source": {
            "value": "Pathfinder Guns & Gears"
        },
        "stackGroup": {
            "value": ""
        },
        "traits": {
            "custom": "",
            "rarity": "uncommon",
            "value": [
                "clockwork",
                "magical"
            ]
        },
        "usage": {
            "value": "worn"
        },
        "weight": {
            "value": "3"
        }
    },
    "effects": [],
    "flags": {},
    "img": "systems/pf2e/icons/default-icons/equipment.svg",
    "name": "Spider Chair",
    "type": "equipment"
}
