{
    "_id": "WbcQqXrUytXkCMK3",
    "data": {
        "MAP": {
            "value": ""
        },
        "baseItem": "staff",
        "bonus": {
            "value": 0
        },
        "bonusDamage": {
            "value": 0
        },
        "brokenThreshold": {
            "value": 0
        },
        "bulkCapacity": {
            "value": ""
        },
        "category": "simple",
        "collapsed": {
            "value": false
        },
        "containerId": {
            "value": ""
        },
        "damage": {
            "damageType": "bludgeoning",
            "dice": 1,
            "die": "d4",
            "value": ""
        },
        "description": {
            "value": "<p>Made of smooth, white wood, this staff is capped at each end with a golden cross adorned with a multitude of ruby cabochons. A staff of healing grants an item bonus to the Hit Points you restore anytime you cast the heal spell using your own spell slots or using charges from the staff.</p>\n<p><strong>Activate</strong> Cast a Spell</p>\n<p><strong>Effect</strong> You expend a number of charges from the staff to cast a spell from its list.</p>\n<p><strong>Craft Requirements</strong> Supply one casting of all listed levels of all listed spells.</p>\n<p>The item bonus granted to <em>heal</em> spells is +3.</p>\n<ul>\n<li><strong>Cantrip</strong> <em>@Compendium[pf2e.spells-srd.Stabilize]{Stabilize}</em></li>\n<li><strong>1st</strong> <em>@Compendium[pf2e.spells-srd.Heal]{Heal}</em></li>\n<li><strong>2nd</strong> <em>@Compendium[pf2e.spells-srd.Heal]{Heal}</em> <em>@Compendium[pf2e.spells-srd.Restoration]{Restoration}</em> <em>@Compendium[pf2e.spells-srd.Restore Senses]{Restore Senses}</em></li>\n<li><strong>3rd</strong> <em>@Compendium[pf2e.spells-srd.Heal]{Heal}</em> <em>@Compendium[pf2e.spells-srd.Remove Disease]{Remove Disease}</em></li>\n<li><strong>4th</strong> <em>@Compendium[pf2e.spells-srd.Heal]{Heal}</em> <em>@Compendium[pf2e.spells-srd.Restoration]{Restoration}</em></li>\n<li><strong>5th</strong> <em>@Compendium[pf2e.spells-srd.Breath of Life]{Breath of Life}</em>, <em>@Compendium[pf2e.spells-srd.Heal]{Heal}</em>, <em>@Compendium[pf2e.spells-srd.Remove Disease]{Remove Disease}</em></li>\n<li><strong>6th</strong> <em>@Compendium[pf2e.spells-srd.Heal]{Heal}</em> <em>@Compendium[pf2e.spells-srd.Restoration]{Restoration}</em> <em>@Compendium[pf2e.spells-srd.Restore Senses]{Restore Senses}</em></li>\n<li><strong>7th</strong> <em>@Compendium[pf2e.spells-srd.Heal]{Heal}</em> <em>@Compendium[pf2e.spells-srd.Regenerate]{Regenerate}</em> <em>@Compendium[pf2e.spells-srd.Remove Disease]{Remove Disease}</em></li>\n</ul>"
        },
        "equipped": {
            "value": false
        },
        "equippedBulk": {
            "value": ""
        },
        "group": "club",
        "hands": {
            "value": ""
        },
        "hardness": {
            "value": 0
        },
        "hp": {
            "value": 0
        },
        "identification": {
            "misidentified": {},
            "status": "identified",
            "unidentified": {
                "data": {
                    "description": {
                        "value": ""
                    }
                },
                "img": "",
                "name": ""
            }
        },
        "invested": {
            "value": false
        },
        "level": {
            "value": 16
        },
        "maxHp": {
            "value": 0
        },
        "negateBulk": {
            "value": "0"
        },
        "potencyRune": {
            "value": null
        },
        "preciousMaterial": {
            "value": ""
        },
        "preciousMaterialGrade": {
            "value": ""
        },
        "price": {
            "value": "9,200 gp"
        },
        "property1": {
            "critDamage": "",
            "critDamageType": "",
            "critDice": null,
            "critDie": "",
            "criticalConditionType": "",
            "criticalConditionValue": null,
            "damageType": "",
            "dice": null,
            "die": "",
            "strikeConditionType": "",
            "strikeConditionValue": null,
            "value": ""
        },
        "propertyRune1": {
            "value": ""
        },
        "propertyRune2": {
            "value": ""
        },
        "propertyRune3": {
            "value": ""
        },
        "propertyRune4": {
            "value": ""
        },
        "quantity": {
            "value": 1
        },
        "range": null,
        "reload": {
            "value": ""
        },
        "rules": [],
        "size": {
            "value": "med"
        },
        "source": {
            "value": "Pathfinder Core Rulebook"
        },
        "splashDamage": {
            "value": 0
        },
        "stackGroup": {
            "value": ""
        },
        "strikingRune": {
            "value": ""
        },
        "traits": {
            "custom": "",
            "rarity": "common",
            "value": [
                "magical",
                "necromancy",
                "staff",
                "two-hand-d8"
            ]
        },
        "usage": {
            "value": "held-in-one-hand"
        },
        "weight": {
            "value": "1"
        }
    },
    "effects": [],
    "flags": {},
    "img": "systems/pf2e/icons/equipment/staves/staff-of-healing.webp",
    "name": "Staff of Healing (True)",
    "type": "weapon"
}
