{
    "_id": "YCGMVbqlWT8f1F6v",
    "data": {
        "MAP": {
            "value": ""
        },
        "baseItem": "combat-grapnel",
        "bonus": {
            "value": 0
        },
        "bonusDamage": {
            "value": 0
        },
        "brokenThreshold": {
            "value": 0
        },
        "bulkCapacity": {
            "value": ""
        },
        "category": "martial",
        "collapsed": {
            "value": false
        },
        "containerId": {
            "value": ""
        },
        "damage": {
            "damageType": "piercing",
            "dice": 1,
            "die": "d6",
            "value": ""
        },
        "description": {
            "value": "<p>This <em>+2 greater striking returning</em> @Compendium[pf2e.equipment-srd.Combat Grapnel]{Combat Grapnel} takes the form of a fishhook made of scavenged bones and stone with a cord of braided water. Attacks with a tidal fishhook don't take any of the normal penalties for fighting underwater. A broken (but not destroyed) tidal fishhook can be fully repaired by submerging it in an ocean for 1 minute.</p>\n<hr />\n<p><strong>Activation</strong> <span class=\"pf2-icon\">2</span> Interact (teleportation, water)</p>\n<p><strong>Frequency</strong> once per hour</p>\n<p><strong>Effect</strong> A tidal fishhook can travel between bodies of water to strike distant foes. You throw the fishhook into a 5-foot square that's fully covered with water, and it emerges to Strike or @Compendium[pf2e.actionspf2e.Grapple]{Grapple} a target from another such square within 60 feet; the squares can be part of the same body of water or different ones. The distance between the bodies of water doesn't count toward the fishhook's range increment. If you successfully Grapple the target as part of this Strike, you can pull yourself along the fishhook's line, teleporting to the secondary body of water.</p>"
        },
        "equipped": {
            "value": false
        },
        "equippedBulk": {
            "value": ""
        },
        "group": "flail",
        "hands": {
            "value": ""
        },
        "hardness": {
            "value": 0
        },
        "hp": {
            "value": 0
        },
        "identification": {
            "misidentified": {},
            "status": "identified",
            "unidentified": {
                "data": {
                    "description": {
                        "value": ""
                    }
                },
                "img": "",
                "name": ""
            }
        },
        "invested": {
            "value": false
        },
        "level": {
            "value": 12
        },
        "maxHp": {
            "value": 0
        },
        "negateBulk": {
            "value": "0"
        },
        "potencyRune": {
            "value": 2
        },
        "preciousMaterial": {
            "value": null
        },
        "preciousMaterialGrade": {
            "value": null
        },
        "price": {
            "value": "1700 gp"
        },
        "property1": {
            "critDamage": "",
            "critDamageType": "",
            "critDice": 0,
            "critDie": "",
            "criticalConditionType": "",
            "criticalConditionValue": null,
            "damageType": "",
            "dice": 0,
            "die": "",
            "strikeConditionType": "",
            "strikeConditionValue": null,
            "value": ""
        },
        "propertyRune1": {
            "value": "returning"
        },
        "propertyRune2": {
            "value": null
        },
        "propertyRune3": {
            "value": null
        },
        "propertyRune4": {
            "value": null
        },
        "quantity": {
            "value": 1
        },
        "range": null,
        "reload": {
            "value": null
        },
        "rules": [],
        "size": {
            "value": "med"
        },
        "source": {
            "value": "Pathfinder Lost Omens: Monsters of Myth"
        },
        "specific": {
            "material": null,
            "runes": {
                "potency": 2,
                "striking": "greaterStriking"
            },
            "value": true
        },
        "splashDamage": {
            "value": 0
        },
        "stackGroup": {
            "value": ""
        },
        "strikingRune": {
            "value": "greaterStriking"
        },
        "traits": {
            "custom": "",
            "rarity": "rare",
            "value": [
                "finesse",
                "grapple",
                "tethered",
                "thrown-20",
                "transmutation",
                "water"
            ]
        },
        "usage": {
            "value": "held-in-one-hand"
        },
        "weight": {
            "value": "1"
        }
    },
    "effects": [],
    "flags": {},
    "img": "systems/pf2e/icons/equipment/weapons/combat-grapnel.webp",
    "name": "Tidal Fishhook",
    "type": "weapon"
}
