{
    "_id": "SHhSOqzt89GRk9kL",
    "data": {
        "baseItem": null,
        "brokenThreshold": {
            "value": 0
        },
        "bulkCapacity": {
            "value": ""
        },
        "collapsed": {
            "value": false
        },
        "containerId": {
            "value": null
        },
        "description": {
            "value": "<p>A miniature toy carriage is carved from wood and has fully functioning wheels. It can vary in size from 2 to 8 inches long, too small for even Tiny creatures to ride. If pushed or propelled, obstacles and terrain might slow, stop, tip, or divert the carriage's course.</p>\n<hr />\n<p>A tiny crank protrudes from the side of this carriage. If the crank is wound and the carriage is released on the ground, the carriage propels in a straight line at a Speed of 10 feet. Each Interact action spent winding the crank propels the carriage for 1 round. A windup toy carriage can be wound for a maximum of 9 actions total, at which point it's too tight to wind further.</p>"
        },
        "equipped": {
            "value": false
        },
        "equippedBulk": {
            "value": ""
        },
        "hardness": {
            "value": 0
        },
        "hp": {
            "value": 0
        },
        "identification": {
            "misidentified": {},
            "status": "identified",
            "unidentified": {
                "data": {
                    "description": {
                        "value": ""
                    }
                },
                "img": "",
                "name": ""
            }
        },
        "invested": {
            "value": null
        },
        "level": {
            "value": 2
        },
        "maxHp": {
            "value": 0
        },
        "negateBulk": {
            "value": "0"
        },
        "preciousMaterial": {
            "value": null
        },
        "preciousMaterialGrade": {
            "value": null
        },
        "price": {
            "value": "5 gp"
        },
        "quantity": {
            "value": 1
        },
        "rules": [],
        "size": {
            "value": "med"
        },
        "source": {
            "value": "Pathfinder Lost Omens: The Grand Bazaar"
        },
        "stackGroup": {
            "value": ""
        },
        "traits": {
            "custom": "",
            "rarity": "common",
            "value": []
        },
        "usage": {
            "value": "held-in-two-hands"
        },
        "weight": {
            "value": "L"
        }
    },
    "effects": [],
    "flags": {},
    "img": "systems/pf2e/icons/default-icons/equipment.svg",
    "name": "Toy Carriage (Windup)",
    "type": "equipment"
}
