{
    "_id": "PCQtpTKiGfSSRwNV",
    "data": {
        "baseItem": null,
        "brokenThreshold": {
            "value": 0
        },
        "bulkCapacity": {
            "value": ""
        },
        "collapsed": {
            "value": false
        },
        "containerId": {
            "value": ""
        },
        "description": {
            "value": "<p>These simple lenses are alchemically treated to detect the faint smoke trail from a piece of specially formulated sandalwood incense.</p>\n<p>This incense has an odor undetectable by most people and a long burn time, making it perfect for discreetly tracking individuals. A stick of this incense costs 1 sp and can safely burn for up to 8 hours.</p>\n<p>While wearing the lenses, you see alchemical fumes in a distinct green tint, granting you a +1 item bonus to Survival checks to Track a creature marked with the incense and to Perception checks to Seek any alchemical vapors.</p>\n<p>If the smoke is fresh, Tracking via the incense's fumes might use a lower DC than normal for tracking a creature walking on firm surfaces.</p>\n<hr />\n<p>Automatically applied effects:</p>\n<ul>\n<li>+1 item bonus to Survival checks to Track a creature marked with the incense</li>\n<li>+1 item bonus to Perception checks to Seek alchemical vapors</li>\n</ul>"
        },
        "equipped": {
            "value": false
        },
        "equippedBulk": {
            "value": ""
        },
        "hardness": {
            "value": 0
        },
        "hp": {
            "value": 0
        },
        "identification": {
            "misidentified": {},
            "status": "identified",
            "unidentified": {
                "data": {
                    "description": {
                        "value": ""
                    }
                },
                "img": "",
                "name": ""
            }
        },
        "invested": {
            "value": false
        },
        "level": {
            "value": 3
        },
        "maxHp": {
            "value": 0
        },
        "negateBulk": {
            "value": "0"
        },
        "preciousMaterial": {
            "value": ""
        },
        "preciousMaterialGrade": {
            "value": ""
        },
        "price": {
            "value": "40 gp"
        },
        "quantity": {
            "value": 1
        },
        "rules": [
            {
                "key": "FlatModifier",
                "label": "Vestige Lenses (track marked creature)",
                "predicate": {
                    "all": [
                        "action:track",
                        "target:marked-creature"
                    ]
                },
                "selector": "survival",
                "type": "item",
                "value": 1
            },
            {
                "key": "FlatModifier",
                "label": "Vestige Lenses (Seek alchemical vapors)",
                "predicate": {
                    "all": [
                        "action:seek",
                        "alchemical-vapors"
                    ]
                },
                "selector": "perception",
                "type": "item",
                "value": 1
            }
        ],
        "size": {
            "value": "med"
        },
        "source": {
            "value": "Pathfinder Lost Omens: Legends"
        },
        "stackGroup": {
            "value": ""
        },
        "traits": {
            "custom": "",
            "rarity": "rare",
            "value": [
                "alchemical"
            ]
        },
        "usage": {
            "value": "worneyepiece"
        },
        "weight": {
            "value": "L"
        }
    },
    "effects": [],
    "flags": {},
    "img": "systems/pf2e/icons/equipment/alchemical-items/alchemical-tools/vestige-lenses.webp",
    "name": "Vestige Lenses",
    "type": "equipment"
}
