{
    "_id": "na1WJDEaoqpcQuOR",
    "data": {
        "actionCategory": {
            "value": "offensive"
        },
        "actionType": {
            "value": "passive"
        },
        "actions": {
            "value": null
        },
        "description": {
            "value": "<p>The Kallas Devil has a vengeful streak and has the ability to infect wells and water supplies in Riverton with sewer haze. She can infect the water supply [[/br 1d6 #Days]]{1d6 days} after the Festival of the Skinned Hooves if the ritual sacrifice of the festival isn't performed.</p>"
        },
        "requirements": {
            "value": ""
        },
        "rules": [],
        "source": {
            "value": "Pathfinder Lost Omens: Monsters of Myth"
        },
        "traits": {
            "custom": "",
            "rarity": "common",
            "value": []
        },
        "trigger": {
            "value": ""
        }
    },
    "effects": [],
    "flags": {},
    "img": "systems/pf2e/icons/actions/Passive.webp",
    "name": "(Kallas Devil) Infectious Water",
    "type": "action"
}
