{
    "_id": "i4WBOAb7CmY53doM",
    "data": {
        "actionCategory": {
            "value": "offensive"
        },
        "actionType": {
            "value": "action"
        },
        "actions": {
            "value": 2
        },
        "description": {
            "value": "<p>The Melfesh Monster partially controls a creature within 60 feet that has inhaled its spores. This has the effects of a command spell (@Check[type:will|dc:24|name:False Synapses] save). This ability replaces sporesight and Spore Cloud.</p>"
        },
        "requirements": {
            "value": ""
        },
        "rules": [],
        "source": {
            "value": "Pathfinder Lost Omens: Monsters of Myth"
        },
        "traits": {
            "custom": "",
            "rarity": "common",
            "value": [
                "mental",
                "poison"
            ]
        },
        "trigger": {
            "value": ""
        }
    },
    "effects": [],
    "flags": {},
    "img": "systems/pf2e/icons/actions/TwoActions.webp",
    "name": "(Melfish Monster) False Synapses",
    "type": "action"
}
