{
    "_id": "VXKiqiW7gXfFCz1U",
    "data": {
        "actionCategory": {
            "value": "offensive"
        },
        "actionType": {
            "value": "action"
        },
        "actions": {
            "value": 2
        },
        "description": {
            "value": "<p data-visibility=\"gm\"><strong>Requirements</strong> A creature is within 90 feet of the Melfesh Monster and is standing on the ground</p>\n<p><strong>Effect</strong> Fungal threads burst from the ground. The creature must succeed at a @Check[type:reflex|dc:21|name:Mycelial Tomb] save or inhale Melfesh spores that remain in its body for 1 minute, be encased in mycelia, and be @Compendium[pf2e.conditionitems.Slowed]{Slowed 2}. The mycelia have Hardness 8 and 16 HP, and the DC to Force them Open is 21. Breaking the mycelia frees the creature and ends the slowed effect. If someone other than the encased creatures breaks the mycelia from the outside, the creature is @Compendium[pf2e.conditionitems.Stunned]{Stunned 1} and takes any damage dealt by the breaking effect in excess of the mycelia's Hit Points. This replaces the Envelop ability.</p>"
        },
        "requirements": {
            "value": ""
        },
        "rules": [],
        "source": {
            "value": "Pathfinder Lost Omens: Monsters of Myth"
        },
        "traits": {
            "custom": "",
            "rarity": "common",
            "value": []
        },
        "trigger": {
            "value": ""
        }
    },
    "effects": [],
    "flags": {},
    "img": "systems/pf2e/icons/actions/TwoActions.webp",
    "name": "(Melfish Monster) Mycelial Tomb",
    "type": "action"
}
