{
    "_id": "NrMgYvnIHFxeFEhX",
    "data": {
        "abilities": {
            "cha": {
                "mod": 2
            },
            "con": {
                "mod": 6
            },
            "dex": {
                "mod": 4
            },
            "int": {
                "mod": 2
            },
            "str": {
                "mod": 8
            },
            "wis": {
                "mod": 4
            }
        },
        "attributes": {
            "ac": {
                "details": "",
                "value": 34
            },
            "allSaves": {
                "value": ""
            },
            "hp": {
                "details": "",
                "max": 240,
                "temp": 0,
                "value": 240
            },
            "initiative": {
                "ability": "perception"
            },
            "perception": {
                "value": 23
            },
            "speed": {
                "otherSpeeds": [
                    {
                        "type": "burrow",
                        "value": "20"
                    },
                    {
                        "type": "climb",
                        "value": "20"
                    }
                ],
                "value": "30"
            }
        },
        "details": {
            "alignment": {
                "value": "CE"
            },
            "blurb": "",
            "creatureType": "Fey",
            "level": {
                "value": 13
            },
            "privateNotes": "",
            "publicNotes": "<p>Dalos are reclusive fey that dwell within or near remote volcanoes and volcanic vents and resemble the massive calderas they call home. They more often dwell within the superheated confines of these locales than in the \"cold wastelands\" beyond their warmth and are therefore rarely encountered outside such environments. Like most fey, dalos are capricious and vengeful. They hate being disturbed above all else and will often warn away intruders with only the throw of a red-hot boulder before attacking outright.</p>\n<p>A dalos stands 25 feet tall and weighs in excess of 20,000 pounds.</p>",
            "source": {
                "value": "Pathfinder #148: Fires of the Haunted City"
            }
        },
        "resources": {
            "focus": {
                "max": 1,
                "value": 1
            }
        },
        "saves": {
            "fortitude": {
                "saveDetail": "",
                "value": 27
            },
            "reflex": {
                "saveDetail": "",
                "value": 19
            },
            "will": {
                "saveDetail": "",
                "value": 23
            }
        },
        "traits": {
            "ci": [],
            "di": {
                "custom": "",
                "value": [
                    "fire"
                ]
            },
            "dr": [
                {
                    "exceptions": "except bludgeoning",
                    "label": "Physical",
                    "type": "physical",
                    "value": "15"
                }
            ],
            "dv": [
                {
                    "label": "Cold",
                    "type": "cold",
                    "value": "10"
                },
                {
                    "label": "Cold Iron",
                    "type": "coldiron",
                    "value": "10"
                }
            ],
            "languages": {
                "custom": "",
                "selected": [],
                "value": [
                    "ignan",
                    "sylvan",
                    "terran"
                ]
            },
            "rarity": "uncommon",
            "senses": {
                "value": "low-light vision"
            },
            "size": {
                "value": "huge"
            },
            "traits": {
                "custom": "",
                "value": [
                    "earth",
                    "fey",
                    "fire"
                ]
            }
        }
    },
    "effects": [],
    "flags": {},
    "img": "systems/pf2e/icons/default-icons/npc.svg",
    "items": [
        {
            "_id": "TsPUS6z43vjlNNkp",
            "data": {
                "autoHeightenLevel": {
                    "value": null
                },
                "description": {
                    "value": ""
                },
                "displayLevels": {},
                "prepared": {
                    "flexible": false,
                    "value": "innate"
                },
                "proficiency": {
                    "value": 0
                },
                "rules": [],
                "showSlotlessLevels": {
                    "value": true
                },
                "showUnpreparedSpells": {
                    "value": false
                },
                "signatureSpells": {
                    "value": []
                },
                "slots": {
                    "slot0": {
                        "max": 0,
                        "prepared": [],
                        "value": 0
                    },
                    "slot1": {
                        "max": 0,
                        "prepared": [],
                        "value": 0
                    },
                    "slot10": {
                        "max": 0,
                        "prepared": [],
                        "value": 0
                    },
                    "slot11": {
                        "max": 0,
                        "prepared": [],
                        "value": 0
                    },
                    "slot2": {
                        "max": 0,
                        "prepared": [],
                        "value": 0
                    },
                    "slot3": {
                        "max": 0,
                        "prepared": [],
                        "value": 0
                    },
                    "slot4": {
                        "max": 0,
                        "prepared": [],
                        "value": 0
                    },
                    "slot5": {
                        "max": 0,
                        "prepared": [],
                        "value": 0
                    },
                    "slot6": {
                        "max": 0,
                        "prepared": [],
                        "value": 0
                    },
                    "slot7": {
                        "max": 0,
                        "prepared": [],
                        "value": 0
                    },
                    "slot8": {
                        "max": 0,
                        "prepared": [],
                        "value": 0
                    },
                    "slot9": {
                        "max": 0,
                        "prepared": [],
                        "value": 0
                    }
                },
                "slug": null,
                "source": {
                    "value": ""
                },
                "spelldc": {
                    "dc": 31,
                    "mod": 0,
                    "value": 21
                },
                "tradition": {
                    "value": "primal"
                },
                "traits": {
                    "custom": "",
                    "rarity": "common",
                    "value": []
                }
            },
            "effects": [],
            "flags": {},
            "img": "systems/pf2e/icons/default-icons/spellcastingEntry.svg",
            "name": "Primal Innate Spells",
            "sort": 100000,
            "type": "spellcastingEntry"
        },
        {
            "_id": "EMRfwJYEqE2MwhAP",
            "data": {
                "ability": {
                    "value": ""
                },
                "area": {
                    "areaType": "",
                    "value": null
                },
                "areasize": {
                    "value": ""
                },
                "autoHeightenLevel": {
                    "value": null
                },
                "category": {
                    "value": "spell"
                },
                "components": {
                    "focus": false,
                    "material": false,
                    "somatic": true,
                    "verbal": true
                },
                "cost": {
                    "value": ""
                },
                "damage": {
                    "value": {}
                },
                "description": {
                    "value": "<p>Using the weight of earth, you hamper a target's flight, with effects based on its Fortitude save. If the creature reaches the ground safely, it doesn't take falling damage.</p>\n<hr /><strong>Critical Success</strong> The target is unaffected.\n<p><strong>Success</strong> The target falls safely up to 120 feet.</p>\n<p><strong>Failure</strong> The target falls safely up to 120 feet. If it hits the ground, it can't Fly, levitate, or otherwise leave the ground for 1 round.</p>\n<p><strong>Critical Failure</strong> The target falls safely up to 120 feet. If it hits the ground, it can't Fly, levitate, or otherwise leave the ground for 1 minute.</p>"
                },
                "duration": {
                    "value": "varies"
                },
                "hasCounteractCheck": {
                    "value": false
                },
                "heightenedLevel": {
                    "value": 7
                },
                "level": {
                    "value": 3
                },
                "location": {
                    "value": "TsPUS6z43vjlNNkp"
                },
                "materials": {
                    "value": ""
                },
                "prepared": {
                    "value": ""
                },
                "primarycheck": {
                    "value": ""
                },
                "range": {
                    "value": "120 feet"
                },
                "rules": [],
                "save": {
                    "basic": "",
                    "value": "fortitude"
                },
                "school": {
                    "value": "transmutation"
                },
                "secondarycasters": {
                    "value": ""
                },
                "secondarycheck": {
                    "value": ""
                },
                "slug": "earthbind",
                "source": {
                    "value": ""
                },
                "spellType": {
                    "value": "save"
                },
                "sustained": {
                    "value": false
                },
                "target": {
                    "value": "1 flying creature"
                },
                "time": {
                    "value": "2"
                },
                "traditions": {
                    "value": [
                        "arcane",
                        "primal"
                    ]
                },
                "traits": {
                    "custom": "",
                    "rarity": "common",
                    "value": []
                }
            },
            "effects": [],
            "flags": {
                "core": {
                    "sourceId": "Compendium.pf2e.spells-srd.gPvtmKMRpg9I9D7H"
                }
            },
            "img": "systems/pf2e/icons/spells/earthbind.webp",
            "name": "Earthbind",
            "sort": 200000,
            "type": "spell"
        },
        {
            "_id": "QPrbbUlXIQlkf2uB",
            "data": {
                "ability": {
                    "value": ""
                },
                "area": {
                    "areaType": "",
                    "value": null
                },
                "areasize": {
                    "value": ""
                },
                "autoHeightenLevel": {
                    "value": null
                },
                "category": {
                    "value": "spell"
                },
                "components": {
                    "focus": false,
                    "material": false,
                    "somatic": true,
                    "verbal": true
                },
                "cost": {
                    "value": ""
                },
                "damage": {
                    "value": {}
                },
                "description": {
                    "value": "<p>Using the weight of earth, you hamper a target's flight, with effects based on its Fortitude save. If the creature reaches the ground safely, it doesn't take falling damage.</p>\n<hr /><strong>Critical Success</strong> The target is unaffected.\n<p><strong>Success</strong> The target falls safely up to 120 feet.</p>\n<p><strong>Failure</strong> The target falls safely up to 120 feet. If it hits the ground, it can't Fly, levitate, or otherwise leave the ground for 1 round.</p>\n<p><strong>Critical Failure</strong> The target falls safely up to 120 feet. If it hits the ground, it can't Fly, levitate, or otherwise leave the ground for 1 minute.</p>"
                },
                "duration": {
                    "value": "varies"
                },
                "hasCounteractCheck": {
                    "value": false
                },
                "heightenedLevel": {
                    "value": 7
                },
                "level": {
                    "value": 3
                },
                "location": {
                    "value": "TsPUS6z43vjlNNkp"
                },
                "materials": {
                    "value": ""
                },
                "prepared": {
                    "value": ""
                },
                "primarycheck": {
                    "value": ""
                },
                "range": {
                    "value": "120 feet"
                },
                "rules": [],
                "save": {
                    "basic": "",
                    "value": "fortitude"
                },
                "school": {
                    "value": "transmutation"
                },
                "secondarycasters": {
                    "value": ""
                },
                "secondarycheck": {
                    "value": ""
                },
                "slug": "earthbind",
                "source": {
                    "value": ""
                },
                "spellType": {
                    "value": "save"
                },
                "sustained": {
                    "value": false
                },
                "target": {
                    "value": "1 flying creature"
                },
                "time": {
                    "value": "2"
                },
                "traditions": {
                    "value": [
                        "arcane",
                        "primal"
                    ]
                },
                "traits": {
                    "custom": "",
                    "rarity": "common",
                    "value": []
                }
            },
            "effects": [],
            "flags": {
                "core": {
                    "sourceId": "Compendium.pf2e.spells-srd.gPvtmKMRpg9I9D7H"
                }
            },
            "img": "systems/pf2e/icons/spells/earthbind.webp",
            "name": "Earthbind",
            "sort": 300000,
            "type": "spell"
        },
        {
            "_id": "WkQc0dtHpOjD0q7R",
            "data": {
                "ability": {
                    "value": ""
                },
                "area": {
                    "areaType": "",
                    "value": null
                },
                "areasize": {
                    "value": ""
                },
                "autoHeightenLevel": {
                    "value": null
                },
                "category": {
                    "value": "spell"
                },
                "components": {
                    "focus": false,
                    "material": false,
                    "somatic": true,
                    "verbal": true
                },
                "cost": {
                    "value": ""
                },
                "damage": {
                    "value": {}
                },
                "description": {
                    "value": "<p>Using the weight of earth, you hamper a target's flight, with effects based on its Fortitude save. If the creature reaches the ground safely, it doesn't take falling damage.</p>\n<hr /><strong>Critical Success</strong> The target is unaffected.\n<p><strong>Success</strong> The target falls safely up to 120 feet.</p>\n<p><strong>Failure</strong> The target falls safely up to 120 feet. If it hits the ground, it can't Fly, levitate, or otherwise leave the ground for 1 round.</p>\n<p><strong>Critical Failure</strong> The target falls safely up to 120 feet. If it hits the ground, it can't Fly, levitate, or otherwise leave the ground for 1 minute.</p>"
                },
                "duration": {
                    "value": "varies"
                },
                "hasCounteractCheck": {
                    "value": false
                },
                "heightenedLevel": {
                    "value": 7
                },
                "level": {
                    "value": 3
                },
                "location": {
                    "value": "TsPUS6z43vjlNNkp"
                },
                "materials": {
                    "value": ""
                },
                "prepared": {
                    "value": ""
                },
                "primarycheck": {
                    "value": ""
                },
                "range": {
                    "value": "120 feet"
                },
                "rules": [],
                "save": {
                    "basic": "",
                    "value": "fortitude"
                },
                "school": {
                    "value": "transmutation"
                },
                "secondarycasters": {
                    "value": ""
                },
                "secondarycheck": {
                    "value": ""
                },
                "slug": "earthbind",
                "source": {
                    "value": ""
                },
                "spellType": {
                    "value": "save"
                },
                "sustained": {
                    "value": false
                },
                "target": {
                    "value": "1 flying creature"
                },
                "time": {
                    "value": "2"
                },
                "traditions": {
                    "value": [
                        "arcane",
                        "primal"
                    ]
                },
                "traits": {
                    "custom": "",
                    "rarity": "common",
                    "value": []
                }
            },
            "effects": [],
            "flags": {
                "core": {
                    "sourceId": "Compendium.pf2e.spells-srd.gPvtmKMRpg9I9D7H"
                }
            },
            "img": "systems/pf2e/icons/spells/earthbind.webp",
            "name": "Earthbind",
            "sort": 400000,
            "type": "spell"
        },
        {
            "_id": "ttPTp7MriAifEXkZ",
            "data": {
                "ability": {
                    "value": ""
                },
                "area": {
                    "areaType": "",
                    "value": null
                },
                "areasize": {
                    "value": ""
                },
                "autoHeightenLevel": {
                    "value": null
                },
                "category": {
                    "value": "spell"
                },
                "components": {
                    "focus": false,
                    "material": false,
                    "somatic": true,
                    "verbal": true
                },
                "cost": {
                    "value": ""
                },
                "damage": {
                    "value": {}
                },
                "description": {
                    "value": "<p>You dilate the flow of time around the target, slowing its actions.</p>\n<hr />\n<p><strong>Critical Success</strong> The target is unaffected.</p>\n<p><strong>Success</strong> The target is @Compendium[pf2e.conditionitems.Slowed]{Slowed 1} for 1 round.</p>\n<p><strong>Failure</strong> The target is @Compendium[pf2e.conditionitems.Slowed]{Slowed 1} for 1 minute.</p>\n<p><strong>Critical Failure</strong> The target is @Compendium[pf2e.conditionitems.Slowed]{Slowed 2} for 1 minute.</p>\n<hr />\n<p><strong>Heightened (6th)</strong> You can target up to 10 creatures.</p>"
                },
                "duration": {
                    "value": "1 minute"
                },
                "hasCounteractCheck": {
                    "value": false
                },
                "heightenedLevel": {
                    "value": 7
                },
                "level": {
                    "value": 3
                },
                "location": {
                    "value": "TsPUS6z43vjlNNkp"
                },
                "materials": {
                    "value": ""
                },
                "prepared": {
                    "value": ""
                },
                "primarycheck": {
                    "value": ""
                },
                "range": {
                    "value": "30 feet"
                },
                "rules": [],
                "save": {
                    "basic": "",
                    "value": "fortitude"
                },
                "school": {
                    "value": "transmutation"
                },
                "secondarycasters": {
                    "value": ""
                },
                "secondarycheck": {
                    "value": ""
                },
                "slug": "slow",
                "source": {
                    "value": ""
                },
                "spellType": {
                    "value": "save"
                },
                "sustained": {
                    "value": false
                },
                "target": {
                    "value": "1 creature"
                },
                "time": {
                    "value": "2"
                },
                "traditions": {
                    "value": [
                        "arcane",
                        "occult",
                        "primal"
                    ]
                },
                "traits": {
                    "custom": "",
                    "rarity": "common",
                    "value": []
                }
            },
            "effects": [],
            "flags": {
                "core": {
                    "sourceId": "Compendium.pf2e.spells-srd.WsUwpfmhKrKwoIe3"
                }
            },
            "img": "systems/pf2e/icons/spells/slow.webp",
            "name": "Slow",
            "sort": 500000,
            "type": "spell"
        },
        {
            "_id": "xcHn69aZVz0m2qLo",
            "data": {
                "ability": {
                    "value": ""
                },
                "area": {
                    "areaType": "burst",
                    "value": 20
                },
                "areasize": {
                    "value": "20-foot burst"
                },
                "autoHeightenLevel": {
                    "value": null
                },
                "category": {
                    "value": "spell"
                },
                "components": {
                    "focus": false,
                    "material": false,
                    "somatic": true,
                    "verbal": true
                },
                "cost": {
                    "value": ""
                },
                "damage": {
                    "value": {}
                },
                "description": {
                    "value": "<p>You create a cloud of putrid mist in the area. The cloud functions as <em>@Compendium[pf2e.spells-srd.Obscuring Mist]{Obscuring Mist}</em> except it sickens creatures that end their turns within the cloud. (The @Compendium[pf2e.conditionitems.Concealed]{Concealed} condition is not a poison effect.)</p>\n<hr />\n<p><strong>Critical Success</strong> The creature is unaffected.</p>\n<p><strong>Success</strong> The creature is @Compendium[pf2e.conditionitems.Sickened]{Sickened 1}.</p>\n<p><strong>Failure</strong> The creature is @Compendium[pf2e.conditionitems.Sickened]{Sickened 1} and @Compendium[pf2e.conditionitems.Slowed]{Slowed 1} while in the cloud.</p>\n<p><strong>Critical Failure</strong> The creature is @Compendium[pf2e.conditionitems.Sickened]{Sickened 2} and @Compendium[pf2e.conditionitems.Slowed]{Slowed 1} until it leaves the cloud.</p>"
                },
                "duration": {
                    "value": "1 minute"
                },
                "hasCounteractCheck": {
                    "value": false
                },
                "heightenedLevel": {
                    "value": 7
                },
                "level": {
                    "value": 3
                },
                "location": {
                    "value": "TsPUS6z43vjlNNkp"
                },
                "materials": {
                    "value": ""
                },
                "prepared": {
                    "value": ""
                },
                "primarycheck": {
                    "value": ""
                },
                "range": {
                    "value": "120 feet"
                },
                "rules": [],
                "save": {
                    "basic": "",
                    "value": "fortitude"
                },
                "school": {
                    "value": "conjuration"
                },
                "secondarycasters": {
                    "value": ""
                },
                "secondarycheck": {
                    "value": ""
                },
                "slug": "stinking-cloud",
                "source": {
                    "value": ""
                },
                "spellType": {
                    "value": "save"
                },
                "sustained": {
                    "value": false
                },
                "target": {
                    "value": ""
                },
                "time": {
                    "value": "2"
                },
                "traditions": {
                    "value": [
                        "arcane",
                        "primal"
                    ]
                },
                "traits": {
                    "custom": "",
                    "rarity": "common",
                    "value": [
                        "poison"
                    ]
                }
            },
            "effects": [],
            "flags": {
                "core": {
                    "sourceId": "Compendium.pf2e.spells-srd.GKpEcy9WId6NJvtx"
                }
            },
            "img": "systems/pf2e/icons/spells/stinking-cloud.webp",
            "name": "Stinking Cloud",
            "sort": 600000,
            "type": "spell"
        },
        {
            "_id": "3nm3Uxd0Ev8aBu6h",
            "data": {
                "attack": {
                    "value": ""
                },
                "attackEffects": {
                    "value": []
                },
                "bonus": {
                    "value": 27
                },
                "damageRolls": {
                    "nzwnihps6nncxifl4ei9": {
                        "damage": "3d8+11",
                        "damageType": "bludgeoning"
                    },
                    "30i8dvbwh0hq634v6z7b": {
                        "damage": "2d6",
                        "damageType": "fire"
                    }
                },
                "description": {
                    "value": ""
                },
                "rules": [],
                "slug": null,
                "source": {
                    "value": ""
                },
                "traits": {
                    "custom": "",
                    "rarity": "common",
                    "value": [
                        "reach-15"
                    ]
                },
                "weaponType": {
                    "value": "melee"
                }
            },
            "effects": [],
            "flags": {},
            "img": "systems/pf2e/icons/default-icons/melee.svg",
            "name": "Fist",
            "sort": 700000,
            "type": "melee"
        },
        {
            "_id": "ZB91njeJdhCxI5DS",
            "data": {
                "attack": {
                    "value": ""
                },
                "attackEffects": {
                    "value": []
                },
                "bonus": {
                    "value": 25
                },
                "damageRolls": {
                    "bbwog7kfi1dyfl65xmpd": {
                        "damage": "2d10+11",
                        "damageType": "bludgeoning"
                    }
                },
                "description": {
                    "value": ""
                },
                "rules": [],
                "slug": null,
                "source": {
                    "value": ""
                },
                "traits": {
                    "custom": "",
                    "rarity": "common",
                    "value": [
                        "range-increment-150"
                    ]
                },
                "weaponType": {
                    "value": "ranged"
                }
            },
            "effects": [],
            "flags": {},
            "img": "systems/pf2e/icons/default-icons/melee.svg",
            "name": "Rock",
            "sort": 800000,
            "type": "melee"
        },
        {
            "_id": "UhafuYzXLYPCHxPD",
            "data": {
                "actionCategory": {
                    "value": "interaction"
                },
                "actionType": {
                    "value": "passive"
                },
                "actions": {
                    "value": null
                },
                "description": {
                    "value": "<p>@Localize[PF2E.NPC.Abilities.Glossary.LowLightVision]</p>"
                },
                "requirements": {
                    "value": ""
                },
                "rules": [],
                "slug": "low-light-vision",
                "source": {
                    "value": ""
                },
                "traits": {
                    "custom": "",
                    "rarity": "common",
                    "value": []
                },
                "trigger": {
                    "value": ""
                },
                "weapon": {
                    "value": ""
                }
            },
            "effects": [],
            "flags": {
                "core": {
                    "sourceId": "Compendium.pf2e.bestiary-ability-glossary-srd.fFu2sZz4KB01fVRc"
                }
            },
            "img": "systems/pf2e/icons/actions/Passive.webp",
            "name": "Low-Light Vision",
            "sort": 900000,
            "type": "action"
        },
        {
            "_id": "ayGFqy96KRzgh1Jx",
            "data": {
                "actionCategory": {
                    "value": "defensive"
                },
                "actionType": {
                    "value": "passive"
                },
                "actions": {
                    "value": null
                },
                "description": {
                    "value": "<p>Whenever the dalos takes damage from a melee Strike, magma splashes from its open wound and sticks to nearby creatures. Each creature in a @Template[type:emanation|distance:10] must attempt a @Check[type:reflex|dc:31|traits:damaging-effect] save. On a failure, the creature takes [[/r {3d6}[persistent,fire]]] @Compendium[pf2e.conditionitems.Persistent Damage]{Persistent Fire Damage} as the superheated rock sticks to them and cools. The DC to end this persistent damage decreases by 5 each turn after the first as the magma cools.</p>"
                },
                "requirements": {
                    "value": ""
                },
                "rules": [],
                "slug": null,
                "source": {
                    "value": ""
                },
                "traits": {
                    "custom": "",
                    "rarity": "common",
                    "value": [
                        "fire"
                    ]
                },
                "trigger": {
                    "value": ""
                },
                "weapon": {
                    "value": ""
                }
            },
            "effects": [],
            "flags": {},
            "img": "systems/pf2e/icons/actions/Passive.webp",
            "name": "Magma Splash",
            "sort": 1000000,
            "type": "action"
        },
        {
            "_id": "kJlV6Vzu6KZumb6u",
            "data": {
                "actionCategory": {
                    "value": "defensive"
                },
                "actionType": {
                    "value": "passive"
                },
                "actions": {
                    "value": null
                },
                "description": {
                    "value": "<p>@Template[type:emanation|distance:10]{10 feet} @Compendium[pf2e.bestiary-ability-glossary-srd.Aura]{Aura} [[/r {3d6}[fire]]]{3d6 fire damage} (@Check[type:reflex|dc:29|basic:true] save).</p>"
                },
                "requirements": {
                    "value": ""
                },
                "rules": [],
                "slug": null,
                "source": {
                    "value": ""
                },
                "traits": {
                    "custom": "",
                    "rarity": "common",
                    "value": [
                        "aura",
                        "fire"
                    ]
                },
                "trigger": {
                    "value": ""
                },
                "weapon": {
                    "value": ""
                }
            },
            "effects": [],
            "flags": {},
            "img": "systems/pf2e/icons/actions/Passive.webp",
            "name": "Volcanic Heat",
            "sort": 1100000,
            "type": "action"
        },
        {
            "_id": "bbL3QbriTw1sy7so",
            "data": {
                "actionCategory": {
                    "value": "offensive"
                },
                "actionType": {
                    "value": "action"
                },
                "actions": {
                    "value": 3
                },
                "description": {
                    "value": "<p>The dalos blasts smoke from its head, creating a @Template[type:burst|distance:20] of smoke that drifts to a location within 120 feet. This has the effects of <em>@Compendium[pf2e.spells-srd.Obscuring Mist]{Obscuring Mist}</em>.</p>"
                },
                "requirements": {
                    "value": ""
                },
                "rules": [],
                "slug": null,
                "source": {
                    "value": ""
                },
                "traits": {
                    "custom": "",
                    "rarity": "common",
                    "value": []
                },
                "trigger": {
                    "value": ""
                },
                "weapon": {
                    "value": ""
                }
            },
            "effects": [],
            "flags": {},
            "img": "systems/pf2e/icons/actions/ThreeActions.webp",
            "name": "Belch Smoke",
            "sort": 1200000,
            "type": "action"
        },
        {
            "_id": "Bizy0PzkQAYT8X7H",
            "data": {
                "actionCategory": {
                    "value": "offensive"
                },
                "actionType": {
                    "value": "action"
                },
                "actions": {
                    "value": 2
                },
                "description": {
                    "value": "<p>The dalos uses an Interact action to pluck a rock from its body or the nearby environment, then uses its internal fires to heat a rock it's holding until the rock is red hot. A heated rock that hits a target on a ranged Strike deals an additional [[/r {4d6}[fire]]]{4d6 fire damage}.</p>\n<p>Once the dalos heats a rock, that rock retains its heat for 2 rounds before cooling.</p>"
                },
                "requirements": {
                    "value": ""
                },
                "rules": [
                    {
                        "damageType": "fire",
                        "diceNumber": 4,
                        "dieSize": "d6",
                        "key": "DamageDice",
                        "selector": "rock-damage",
                        "traits": [
                            "heatRock"
                        ]
                    },
                    {
                        "key": "ToggleProperty",
                        "property": "flags.pf2e.rollOptions.damage-roll.heatRock"
                    }
                ],
                "slug": null,
                "source": {
                    "value": ""
                },
                "traits": {
                    "custom": "",
                    "rarity": "common",
                    "value": [
                        "fire"
                    ]
                },
                "trigger": {
                    "value": ""
                },
                "weapon": {
                    "value": ""
                }
            },
            "effects": [],
            "flags": {},
            "img": "systems/pf2e/icons/actions/TwoActions.webp",
            "name": "Heat Rock",
            "sort": 1300000,
            "type": "action"
        },
        {
            "_id": "BJZe244H2HjWtcpq",
            "data": {
                "actionCategory": {
                    "value": "offensive"
                },
                "actionType": {
                    "value": "action"
                },
                "actions": {
                    "value": 2
                },
                "description": {
                    "value": "<p>The dalos causes a volcanic explosion to erupt from its head, lobbing a mass of molten rock up to 100 feet. This lava bomb deals [[/r {6d8}[fire]+{6d8}[bludgeoning]]]{6d8 fire damage and 6d8 bludgeoning damage} to each creature in a @Template[type:burst|distance:20]{20-foot radius} of its impact point, with a @Check[type:reflex|dc:33|basic:true] save.</p>\n<p data-visibility=\"gm\">The dalos can't use Lava Bomb again for [[/br 1d4 #rounds]]{1d4 rounds}.</p>"
                },
                "requirements": {
                    "value": ""
                },
                "rules": [],
                "slug": null,
                "source": {
                    "value": ""
                },
                "traits": {
                    "custom": "",
                    "rarity": "common",
                    "value": [
                        "earth",
                        "fire"
                    ]
                },
                "trigger": {
                    "value": ""
                },
                "weapon": {
                    "value": ""
                }
            },
            "effects": [],
            "flags": {},
            "img": "systems/pf2e/icons/actions/TwoActions.webp",
            "name": "Lava Bomb",
            "sort": 1400000,
            "type": "action"
        },
        {
            "_id": "XO1T3uBgfNZ2aJks",
            "data": {
                "actionCategory": {
                    "value": "offensive"
                },
                "actionType": {
                    "value": "action"
                },
                "actions": {
                    "value": 1
                },
                "description": {
                    "value": "<p>@Localize[PF2E.NPC.Abilities.Glossary.ThrowRock]</p>"
                },
                "requirements": {
                    "value": ""
                },
                "rules": [],
                "slug": null,
                "source": {
                    "value": ""
                },
                "traits": {
                    "custom": "",
                    "rarity": "common",
                    "value": []
                },
                "trigger": {
                    "value": ""
                },
                "weapon": {
                    "value": ""
                }
            },
            "effects": [],
            "flags": {},
            "img": "systems/pf2e/icons/actions/OneAction.webp",
            "name": "Throw Rock",
            "sort": 1500000,
            "type": "action"
        },
        {
            "_id": "ra4AmXej9WINiIq3",
            "data": {
                "description": {
                    "value": ""
                },
                "mod": {
                    "value": 29
                },
                "proficient": {
                    "value": 0
                },
                "rules": [],
                "slug": null,
                "source": {
                    "value": ""
                },
                "traits": {
                    "custom": "",
                    "rarity": "common",
                    "value": []
                }
            },
            "effects": [],
            "flags": {},
            "img": "systems/pf2e/icons/default-icons/lore.svg",
            "name": "Athletics",
            "sort": 1600000,
            "type": "lore"
        },
        {
            "_id": "EQSxWcC0HcpkFs9Y",
            "data": {
                "description": {
                    "value": ""
                },
                "mod": {
                    "value": 23
                },
                "proficient": {
                    "value": 0
                },
                "rules": [],
                "slug": null,
                "source": {
                    "value": ""
                },
                "traits": {
                    "custom": "",
                    "rarity": "common",
                    "value": []
                }
            },
            "effects": [],
            "flags": {},
            "img": "systems/pf2e/icons/default-icons/lore.svg",
            "name": "Nature",
            "sort": 1700000,
            "type": "lore"
        },
        {
            "_id": "BPkegcK7BGWjvwCm",
            "data": {
                "description": {
                    "value": ""
                },
                "mod": {
                    "value": 23
                },
                "proficient": {
                    "value": 0
                },
                "rules": [],
                "slug": null,
                "source": {
                    "value": ""
                },
                "traits": {
                    "custom": "",
                    "rarity": "common",
                    "value": []
                }
            },
            "effects": [],
            "flags": {},
            "img": "systems/pf2e/icons/default-icons/lore.svg",
            "name": "Survival",
            "sort": 1800000,
            "type": "lore"
        }
    ],
    "name": "Dalos",
    "token": {
        "disposition": -1,
        "height": 3,
        "img": "systems/pf2e/icons/default-icons/npc.svg",
        "name": "Dalos",
        "width": 3
    },
    "type": "npc"
}
