{
    "_id": "2CCPMTk5DlZslpOp",
    "content": "<table class=\"pf2-table\">\n<thead>\n<tr>\n<th>\n<h3><strong>Name</strong></h3>\n</th>\n<th>\n<h3><strong>Crit Effect</strong></h3>\n</th>\n<th>\n<h3><strong>Type</strong></h3>\n</th>\n</tr>\n</thead>\n<tbody>\n<tr>\n<td>\n<h3>Rattled</h3>\n</td>\n<td>\n<h3>Normal damage. The target is confused for 1 round.</h3>\n</td>\n<td>\n<h3>Bludgeoning</h3>\n</td>\n</tr>\n<tr>\n<td>\n<h3>Guarded Strike</h3>\n</td>\n<td>\n<h3>Gain +2 circumstance bonus to AC until the end of your next turn.</h3>\n</td>\n<td>\n<h3>Piercing</h3>\n</td>\n</tr>\n<tr>\n<td>\n<h3>Severed Tendon</h3>\n</td>\n<td>\n<h3>Until healed, the target is clumsy 1 and takes a -5-foot status penalty to its land Speed.</h3>\n</td>\n<td>\n<h3>Slashing</h3>\n</td>\n</tr>\n<tr>\n<td>\n<h3>Power Surge</h3>\n</td>\n<td>\n<h3>Triple damage.</h3>\n</td>\n<td>\n<h3>Bomb or Spell</h3>\n</td>\n</tr>\n</tbody>\n</table>\n<h3 style=\"text-align: left;\"> </h3>",
    "flags": {},
    "name": "Critical Hit Deck #18",
    "permission": {
        "default": 0
    }
}
