{
    "_id": "Zx67JiRVzstgEa32",
    "content": "<table class=\"pf2-table\">\n<thead>\n<tr>\n<th>\n<h3><strong>Name</strong></h3>\n</th>\n<th>\n<h3><strong>Crit Effect</strong></h3>\n</th>\n<th>\n<h3><strong>Type</strong></h3>\n</th>\n</tr>\n</thead>\n<tbody>\n<tr>\n<td>Catastrophic Failure</td>\n<td>You fall unconscious until you awake up or the end of your next turn.</td>\n<td>\n<h3>Melee</h3>\n</td>\n</tr>\n<tr>\n<td>Overthrow</td>\n<td>If the attack used a thrown weapon, the weapon travels three times its range increment in a random direction (determined by the GM).</td>\n<td>\n<h3>Ranged</h3>\n</td>\n</tr>\n<tr>\n<td>Don't pick it It</td>\n<td>You become wounded 1 or your wounded value increases by 1.</td>\n<td>\n<h3>Unarmed</h3>\n</td>\n</tr>\n<tr>\n<td>Magical Smackdown</td>\n<td>You automatically fail (but do not critically fail) your net saving throw.</td>\n<td>\n<h3>Spell</h3>\n</td>\n</tr>\n</tbody>\n</table>\n<h3 style=\"text-align: left;\"> </h3>",
    "flags": {},
    "name": "Critical Fumble Deck #48",
    "permission": {
        "default": 0
    }
}
