{
    "_id": "Xg57qG1rOfSSobke",
    "data": {
        "actionCategory": {
            "value": "offensive"
        },
        "actionType": {
            "value": "action"
        },
        "actions": {
            "value": 2
        },
        "description": {
            "value": "<p>Your eidolon exhales a blast of destructive energy. Your eidolon deals 1d6 damage to all creatures in the area, with a basic Reflex save against your spell DC. The area and damage type of the Breath Weapon are chosen when the eidolon gains this ability.</p>\n<p>Your eidolon then can't use their Breath Weapon again for the next [[/r 1d4 #rounds]]{1d4 rounds}.</p>\n<p>At 3rd level and every 2 levels thereafter, the damage increases by 1d6. [[/r (ceil(@actor.level/2))d6]]{Levelled Damage}</p>"
        },
        "requirements": {
            "value": ""
        },
        "rules": [],
        "source": {
            "value": "Pathfinder Advanced Player's Guide"
        },
        "traits": {
            "custom": "",
            "rarity": "common",
            "value": [
                "arcane",
                "eidolon",
                "evocation"
            ]
        },
        "trigger": {
            "value": ""
        },
        "weapon": {
            "value": ""
        }
    },
    "effects": [],
    "flags": {},
    "img": "systems/pf2e/icons/actions/TwoActions.webp",
    "name": "Breath Weapon",
    "type": "action"
}
