{
    "_id": "W9tKQlA7tVIcAuzw",
    "data": {
        "description": {
            "value": "<p>For the next hour, you gain a +3 item bonus against transmutation effects, which is +4 against polymorph effects. If you roll a success against a polymorph effect during that time, you get a critical success instead.</p>"
        },
        "duration": {
            "expiry": "turn-start",
            "sustained": false,
            "unit": "hours",
            "value": 1
        },
        "level": {
            "value": 1
        },
        "rules": [
            {
                "key": "FlatModifier",
                "label": "stableFormTransmutation",
                "predicate": {
                    "all": [
                        "transmutation"
                    ]
                },
                "selector": "saving-throw",
                "type": "item",
                "value": 3
            },
            {
                "key": "FlatModifier",
                "label": "stableFormPolymorph",
                "predicate": {
                    "all": [
                        "polymorph"
                    ]
                },
                "selector": "saving-throw",
                "type": "item",
                "value": 4
            },
            {
                "adjustment": {
                    "success": "one-degree-better"
                },
                "key": "AdjustDegreeOfSuccess",
                "predicate": {
                    "all": [
                        "polymorph"
                    ]
                },
                "selector": "saving-throw",
                "type": "save"
            }
        ],
        "source": {
            "value": ""
        },
        "start": {
            "initiative": null,
            "value": 0
        },
        "target": null,
        "tokenIcon": {
            "show": true
        },
        "traits": {
            "custom": "",
            "rarity": "common",
            "value": []
        }
    },
    "effects": [],
    "flags": {},
    "img": "systems/pf2e/icons/default-icons/effect.svg",
    "name": "Equipment Effect: Greater Potion of Stable Form",
    "type": "effect"
}
