{
    "_id": "XeXWsvcWU3Zaj5WC",
    "data": {
        "ancestry": {
            "name": "Gnome",
            "uuid": "Compendium.pf2e.ancestries.CYlfsYLJcBOgqKtD"
        },
        "description": {
            "value": "<p>The color of your hair and skin is mutable, possibly due to latent magic. You can slowly change the vibrancy and the exact color, and the coloration can be different across your body, allowing you to create patterns or other colorful designs.</p>\n<p>It takes a single action for minor localized shifts and up to an hour for dramatic shifts throughout your body. While you're asleep, the colors shift on their own in tune with your dreams, giving you an unusual coloration each morning.</p>\n<p>When you're in an area where your coloration is roughly similar to the environment (for instance, forest green in a forest), you can use the single action to make minor localized shifts designed to help you blend into your surroundings. This grants you a +2 circumstance bonus to Stealth checks until your surroundings shift in coloration or pattern.</p>"
        },
        "rules": [
            {
                "key": "FlatModifier",
                "label": "Chameleon Gnome (coloration matches environment)",
                "predicate": {
                    "all": [
                        "coloration-matches"
                    ]
                },
                "selector": "stealth",
                "type": "circumstance",
                "value": 2
            }
        ],
        "source": {
            "value": ""
        },
        "traits": {
            "custom": "",
            "rarity": "common",
            "value": []
        }
    },
    "effects": [],
    "flags": {},
    "img": "systems/pf2e/icons/features/ancestry/chameleon-gnome.webp",
    "name": "Chameleon Gnome",
    "type": "heritage"
}
