{
    "_id": "EKY9v7SF1hVsUdbH",
    "data": {
        "ancestry": null,
        "description": {
            "value": "<p>Your mother was a hag. Your heterochromatic eyes are the most obvious signifier of this parentage, but you likely also have a slighter build, paler skin, and darker hair than most members of your other parent's ancestry. You gain the changeling trait. You also gain @Compendium[pf2e.ancestryfeatures.Low-Light Vision]{Low-Light Vision}, or you gain @Compendium[pf2e.ancestryfeatures.Darkvision]{Darkvision} if your ancestry already has low-light vision. You can select from changeling feats and feats from your other parent's ancestry whenever you gain an ancestry feat.</p>"
        },
        "rules": [
            {
                "add": [
                    "changeling"
                ],
                "key": "ActorTraits"
            },
            {
                "key": "Sense",
                "label": "PF2E.SensesLowLightVision",
                "selector": "lowLightVision"
            },
            {
                "key": "Sense",
                "label": "PF2E.SensesDarkvision",
                "predicate": {
                    "all": [
                        "self:low-light-vision:from-ancestry"
                    ]
                },
                "selector": "darkvision"
            }
        ],
        "source": {
            "value": "Pathfinder Advanced Player's Guide"
        },
        "traits": {
            "custom": "",
            "rarity": "uncommon",
            "value": [
                "changeling"
            ]
        }
    },
    "effects": [],
    "flags": {},
    "img": "systems/pf2e/icons/features/ancestry/changeling.webp",
    "name": "Changeling",
    "type": "heritage"
}
