{
    "_id": "iY2CCqoMc2bRdoas",
    "data": {
        "ancestry": {
            "name": "Fleshwarp",
            "uuid": "Compendium.pf2e.ancestries.FXlXmNBFiiz9oasi"
        },
        "description": {
            "value": "<p>You were created through occult or alchemical processes, such as being grown in a vat or stitched together from the body parts of other creatures by a scientist in Ustalav. Your manufactured body is durable; you don't need to eat and can't starve. You gain a +2 circumstance bonus to saving throws against diseases.</p>"
        },
        "rules": [
            {
                "key": "FlatModifier",
                "label": "PF2E.SkillVariant.VsDiseases",
                "predicate": {
                    "all": [
                        "disease"
                    ]
                },
                "selector": "saving-throw",
                "type": "circumstance",
                "value": 2
            }
        ],
        "source": {
            "value": ""
        },
        "traits": {
            "custom": "",
            "rarity": "common",
            "value": []
        }
    },
    "effects": [],
    "flags": {},
    "img": "systems/pf2e/icons/default-icons/heritage.svg",
    "name": "Created Fleshwarp",
    "type": "heritage"
}
