{
    "_id": "zcO93E8gAW1tDYKk",
    "data": {
        "ancestry": {
            "name": "Sprite",
            "uuid": "Compendium.pf2e.ancestries.TRqoeYfGAFjQbviF"
        },
        "description": {
            "value": "<p>You are kin to faerie dragons, tracing your heritage back to the death of the mightiest faerie dragon in the First World. You gain touch telepathy, allowing you to communicate silently and purely mentally with any creature you're touching, as long as you share a language.</p>"
        },
        "rules": [],
        "source": {
            "value": ""
        },
        "traits": {
            "custom": "",
            "rarity": "common",
            "value": []
        }
    },
    "effects": [],
    "flags": {},
    "img": "systems/pf2e/icons/default-icons/heritage.svg",
    "name": "Draxie",
    "type": "heritage"
}
