{
    "_id": "TDc9MXLXkgEFoKdD",
    "data": {
        "ancestry": {
            "name": "Catfolk",
            "uuid": "Compendium.pf2e.ancestries.972EkpJOPv9KkQIW"
        },
        "description": {
            "value": "<p>You've inherited flexibility beyond that of most humanoids. You don't treat tight spaces that don't require you to Squeeze as difficult terrain. In addition, you get a +1 circumstance bonus to checks when you attempt to Escape.</p>"
        },
        "rules": [
            {
                "key": "FlatModifier",
                "label": "To Escape (Flexible Catfolk)",
                "predicate": {
                    "all": [
                        "action:escape"
                    ]
                },
                "selector": "athletics",
                "type": "circumstance",
                "value": 1
            },
            {
                "key": "FlatModifier",
                "label": "To Escape (Flexible Catfolk)",
                "predicate": {
                    "all": [
                        "action:escape"
                    ]
                },
                "selector": "acrobatics",
                "type": "circumstance",
                "value": 1
            },
            {
                "key": "FlatModifier",
                "label": "To Escape (Flexible Catfolk)",
                "predicate": {
                    "all": [
                        "action:escape"
                    ]
                },
                "selector": "attack",
                "type": "circumstance",
                "value": 1
            }
        ],
        "source": {
            "value": ""
        },
        "traits": {
            "custom": "",
            "rarity": "common",
            "value": []
        }
    },
    "effects": [],
    "flags": {},
    "img": "systems/pf2e/icons/default-icons/heritage.svg",
    "name": "Flexible Catfolk",
    "type": "heritage"
}
