{
    "_id": "dQqurQys37aJYb26",
    "data": {
        "ancestry": {
            "name": "Leshy",
            "uuid": "Compendium.pf2e.ancestries.cdhgByGG1WtuaK73"
        },
        "description": {
            "value": "<p>Your body is made mostly from natural foliage, and like a leaf tumbling from a tree, you land from falls with particular grace. You take no damage from falling, regardless of the distance you fall.</p>"
        },
        "rules": [],
        "source": {
            "value": ""
        },
        "traits": {
            "custom": "",
            "rarity": "common",
            "value": []
        }
    },
    "effects": [],
    "flags": {},
    "img": "systems/pf2e/icons/features/ancestry/leafy-leshy.webp",
    "name": "Leaf Leshy",
    "type": "heritage"
}
