{
    "_id": "LU4i3qXtyzeTGWZQ",
    "data": {
        "ancestry": {
            "name": "Sprite",
            "uuid": "Compendium.pf2e.ancestries.TRqoeYfGAFjQbviF"
        },
        "description": {
            "value": "<p>You glow with magical luminance. You naturally shed light as a torch; this light has the evocation, light, and primal traits. You can extinguish, rekindle, or change the color of this light using a single action, which has the concentrate trait.</p>"
        },
        "rules": [],
        "source": {
            "value": ""
        },
        "traits": {
            "custom": "",
            "rarity": "common",
            "value": []
        }
    },
    "effects": [],
    "flags": {},
    "img": "systems/pf2e/icons/default-icons/heritage.svg",
    "name": "Luminous Sprite",
    "type": "heritage"
}
