{
    "_id": "VAo6NnrCEAAOUSkc",
    "data": {
        "ancestry": {
            "name": "Fetchling",
            "uuid": "Compendium.pf2e.ancestries.hIA3qiUsxvLZXrFP"
        },
        "description": {
            "value": "<p>Your ancestors have long dealt with the horrific—in the Shadow Plane or elsewhere—and you bear their mental fortitude. When you roll a success on a saving throw against an emotion effect, you get a critical success instead.</p>"
        },
        "rules": [
            {
                "adjustment": {
                    "success": "one-degree-better"
                },
                "key": "AdjustDegreeOfSuccess",
                "predicate": {
                    "all": [
                        "emotion"
                    ]
                },
                "selector": "saving-throw",
                "type": "skill"
            }
        ],
        "source": {
            "value": ""
        },
        "traits": {
            "custom": "",
            "rarity": "common",
            "value": []
        }
    },
    "effects": [],
    "flags": {},
    "img": "systems/pf2e/icons/default-icons/heritage.svg",
    "name": "Resolute Fetchling",
    "type": "heritage"
}
