{
    "_id": "7kHg780SAsu2FNfP",
    "data": {
        "ancestry": {
            "name": "Poppet",
            "uuid": "Compendium.pf2e.ancestries.6F2fSFC1Eo1JdpY4"
        },
        "description": {
            "value": "<p>You have little inside you other than cotton, sawdust, or dried leaves. You take no damage from falling, regardless of the distance you fall.</p>"
        },
        "rules": [],
        "source": {
            "value": "Pathfinder Lost Omens: The Grand Bazaar"
        },
        "traits": {
            "custom": "",
            "rarity": "common",
            "value": []
        }
    },
    "effects": [],
    "flags": {},
    "img": "systems/pf2e/icons/default-icons/heritage.svg",
    "name": "Stuffed Poppet",
    "type": "heritage"
}
