{
    "_id": "Q42nrq9LwDdbeZM5",
    "data": {
        "description": {
            "value": "<p>Once per day, your familiar can use 2 actions with the concentrate trait to give up some of its animating energy and heal you. It must be in your space to do so. You restore a number of Hit Points equal to [[/r max(floor(@actor.level/2)d8, 1d8)]]{1d8 times half your level} (minimum 1d8).</p>"
        },
        "duration": {
            "expiry": "turn-start",
            "sustained": false,
            "unit": "unlimited",
            "value": -1
        },
        "level": {
            "value": 1
        },
        "rules": [],
        "source": {
            "value": "Pathfinder Lost Omens: The Grand Bazaar"
        },
        "start": {
            "initiative": null,
            "value": 0
        },
        "target": null,
        "tokenIcon": {
            "show": false
        },
        "traits": {
            "custom": "",
            "rarity": "common",
            "value": []
        }
    },
    "effects": [],
    "flags": {},
    "img": "systems/pf2e/icons/actions/Passive.webp",
    "name": "Restorative Familiar",
    "type": "effect"
}
