{
    "_id": "G1jYZOjA3E3BqrIM",
    "data": {
        "abilities": {
            "cha": {
                "mod": 1
            },
            "con": {
                "mod": 4
            },
            "dex": {
                "mod": 3
            },
            "int": {
                "mod": 1
            },
            "str": {
                "mod": 4
            },
            "wis": {
                "mod": 2
            }
        },
        "attributes": {
            "ac": {
                "details": "",
                "value": 23
            },
            "allSaves": {
                "value": ""
            },
            "hp": {
                "details": "",
                "max": 78,
                "temp": 0,
                "value": 78
            },
            "initiative": {
                "ability": "perception"
            },
            "perception": {
                "value": 14
            },
            "speed": {
                "details": "",
                "otherSpeeds": [
                    {
                        "type": "fly",
                        "value": "30"
                    }
                ],
                "special": "",
                "value": "25"
            }
        },
        "details": {
            "alignment": {
                "value": "NE"
            },
            "blurb": "",
            "creatureType": "",
            "level": {
                "value": 6
            },
            "privateNotes": "",
            "publicNotes": "<p>Each Melfesh Monster is unique at any given time since the parent fungus only gives birth to a single monster at once, and each of these creations works a little differently and looks a little different from the last. However, their forms all bear similarities. A twisting mass of creeping vines creates the bulk of a Melfesh Monster's body, sculpted into a towering figure that can glide effortlessly across the ground. Mossy growths and trumpeting fungi cover the creature like matted fur, dripping from its back and shoulders in excess. A hood of dampened bark and thick moss covers its face, revealing only a crusty wooden jaw and a pair of gleaming red eyes. An acrid stench of burning manure follows the creature, often serving as the only warning that anyone gets before it attacks.</p>\n<p>Despite their fungal nature, Melfesh Monsters are undamaged by their own jets of flame and resistant to fires set by others, often surprising hunters who paid too little attention to the legends before encountering the creature. Their terrifying spores also mean that most survivors of their attacks tend to be disoriented and delirious, relating accounts of the monster that are distorted by confusion and fear. This, along with the natural variance between different Melfesh Monsters, means that even the most diligent of researchers will come across contradictory evidence. Even if they learn from all the prior information collected over the years, they're still often caught off guard when trying to hunt down and fell the threat since the new Melfesh Monster might have an ability never seen before. The canniest researchers, when faced with the seemingly contradictory evidence, speculate that the creature might evolve or change over time, which is closer to the truth but still falls short.</p>",
            "source": {
                "value": "Pathfinder Lost Omens: Monsters of Myth"
            }
        },
        "resources": {},
        "saves": {
            "fortitude": {
                "saveDetail": "",
                "value": 16
            },
            "reflex": {
                "saveDetail": "",
                "value": 14
            },
            "will": {
                "saveDetail": "",
                "value": 12
            }
        },
        "traits": {
            "ci": [],
            "di": {
                "custom": "",
                "value": []
            },
            "dr": [
                {
                    "exceptions": "",
                    "type": "fire",
                    "value": 5
                },
                {
                    "exceptions": "",
                    "type": "poison",
                    "value": 5
                }
            ],
            "dv": [],
            "languages": {
                "custom": "Telepathy 100 feet",
                "selected": [],
                "value": [
                    "aklo",
                    "sylvan"
                ]
            },
            "rarity": "unique",
            "senses": {
                "value": "sporesight 100 feet"
            },
            "size": {
                "value": "med"
            },
            "traits": {
                "custom": "",
                "value": [
                    "fungus"
                ]
            }
        }
    },
    "effects": [],
    "flags": {},
    "img": "systems/pf2e/icons/default-icons/npc.svg",
    "items": [
        {
            "_id": "u9hv7z7m819g60lt",
            "data": {
                "attack": {
                    "value": ""
                },
                "attackEffects": {
                    "custom": "",
                    "value": []
                },
                "bonus": {
                    "value": 16
                },
                "damageRolls": {
                    "VYzRLZoMVYLy4625": {
                        "damage": "2d12+4",
                        "damageType": "bludgeoning"
                    }
                },
                "description": {
                    "value": ""
                },
                "rules": [],
                "slug": null,
                "source": {
                    "value": ""
                },
                "traits": {
                    "custom": "",
                    "rarity": "common",
                    "value": [
                        "versatile-p",
                        "versatile-s"
                    ]
                },
                "weaponType": {
                    "value": "melee"
                }
            },
            "effects": [],
            "flags": {},
            "img": "systems/pf2e/icons/default-icons/melee.svg",
            "name": "Limb",
            "sort": 100000,
            "type": "melee"
        },
        {
            "_id": "7myolt3my17utu34",
            "data": {
                "attack": {
                    "value": ""
                },
                "attackEffects": {
                    "custom": "",
                    "value": []
                },
                "bonus": {
                    "value": 16
                },
                "damageRolls": {
                    "vlIfnVZlfIueDtLS": {
                        "damage": "2d8+4",
                        "damageType": "bludgeoning"
                    }
                },
                "description": {
                    "value": ""
                },
                "rules": [],
                "slug": null,
                "source": {
                    "value": ""
                },
                "traits": {
                    "custom": "",
                    "rarity": "common",
                    "value": [
                        "agile"
                    ]
                },
                "weaponType": {
                    "value": "melee"
                }
            },
            "effects": [],
            "flags": {},
            "img": "systems/pf2e/icons/default-icons/melee.svg",
            "name": "Fungal Limb",
            "sort": 200000,
            "type": "melee"
        },
        {
            "_id": "ibtdrbptpvlf3b3x",
            "data": {
                "attack": {
                    "value": ""
                },
                "attackEffects": {
                    "custom": "",
                    "value": []
                },
                "bonus": {
                    "value": 15
                },
                "damageRolls": {
                    "D4leJ7ZJEag8b5px": {
                        "damage": "2d8+2",
                        "damageType": "fire"
                    }
                },
                "description": {
                    "value": ""
                },
                "rules": [],
                "slug": null,
                "source": {
                    "value": ""
                },
                "traits": {
                    "custom": "",
                    "rarity": "common",
                    "value": [
                        "range-increment-30",
                        "magical",
                        "fire"
                    ]
                },
                "weaponType": {
                    "value": "ranged"
                }
            },
            "effects": [],
            "flags": {},
            "img": "systems/pf2e/icons/default-icons/melee.svg",
            "name": "Firelance",
            "sort": 300000,
            "type": "melee"
        },
        {
            "_id": "oc3fr4n4s276br3a",
            "data": {
                "actionCategory": {
                    "value": "defensive"
                },
                "actionType": {
                    "value": "reaction"
                },
                "actions": {
                    "value": null
                },
                "description": {
                    "value": "<p data-visibility=\"gm\"><strong>Trigger</strong> The Melfesh Monster takes physical damage</p>\n<hr />\n<p><strong>Effect</strong> The Melfesh Monster shifts plant matter to blunt the attack. It gains resistance 5 against the triggering physical damage.</p>"
                },
                "requirements": {
                    "value": ""
                },
                "rules": [],
                "slug": null,
                "source": {
                    "value": ""
                },
                "traits": {
                    "custom": "",
                    "rarity": "common",
                    "value": []
                },
                "trigger": {
                    "value": ""
                }
            },
            "effects": [],
            "flags": {},
            "img": "systems/pf2e/icons/actions/Reaction.webp",
            "name": "Reactive Growth",
            "sort": 400000,
            "type": "action"
        },
        {
            "_id": "iz7pkfbm0pr9ts6d",
            "data": {
                "actionCategory": {
                    "value": "defensive"
                },
                "actionType": {
                    "value": "passive"
                },
                "actions": {
                    "value": ""
                },
                "description": {
                    "value": "<p>If a creature has inhaled any of the Melfesh Monster's spores, the Melfesh Monster can sense the creature at the listed range.</p>"
                },
                "requirements": {
                    "value": ""
                },
                "rules": [],
                "slug": null,
                "source": {
                    "value": ""
                },
                "traits": {
                    "custom": "",
                    "rarity": "common",
                    "value": []
                },
                "trigger": {
                    "value": ""
                }
            },
            "effects": [],
            "flags": {},
            "img": "systems/pf2e/icons/actions/Passive.webp",
            "name": "Sporesight",
            "sort": 500000,
            "type": "action"
        },
        {
            "_id": "7sw11x7swb4qrz6y",
            "data": {
                "actionCategory": {
                    "value": "defensive"
                },
                "actionType": {
                    "value": "passive"
                },
                "actions": {
                    "value": null
                },
                "description": {
                    "value": "<p>@Template[type:emanation|distance:60] @Compendium[pf2e.bestiary-ability-glossary-srd.Aura]{Aura}</p>\n<p>A creature that enters the emanation must attempt a @Check[type:will|dc:21] save. Regardless of outcome, the creature is temporarily immune to terrorspores for 1 minute.</p>\n<div data-visibility=\"gm\"><hr />\n<p><strong>Critical Success</strong> The creature is unaffected.</p>\n<p><strong>Success</strong> The creature is @Compendium[pf2e.conditionitems.Frightened]{Frightened 1} and inhales spores that remain in its body for 1 minute.</p>\n<p><strong>Failure</strong> As success, but @Compendium[pf2e.conditionitems.Frightened]{Frightened 2} and the spores remain for 1 hour.</p>\n<p><strong>Critical Failure</strong> As success, but @Compendium[pf2e.conditionitems.Frightened]{Frightened 3}, the spores remain for 1 hour, and the creature's frightened condition can't be reduced below 1 as long as spores remain in its body.</p>\n</div>"
                },
                "requirements": {
                    "value": ""
                },
                "rules": [],
                "slug": null,
                "source": {
                    "value": ""
                },
                "traits": {
                    "custom": "",
                    "rarity": "common",
                    "value": [
                        "aura",
                        "emotion",
                        "fear",
                        "inhaled",
                        "mental",
                        "poison"
                    ]
                },
                "trigger": {
                    "value": ""
                }
            },
            "effects": [],
            "flags": {},
            "img": "systems/pf2e/icons/actions/Passive.webp",
            "name": "Terrorspores",
            "sort": 600000,
            "type": "action"
        },
        {
            "_id": "gvzhiqjg9nuuk84c",
            "data": {
                "actionCategory": {
                    "value": "offensive"
                },
                "actionType": {
                    "value": "action"
                },
                "actions": {
                    "value": 3
                },
                "description": {
                    "value": "<p>The Melfesh Monster attempts to @Compendium[pf2e.actionspf2e.Grapple]{Grapple} a creature within reach. On a success, the creature is pulled into the Monster's body. The Melfesh Monster is @Compendium[pf2e.conditionitems.Slowed]{Slowed 1} while it envelops a creature, and this otherwise has the effects of @Compendium[pf2e.bestiary-ability-glossary-srd.Swallow Whole]{Swallow Whole} (the Melfesh Monster's size or smaller, 1d10 bludgeoning and [[/r 1d12 #poison]]{1d12 poison}, Rupture 15).</p>"
                },
                "requirements": {
                    "value": ""
                },
                "rules": [],
                "slug": null,
                "source": {
                    "value": ""
                },
                "traits": {
                    "custom": "",
                    "rarity": "common",
                    "value": []
                },
                "trigger": {
                    "value": ""
                }
            },
            "effects": [],
            "flags": {},
            "img": "systems/pf2e/icons/actions/ThreeActions.webp",
            "name": "Envelop",
            "sort": 700000,
            "type": "action"
        },
        {
            "_id": "fbhkm84dyvl5tm9h",
            "data": {
                "actionCategory": {
                    "value": "offensive"
                },
                "actionType": {
                    "value": "action"
                },
                "actions": {
                    "value": 2
                },
                "description": {
                    "value": "<p data-visibility=\"gm\"><strong>Requirements</strong> The Melfesh Monster has created a spore cloud, and the cloud is within range of one of the Melfesh Monster's fire abilities</p>\n<p><strong>Effect</strong> The Melfesh Monster targets the cloud with one of its abilities with the fire trait. The spore cloud explodes, dealing [[/r {4d10}[fire]]]{4d10 fire damage} and [[/r {4}[persistent,fire]]] @Compendium[pf2e.conditionitems.Persistent Damage]{Persistent Fire Damage} in a @Template[type:burst|distance:40] originating from a single square within the cloud (@Check[type:reflex|dc:24|basic:true] save).</p>"
                },
                "requirements": {
                    "value": ""
                },
                "rules": [],
                "slug": null,
                "source": {
                    "value": ""
                },
                "traits": {
                    "custom": "",
                    "rarity": "common",
                    "value": [
                        "fire"
                    ]
                },
                "trigger": {
                    "value": ""
                }
            },
            "effects": [],
            "flags": {},
            "img": "systems/pf2e/icons/actions/TwoActions.webp",
            "name": "Fulminate",
            "sort": 800000,
            "type": "action"
        },
        {
            "_id": "6ekg94qcp43g0pwy",
            "data": {
                "actionCategory": {
                    "value": "offensive"
                },
                "actionType": {
                    "value": "action"
                },
                "actions": {
                    "value": 2
                },
                "description": {
                    "value": "<p data-visibility=\"gm\"><strong>Frequency</strong> once per minute</p>\n<hr />\n<p><strong>Effect</strong> The Melfesh Monster conjures a cloud of spores within 60 feet in a @Template[type:burst|distance:20]. The cloud lasts 1 minute. Creatures that enter or begin their turn within the cloud must succeed at a @Check[type:fortitude|dc:21] save or take [[/r {3d8}[poison]]]{3d8 poison damage}, be @Compendium[pf2e.conditionitems.Sickened]{Sickened 2}, and inhale spores that remain in their bodies for 1 minute (on a critical failure, @Compendium[pf2e.conditionitems.Sickened]{Sickened 3} and an additional [[/r {4}[persistent,poison]]] @Compendium[pf2e.conditionitems.Persistent Damage]{Persistent Poison Damage}).</p>"
                },
                "requirements": {
                    "value": ""
                },
                "rules": [],
                "slug": null,
                "source": {
                    "value": ""
                },
                "traits": {
                    "custom": "",
                    "rarity": "common",
                    "value": [
                        "inhaled",
                        "poison"
                    ]
                },
                "trigger": {
                    "value": ""
                }
            },
            "effects": [],
            "flags": {},
            "img": "systems/pf2e/icons/actions/TwoActions.webp",
            "name": "Spore Cloud",
            "sort": 900000,
            "type": "action"
        },
        {
            "_id": "3acgatjllxmpjxdl",
            "data": {
                "description": {
                    "value": ""
                },
                "mod": {
                    "value": 11
                },
                "proficient": {
                    "value": 0
                },
                "rules": [],
                "slug": null,
                "source": {
                    "value": ""
                },
                "traits": {
                    "custom": "",
                    "rarity": "common",
                    "value": []
                }
            },
            "effects": [],
            "flags": {},
            "img": "systems/pf2e/icons/default-icons/lore.svg",
            "name": "Acrobatics",
            "sort": 1000000,
            "type": "lore"
        },
        {
            "_id": "6zogaprqkbc4z4fr",
            "data": {
                "description": {
                    "value": ""
                },
                "mod": {
                    "value": 13
                },
                "proficient": {
                    "value": 0
                },
                "rules": [],
                "slug": null,
                "source": {
                    "value": ""
                },
                "traits": {
                    "custom": "",
                    "rarity": "common",
                    "value": []
                }
            },
            "effects": [],
            "flags": {},
            "img": "systems/pf2e/icons/default-icons/lore.svg",
            "name": "Athletics",
            "sort": 1100000,
            "type": "lore"
        },
        {
            "_id": "57jss9w89kpa9mfd",
            "data": {
                "description": {
                    "value": ""
                },
                "mod": {
                    "value": 13
                },
                "proficient": {
                    "value": 0
                },
                "rules": [],
                "slug": null,
                "source": {
                    "value": ""
                },
                "traits": {
                    "custom": "",
                    "rarity": "common",
                    "value": []
                }
            },
            "effects": [],
            "flags": {},
            "img": "systems/pf2e/icons/default-icons/lore.svg",
            "name": "Nature",
            "sort": 1200000,
            "type": "lore"
        },
        {
            "_id": "dra0g19qizlynfs7",
            "data": {
                "description": {
                    "value": ""
                },
                "mod": {
                    "value": 13
                },
                "proficient": {
                    "value": 0
                },
                "rules": [],
                "slug": null,
                "source": {
                    "value": ""
                },
                "traits": {
                    "custom": "",
                    "rarity": "common",
                    "value": []
                }
            },
            "effects": [],
            "flags": {},
            "img": "systems/pf2e/icons/default-icons/lore.svg",
            "name": "Survival",
            "sort": 1300000,
            "type": "lore"
        }
    ],
    "name": "Melfesh Monster",
    "token": {
        "disposition": -1,
        "height": 1,
        "img": "systems/pf2e/icons/default-icons/npc.svg",
        "name": "Melfesh Monster",
        "width": 1
    },
    "type": "npc"
}
