{
    "_id": "6mgCX7lvKtaEYoa9",
    "content": "<h1>Dwarven Pantheon [LG]</h1><p>The dwarven gods are one large family, with @Compendium[pf2e.deities.Torag]{Torag} as its patriarch. He is joined by his brothers @Compendium[pf2e.deities.Magrim]{Magrim} (the Taskmaster) and @Compendium[pf2e.deities.Angradd]{Angradd} (the Forge Fire), his half-sister @Compendium[pf2e.deities.Dranngvit]{Dranngvit} (the Debt Minder), and his wife @Compendium[pf2e.deities.Folgrit]{Folgrit} (the Watchful Mother). His children are @Compendium[pf2e.deities.Bolka]{Bolka} (the Golden Gift), @Compendium[pf2e.deities.Grundinnar]{Grundinnar} (the Peacemaker), @Compendium[pf2e.deities.Kols]{Kols} (the Oath-Keeper), and @Compendium[pf2e.deities.Trudd]{Trudd} (the Mighty). Torag's evil former student @Compendium[pf2e.deities.Droskar]{Droskar} (the Dark Smith), though technically part of the dwarven pantheon, is rarely invoked by any save duergars.</p>\n<p><strong>Edicts</strong> develop skills useful to your community (especially crafting, mining, and trading), honor your ancestors through traditions and rituals</p>\n<p><strong>Anathema</strong> dishonor your family, willingly break a contract or oath, irreparably damage an ancestral relic</p>\n<p><strong>Areas of Concern</strong> ancestry, crafting, dwarves, relationships</p>\n<p><strong>Follower Alignments</strong> LG, NG, LN, N</p>\n<p><strong>Pantheon Members</strong> @Compendium[pf2e.deities.Angradd]{Angradd}, @Compendium[pf2e.deities.Bolka]{Bolka}, @Compendium[pf2e.deities.Dranngvit]{Dranngvit}, @Compendium[pf2e.deities.Folgrit]{Folgrit}, @Compendium[pf2e.deities.Grundinnar]{Grundinnar}, @Compendium[pf2e.deities.Kols]{Kols}, @Compendium[pf2e.deities.Magrim]{Magrim}, @Compendium[pf2e.deities.Torag]{Torag}, @Compendium[pf2e.deities.Trudd]{Trudd}</p><h2>Devotee Benefits</h2><div><div><strong>Divine Ability</strong> Constitution or Wisdom</div><div><strong>Divine Font</strong> heal</div><div><strong>Divine Skill</strong> Diplomacy</div><div><strong>Favored Weapon</strong> warhammer</div><div><strong>Domains</strong> creation, family, protection, wealth</div><div><strong>Alternate Domains</strong> duty, glyph</div><div><strong>Cleric Spells</strong> 1st: ant haul, 4th: creation, 7th: retrocognition</div></div>",
    "flags": {},
    "name": "Dwarven Pantheon",
    "permission": {
        "default": 0
    }
}
