{
    "_id": "w66gCNiZ7dslqG8K",
    "content": "<h1>Lissala (The Sihedron Scion) [LE]</h1><p><strong>Edicts</strong> Work hard and demand others do so as well, cooperate or avoid conflict with ophidian creatures</p>\n<p><strong>Anathema</strong> Disobey a superior, shirk your duties, destroy a book</p>\n<p><strong>Follower Alignments</strong> LN, LE</p><h2>Devotee Benefits</h2><div><div><strong>Divine Ability</strong> Intelligence or Wisdom</div><div><strong>Divine Font</strong> harm</div><div><strong>Divine Skill</strong> Arcana</div><div><strong>Favored Weapon</strong> whip</div><div><strong>Domains</strong> fate, glyph, magic, toil</div><div><strong>Cleric Spells</strong> 1st: message rune, 2nd: secret page, 6th: dominate</div></div>",
    "flags": {},
    "name": "Lissala",
    "permission": {
        "default": 0
    }
}
