{
    "_id": "SCMlQDcoU1QcF3AS",
    "content": "<h1>Lysianassa (Empress of the Torrent) [NG]</h1><p>Lysianassa, Empress of the Torrent, is the elemental lord of currents, tides, and water. Before she was trapped in the Gasping Pearl, the benevolent lord of water patrolled her plane as a powerful sailfish made of coral and streaked with mother of pearl. When she realized her capture was imminent, Lysianassa preserved the last of her strength within the Breath of Lysianassa, a vial that allowed her nautilus servant Riam the Unyielding to control the Plane of Water's tides. Since Riam's death, the currents of the Plane of Water have begun to slow, and may eventually come to a halt. Few recall the Empress of the Torrent's name, but cults dedicated to an enigmatic figure called the Queen of the Depths have begun to arise, heralding an event they refer to as the Awakening, and some planar scholars believe these cultists seek to free Lysianassa from her prison.</p>\n<p><strong>Edicts</strong> Respect and aid natural cycles, promote life and growth, change to avoid stagnation, swim</p>\n<p><strong>Anathema</strong> Pollute clean bodies of water, dam a river, disrespect sincere gifts of water or drink</p>\n<p><strong>Areas of Concern</strong> currents, tides, and water</p>\n<p><strong>Follower Alignments</strong> LG, NG, CG, N</p><h2>Devotee Benefits</h2><div><div><strong>Divine Ability</strong> Dexterity or Constitution</div><div><strong>Divine Font</strong> heal</div><div><strong>Divine Skill</strong> Survival</div><div><strong>Favored Weapon</strong> spear</div><div><strong>Domains</strong> change, fate, nature, water</div><div><strong>Cleric Spells</strong> 1st: hydraulic push, 3rd: abyssal plague (aqueous orb), 5th: control water</div></div>",
    "flags": {},
    "name": "Lysianassa",
    "permission": {
        "default": 0
    }
}
