{
    "_id": "wPtGuF1bh4wvKE6Q",
    "content": "<p><strong>Deities</strong>@Compendium[pf2e.deities.Arazni]{Arazni}, @Compendium[pf2e.deities.Arshea]{Arshea}, @Compendium[pf2e.deities.Asmodeus]{Asmodeus}, @Compendium[pf2e.deities.Bolka]{Bolka}, @Compendium[pf2e.deities.Chaldira]{Chaldira}, @Compendium[pf2e.deities.Count Ranalc]{Count Ranalc}, @Compendium[pf2e.deities.Dispater]{Dispater}, @Compendium[pf2e.deities.Eritrice]{Eritrice}, @Compendium[pf2e.deities.General Susumu]{General Susumu}, @Compendium[pf2e.deities.Gorum]{Gorum}, @Compendium[pf2e.deities.Grundinnar]{Grundinnar}, @Compendium[pf2e.deities.Iomedae]{Iomedae}, @Compendium[pf2e.deities.Jaidz]{Jaidz}, @Compendium[pf2e.deities.Nivi Rhombodazzle]{Nivi Rhombodazzle}, @Compendium[pf2e.deities.Ragdya]{Ragdya}, @Compendium[pf2e.deities.Raumya]{Raumya}, @Compendium[pf2e.deities.Sturovenen]{Sturovenen}, @Compendium[pf2e.deities.Thamir]{Thamir}, @Compendium[pf2e.deities.Trudd]{Trudd}</p>\n<p><strong>Domain Spell</strong> @Compendium[pf2e.spells-srd.Veil of Confidence]{Veil of Confidence}; <strong>Advanced Domain Spell</strong> @Compendium[pf2e.spells-srd.Delusional Pride]{Delusional Pride}</p>\n<p>You overcome your fear and project pride.</p>",
    "flags": {},
    "name": "Confidence Domain",
    "permission": {
        "default": 0
    }
}
