{
    "_id": "8pPvbTMZLIsvCwQk",
    "content": "<p><strong>Deities</strong>@Compendium[pf2e.deities.Ahriman]{Ahriman}, @Compendium[pf2e.deities.Ardad Lili]{Ardad Lili}, @Compendium[pf2e.deities.Ashava]{Ashava}, @Compendium[pf2e.deities.Cosmic Caravan]{Cosmic Caravan}, @Compendium[pf2e.deities.Count Ranalc]{Count Ranalc}, @Compendium[pf2e.deities.Grandmother Spider]{Grandmother Spider}, @Compendium[pf2e.deities.Groetus]{Groetus}, @Compendium[pf2e.deities.Kerkamoth]{Kerkamoth}, @Compendium[pf2e.deities.Ketephys]{Ketephys}, @Compendium[pf2e.deities.Lao Shu Po]{Lao Shu Po}, @Compendium[pf2e.deities.Luhar]{Luhar}, @Compendium[pf2e.deities.Nocticula]{Nocticula}, @Compendium[pf2e.deities.Nyarlathotep (Haunter in the Dark)]{Nyarlathotep (Haunter in the Dark)}, @Compendium[pf2e.deities.Nyarlathotep (The Crawling Chaos)]{Nyarlathotep (The Crawling Chaos)}, @Compendium[pf2e.deities.Pulura]{Pulura}, @Compendium[pf2e.deities.Tanagaar]{Tanagaar}, @Compendium[pf2e.deities.Zon-Kuthon]{Zon-Kuthon}</p>\n<p><strong>Domain Spell</strong> @Compendium[pf2e.spells-srd.Cloak of Shadow]{Cloak of Shadow}; <strong>Advanced Domain Spell</strong> @Compendium[pf2e.spells-srd.Darkened Eyes]{Darkened Eyes}</p>\n<p>You operate in the darkness and take away the light.</p>",
    "flags": {},
    "name": "Darkness Domain",
    "permission": {
        "default": 0
    }
}
