{
    "_id": "Xs6XznYHOZyQ0hJl",
    "content": "<p><strong>Deities</strong> @Compendium[pf2e.deities.Angazhan]{Angazhan}, @Compendium[pf2e.deities.Asmodeus]{Asmodeus}, @Compendium[pf2e.deities.Barbatos]{Barbatos}, @Compendium[pf2e.deities.Dispater]{Dispater}, @Compendium[pf2e.deities.Droskar]{Droskar}, @Compendium[pf2e.deities.Gogunta]{Gogunta}, @Compendium[pf2e.deities.Mephistopheles]{Mephistopheles}, @Compendium[pf2e.deities.Pazuzu]{Pazuzu}, @Compendium[pf2e.deities.The Godclaw]{The Godclaw}, @Compendium[pf2e.deities.Treerazer]{Treerazer}, @Compendium[pf2e.deities.Walkena]{Walkena}</p>\n<p><strong>Domain Spell</strong> @Compendium[pf2e.spells-srd.Touch of Obedience]{Touch of Obedience}; <strong>Advanced Domain Spell</strong> @Compendium[pf2e.spells-srd.Commanding Lash]{Commanding Lash}</p>\n<p>You wield power to rule and enslave others.</p>",
    "flags": {},
    "name": "Tyranny Domain",
    "permission": {
        "default": 0
    }
}
