{
    "_id": "1WheVs50iwMBi6KC",
    "data": {
        "actionCategory": {
            "value": ""
        },
        "actionType": {
            "value": "passive"
        },
        "actions": {
            "value": null
        },
        "description": {
            "value": "<p>You can tap into the heavenly magic that is your birthright. You can cast <em>@Compendium[pf2e.spells-srd.Continual Flame]{Continual Flame}</em> and <em>@Compendium[pf2e.spells-srd.Shield Other]{Shield Other}</em> each once per day as 2nd-level divine innate spells.</p>"
        },
        "featType": {
            "value": "ancestry"
        },
        "level": {
            "value": 9
        },
        "prerequisites": {
            "value": [
                {
                    "value": "Lawbringer"
                }
            ]
        },
        "rules": [],
        "source": {
            "value": "Pathfinder Advanced Player's Guide"
        },
        "traits": {
            "custom": "",
            "rarity": "common",
            "selected": {
                "aasimar": "Aasimar"
            },
            "value": [
                "aasimar"
            ]
        }
    },
    "effects": [],
    "flags": {},
    "img": "systems/pf2e/icons/features/feats/feats.webp",
    "name": "Archon Magic",
    "type": "feat"
}
