{
    "_id": "WBp5ybj3kLcsGdVr",
    "data": {
        "actionCategory": {
            "value": ""
        },
        "actionType": {
            "value": "passive"
        },
        "actions": {
            "value": null
        },
        "description": {
            "value": "<p>Your fingernails grow into razor-sharp claws, and scales speckle your fingers, hands, and wrists. Your claws are agile, finesse unarmed attacks that deal [[/r {1d6}[slashing]]]{1d6 slashing damage} and are in the brawling weapon group.</p>\n<p>When you cast the <em>@Compendium[pf2e.spells-srd.Dragon Claws]{Dragon Claws}</em> spell, increase the slashing damage die from d4 to d6 and increase the resistance to 10 at 1st level, 15 at 5th level, and 20 at 9th level.</p>"
        },
        "featType": {
            "value": "archetype"
        },
        "level": {
            "value": 4
        },
        "location": "",
        "prerequisites": {
            "value": [
                {
                    "value": "Dragon Disciple Dedication"
                }
            ]
        },
        "rules": [
            {
                "key": "DamageDice",
                "override": {
                    "dieSize": "d6"
                },
                "selector": "dragon-claw-damage"
            },
            {
                "category": "unarmed",
                "damage": {
                    "base": {
                        "damageType": "slashing",
                        "dice": 1,
                        "die": "d6"
                    }
                },
                "group": "brawling",
                "key": "Strike",
                "label": "PF2E.Weapon.Base.claw",
                "range": null,
                "traits": [
                    "agile",
                    "finesse",
                    "unarmed"
                ]
            }
        ],
        "source": {
            "value": ""
        },
        "traits": {
            "custom": "",
            "rarity": "common",
            "value": [
                "archetype"
            ]
        }
    },
    "effects": [],
    "flags": {},
    "img": "systems/pf2e/icons/features/feats/feats.webp",
    "name": "Claws Of The Dragon (Draconic Bloodline)",
    "type": "feat"
}
