{
    "_id": "NJyyxInJ743OotKf",
    "data": {
        "actionCategory": {
            "value": "offensive"
        },
        "actionType": {
            "value": "action"
        },
        "actions": {
            "value": 1
        },
        "description": {
            "value": "<p>You relax your eyes, taking in the smallest movements of objects, stirring of grass and leaves, and other signs of the presence of @Compendium[pf2e.conditionitems.Hidden]{Hidden} things, granting you the ability to locate @Compendium[pf2e.conditionitems.Invisible]{Invisible} creatures. Until the start of your next turn, you can see invisible creatures and objects as silhouettes defined by the movement of air, slight depressions in the ground, and other tells that less-keen eyes would overlook, which makes them merely @Compendium[pf2e.conditionitems.Concealed]{Concealed} from you.</p>"
        },
        "featType": {
            "value": "class"
        },
        "level": {
            "value": 12
        },
        "location": "",
        "prerequisites": {
            "value": []
        },
        "rules": [],
        "source": {
            "value": ""
        },
        "traits": {
            "custom": "",
            "rarity": "common",
            "value": [
                "concentrate",
                "gunslinger"
            ]
        }
    },
    "effects": [],
    "flags": {},
    "img": "systems/pf2e/icons/default-icons/feats.webp",
    "name": "Deadeye",
    "type": "feat"
}
