{
    "_id": "sflJhnFzYfqZ2tDy",
    "data": {
        "actionCategory": {
            "value": ""
        },
        "actionType": {
            "value": "reaction"
        },
        "actions": {
            "value": null
        },
        "description": {
            "value": "<p><strong>Trigger</strong> An enemy makes an attack roll against your mount while you're riding it.</p>\n<hr />\n<p>You interpose yourself between an attacker and your mount, defending your mount from harm.</p>\n<p>Use your own AC against the triggering attack instead your mount's AC. If the triggering attack hits, you take the effects of the attack instead of your mount.</p>"
        },
        "featType": {
            "value": "archetype"
        },
        "level": {
            "value": 6
        },
        "prerequisites": {
            "value": [
                {
                    "value": "Cavalier Dedication"
                }
            ]
        },
        "rules": [],
        "source": {
            "value": "Pathfinder Advanced Player's Guide"
        },
        "traits": {
            "custom": "",
            "rarity": "common",
            "value": [
                "archetype"
            ]
        }
    },
    "effects": [],
    "flags": {},
    "img": "systems/pf2e/icons/features/feats/feats.webp",
    "name": "Defend Mount",
    "type": "feat"
}
