{
    "_id": "qibU5SZPFHMNnpAP",
    "data": {
        "actionCategory": {
            "value": ""
        },
        "actionType": {
            "value": "passive"
        },
        "actions": {
            "value": null
        },
        "description": {
            "value": "<p>You are skilled at saying one thing while meaning something different. You disguise your true meaning behind other words and phrases, relying on subtle emphasis and shared experience to convey meaning that only your allies understand.</p>\n<p>Any allies who have traveled alongside you for at least 1 full week automatically discern your meaning. Other observers must succeed at a Perception check against your Deception DC to realize you are passing a secret message, and they must critically succeed to understand the message itself.</p>"
        },
        "featType": {
            "value": "skill"
        },
        "level": {
            "value": 7
        },
        "prerequisites": {
            "value": [
                {
                    "value": "master at Deception"
                }
            ]
        },
        "rules": [],
        "source": {
            "value": "Pathfinder Advanced Player's Guide"
        },
        "traits": {
            "custom": "",
            "rarity": "common",
            "value": [
                "general",
                "skill"
            ]
        }
    },
    "effects": [],
    "flags": {},
    "img": "systems/pf2e/icons/features/feats/feats.webp",
    "name": "Doublespeak",
    "type": "feat"
}
