{
    "_id": "oyLkqhDGwGGj40ME",
    "data": {
        "actionCategory": {
            "value": ""
        },
        "actionType": {
            "value": "passive"
        },
        "actions": {
            "value": null
        },
        "description": {
            "value": "<p>You blend magic with your archery, leading to powerful results.</p>\n<p>If you don't already cast spells from spell slots, you learn to cast spontaneous spells and gain the @Compendium[pf2e.actionspf2e.Cast a Spell]{Cast a Spell} activity. You gain a spell repertoire with one cantrip of your choice, from a spell list of your choice. You choose this cantrip from the common spells on your chosen spell list or from other spells to which you have access on that list. This cantrip must require a spell attack roll. You're trained in spell attack rolls and spell DCs for that tradition. Your key spellcasting ability for these spells is Charisma.</p>\n<p>If you already cast spells from spell slots, you learn one additional cantrip from that tradition. If you're a prepared caster, you can prepare this spell in addition to your usual cantrips per day; if you're a spontaneous caster, you add this cantrip to your spell repertoire.</p>\n<p>You also gain @Compendium[pf2e.actionspf2e.Eldritch Shot]{Eldritch Shot}.</p>"
        },
        "featType": {
            "value": "archetype"
        },
        "level": {
            "value": 6
        },
        "location": "",
        "prerequisites": {
            "value": [
                {
                    "value": "expert in at least one type of bow"
                }
            ]
        },
        "rules": [
            {
                "key": "GrantItem",
                "uuid": "Compendium.pf2e.actionspf2e.Eldritch Shot"
            }
        ],
        "source": {
            "value": "Pathfinder Advanced Player's Guide"
        },
        "traits": {
            "custom": "",
            "rarity": "common",
            "value": [
                "archetype",
                "dedication",
                "magical"
            ]
        }
    },
    "effects": [],
    "flags": {},
    "img": "systems/pf2e/icons/features/feats/feats.webp",
    "name": "Eldritch Archer Dedication",
    "type": "feat"
}
