{
    "_id": "3y459uK2qfWtS9q4",
    "data": {
        "actionCategory": {
            "value": ""
        },
        "actionType": {
            "value": "action"
        },
        "actions": {
            "value": 1
        },
        "description": {
            "value": "<p><strong>Requirements</strong> You are wielding a shield in two hands.</p>\n<hr />\n<p>Your follow-up blow leaves you an opening to set your shield. Make a Strike with the wielded shield. If the Strike hits and deals damage, you also @Compendium[pf2e.actionspf2e.Raise a Shield]{Raise your Shield}.</p>"
        },
        "featType": {
            "value": "class"
        },
        "level": {
            "value": 4
        },
        "location": "",
        "prerequisites": {
            "value": [
                {
                    "value": "Everstand Stance "
                }
            ]
        },
        "rules": [],
        "source": {
            "value": "Pathfinder Lost Omens: Character Guide"
        },
        "traits": {
            "custom": "",
            "rarity": "uncommon",
            "value": [
                "champion",
                "fighter",
                "press"
            ]
        }
    },
    "effects": [],
    "flags": {},
    "img": "systems/pf2e/icons/features/feats/feats.webp",
    "name": "Everstand Strike",
    "type": "feat"
}
