{
    "_id": "mXNwdRSM9kZrT2Um",
    "data": {
        "actionCategory": {
            "value": ""
        },
        "actionType": {
            "value": "passive"
        },
        "actions": {
            "value": null
        },
        "description": {
            "value": "<p>You have trained with your animal companion to become a terrifying, unified juggernaut on the battlefield. Your animal companion becomes trained in Intimidation. If your animal companion uses Support while serving as your mount, it grants you the effects of the Aid reaction on your first Intimidation check to Demoralize on the same turn, even though it can't take reactions.</p>"
        },
        "featType": {
            "value": "ancestry"
        },
        "level": {
            "value": 9
        },
        "location": "",
        "prerequisites": {
            "value": [
                {
                    "value": "animal companion"
                }
            ]
        },
        "rules": [],
        "source": {
            "value": "Pathfinder Lost Omens: Ancestry Guide"
        },
        "traits": {
            "custom": "",
            "rarity": "common",
            "value": [
                "hobgoblin"
            ]
        }
    },
    "effects": [],
    "flags": {},
    "img": "systems/pf2e/icons/features/feats/feats.webp",
    "name": "Fell Rider",
    "type": "feat"
}
