{
    "_id": "SVdYJW5JsOMhAYd0",
    "data": {
        "actionCategory": {
            "value": "interaction"
        },
        "actionType": {
            "value": "action"
        },
        "actions": {
            "value": 2
        },
        "description": {
            "value": "<p><strong>Frequency</strong> once per hour</p>\n<hr />\n<p>To rush after a criminal or reach someone in need, you ring a sprightly tone. You and all allies within 30 feet gain a +10-foot status bonus to all Speeds for 1 minute.</p>\n<p>@Compendium[pf2e.feat-effects.Effect: Fleet Tempo]{Effect: Fleet Tempo}</p>"
        },
        "featType": {
            "value": "archetype"
        },
        "level": {
            "value": 4
        },
        "location": "",
        "prerequisites": {
            "value": [
                {
                    "value": "Nantambu Chime-Ringer Dedication"
                }
            ]
        },
        "rules": [],
        "source": {
            "value": "Pathfinder #170: Spoken on the Song Wind"
        },
        "traits": {
            "custom": "",
            "rarity": "common",
            "value": [
                "archetype",
                "auditory",
                "transmutation"
            ]
        }
    },
    "effects": [],
    "flags": {},
    "img": "systems/pf2e/icons/features/feats/feats.webp",
    "name": "Fleet Tempo",
    "type": "feat"
}
