{
    "_id": "d6Vb8D9yOX93mdUI",
    "data": {
        "actionCategory": {
            "value": ""
        },
        "actionType": {
            "value": "passive"
        },
        "actions": {
            "value": null
        },
        "description": {
            "value": "<p>Increase the distance you @Compendium[pf2e.actionspf2e.Shove]{Shove} your opponent with @Compendium[pf2e.feats-srd.Aggressive Block]{Aggressive Block} or @Compendium[pf2e.feats-srd.Brutish Shove]{Brutish Shove} to 10 feet on a success or 20 feet on a critical success.</p>\n<p>When you use Aggressive Block, you can choose whether the target is @Compendium[pf2e.conditionitems.Flat-Footed]{Flat-Footed} or Shoved. When you make a Brutish Shove, you also Shove the target 5 feet on a failure.</p>"
        },
        "featType": {
            "value": "class"
        },
        "level": {
            "value": 12
        },
        "prerequisites": {
            "value": [
                {
                    "value": "Aggressive Block or Brutish Shove"
                }
            ]
        },
        "rules": [],
        "source": {
            "value": "Pathfinder Core Rulebook"
        },
        "traits": {
            "custom": "",
            "rarity": "common",
            "value": [
                "fighter"
            ]
        }
    },
    "effects": [],
    "flags": {},
    "img": "systems/pf2e/icons/features/feats/feats.webp",
    "name": "Flinging Shove",
    "type": "feat"
}
