{
    "_id": "qCV04rZMty2TJBrX",
    "data": {
        "actionCategory": {
            "value": ""
        },
        "actionType": {
            "value": "passive"
        },
        "actions": {
            "value": null
        },
        "description": {
            "value": "<p>A crack of your tail sparks wisps of blue energy. Choose either electricity or fire when you gain this feat. You gain a foxfire ranged unarmed attack with a maximum range of 20 feet. The attack deals [[/r 1d4]] damage of the chosen type (no ability modifier is added to the damage roll). Your foxfire attack is in the sling weapon group and has the magical trait. Like other unarmed attacks, you can improve this attack with @Compendium[pf2e.equipment-srd.Handwraps of Mighty Blows]{Handwraps of Mighty Blows}.</p>\n<hr />\n<p><strong>Special</strong> If you are a frozen wind kitsune, your foxfire deals cold damage instead of electricity or fire.</p>"
        },
        "featType": {
            "value": "ancestry"
        },
        "level": {
            "value": 1
        },
        "location": "",
        "prerequisites": {
            "value": [
                {
                    "value": "Frozen Winds Kitsune"
                }
            ]
        },
        "rules": [
            {
                "category": "unarmed",
                "damage": {
                    "base": {
                        "damageType": "cold",
                        "dice": 1,
                        "die": "d4"
                    }
                },
                "group": "sling",
                "key": "Strike",
                "label": "Foxfire",
                "range": null,
                "traits": [
                    "range-20",
                    "unarmed",
                    "magical"
                ]
            }
        ],
        "source": {
            "value": "Pathfinder Lost Omens: Ancestry Guide"
        },
        "traits": {
            "custom": "",
            "rarity": "common",
            "value": [
                "kitsune"
            ]
        }
    },
    "effects": [],
    "flags": {},
    "img": "systems/pf2e/icons/features/feats/feats.webp",
    "name": "Foxfire (Cold)",
    "type": "feat"
}
