{
    "_id": "fCsIyglmpb7NYwiy",
    "data": {
        "actionCategory": {
            "value": ""
        },
        "actionType": {
            "value": "action"
        },
        "actions": {
            "value": 1
        },
        "description": {
            "value": "<p>Your attack prevents a foe from pursuing your allies. Make a melee Strike, adding the following effects in addition to the normal effects of the Strike.</p>\n<hr />\n<p><strong>Critical Success</strong> The target takes a -15-foot status penalty to its Speeds until the start of your next turn.</p>\n<p><strong>Success</strong> The target takes a -10-foot status penalty to its Speeds until the start of your next turn.</p>\n<p><strong>Failure</strong> The target takes a -5-foot status penalty to its Speeds until the start of your next turn.</p>"
        },
        "featType": {
            "value": "archetype"
        },
        "level": {
            "value": 10
        },
        "prerequisites": {
            "value": [
                {
                    "value": "Swordmaster Dedication "
                }
            ]
        },
        "rules": [],
        "source": {
            "value": "Pathfinder Lost Omens: Character Guide"
        },
        "traits": {
            "custom": "",
            "rarity": "common",
            "value": [
                "attack",
                "archetype",
                "press"
            ]
        }
    },
    "effects": [],
    "flags": {},
    "img": "systems/pf2e/icons/features/feats/feats.webp",
    "name": "Harrying Strike",
    "type": "feat"
}
