{
    "_id": "bKc8MMFEOpOJJihb",
    "data": {
        "actionCategory": {
            "value": ""
        },
        "actionType": {
            "value": "reaction"
        },
        "actions": {
            "value": null
        },
        "description": {
            "value": "<p><strong>Trigger</strong> An effect would deal fire damage to you, even if you resist all the damage.</p>\n<p><strong>Frequency</strong> once per 10 minutes</p>\n<hr />\n<p>You harness the oncoming flames and twist them into a screen of heat and smoke, granting you concealment until the beginning of your next turn.</p>"
        },
        "featType": {
            "value": "ancestry"
        },
        "level": {
            "value": 5
        },
        "location": "",
        "prerequisites": {
            "value": []
        },
        "rules": [],
        "source": {
            "value": "Pathfinder Lost Omens: Ancestry Guide"
        },
        "traits": {
            "custom": "",
            "rarity": "common",
            "value": [
                "ifrit"
            ]
        }
    },
    "effects": [],
    "flags": {},
    "img": "systems/pf2e/icons/features/feats/feats.webp",
    "name": "Heat Wave",
    "type": "feat"
}
