{
    "_id": "nnsoFOtuHnpz2QHc",
    "data": {
        "actionCategory": {
            "value": ""
        },
        "actionType": {
            "value": "passive"
        },
        "actions": {
            "value": null
        },
        "description": {
            "value": "<p>Your mastery of alchemical secrets enables you to replicate effects most believe can be achieved only via magic.</p>\n<p>Select a number of potions equal to your Intelligence modifier (minimum 1); these potions must be of 9th level or lower. You gain formulas to create these potions as alchemical items with the elixir trait.</p>\n<p>When making these alchemical elixirs, you can substitute alchemical reagents for an equal value of magical components, and you can use @Compendium[pf2e.equipment-srd.Alchemist's Tools]{Alchemist's Tools} (for @Compendium[pf2e.classfeatures.Quick Alchemy]{Quick Alchemy}) or an @Compendium[pf2e.equipment-srd.Alchemist's Lab]{Alchemist's Lab}(for the @Compendium[pf2e.actionspf2e.Craft]{Craft} activity) instead of any other required tool kits. Other than that, the formula does not change.</p>\n<p>Once you've chosen the potion formulas, they can't be changed.</p>"
        },
        "featType": {
            "value": "class"
        },
        "level": {
            "value": 18
        },
        "location": "",
        "prerequisites": {
            "value": []
        },
        "rules": [],
        "source": {
            "value": "Pathfinder Core Rulebook"
        },
        "traits": {
            "custom": "",
            "rarity": "common",
            "value": [
                "alchemist"
            ]
        }
    },
    "effects": [],
    "flags": {},
    "img": "systems/pf2e/icons/features/feats/feats.webp",
    "name": "Improbable Elixirs",
    "type": "feat"
}
