{
    "_id": "tha0L3Z6608JrUwN",
    "data": {
        "actionCategory": {
            "value": ""
        },
        "actionType": {
            "value": "passive"
        },
        "actions": {
            "value": null
        },
        "description": {
            "value": "<p>You gain the ability to fuse and play with shadows by using focus spells specific to shadowdancers.</p>\n<p>You learn a shadowdancer focus spell of your choice: <em>@Compendium[pf2e.spells-srd.Dance of Darkness]{Dance of Darkness}</em> or <em>@Compendium[pf2e.spells-srd.Shadow Jump]{Shadow Jump}</em><em>.</em> If you don't already have one, you gain a focus pool of 1 Focus Point, which you can @Compendium[pf2e.actionspf2e.Refocus]{Refocus}by meditating within an area of dim light or darkness.</p>\n<p>Shadowdancer focus spells are occult spells. You become trained in occult spell attack rolls and spell DCs, and your spellcasting ability for these spells is Charisma.</p>"
        },
        "featType": {
            "value": "archetype"
        },
        "level": {
            "value": 10
        },
        "prerequisites": {
            "value": [
                {
                    "value": "Shadowdancer Dedication"
                }
            ]
        },
        "rules": [
            {
                "key": "ActiveEffectLike",
                "mode": "add",
                "path": "data.resources.focus.max",
                "value": 1
            }
        ],
        "source": {
            "value": "Pathfinder Advanced Player's Guide"
        },
        "traits": {
            "custom": "",
            "rarity": "common",
            "value": [
                "archetype"
            ]
        }
    },
    "effects": [],
    "flags": {},
    "img": "systems/pf2e/icons/features/feats/feats.webp",
    "name": "Shadow Magic",
    "type": "feat"
}
