{
    "_id": "G8WgbujrrnMQUQ8E",
    "data": {
        "actionCategory": {
            "value": ""
        },
        "actionType": {
            "value": "passive"
        },
        "actions": {
            "value": null
        },
        "description": {
            "value": "<p>You have an uncanny knack of communicating with other elves without speaking, though this habit that is often uncomfortable to observers. You can cast <em>@Compendium[pf2e.spells-srd.Mindlink]{Mindlink}</em>as an innate occult spell once per day, but you can target only other elves or half-elves.</p>"
        },
        "featType": {
            "value": "ancestry"
        },
        "level": {
            "value": 1
        },
        "prerequisites": {
            "value": []
        },
        "rules": [],
        "source": {
            "value": "Pathfinder Lost Omens: Character Guide"
        },
        "traits": {
            "custom": "",
            "rarity": "common",
            "value": [
                "elf"
            ]
        }
    },
    "effects": [],
    "flags": {},
    "img": "systems/pf2e/icons/features/feats/feats.webp",
    "name": "Share Thoughts",
    "type": "feat"
}
