{
    "_id": "B7VMXObJSNVI0ZGJ",
    "data": {
        "actionCategory": {
            "value": ""
        },
        "actionType": {
            "value": "reaction"
        },
        "actions": {
            "value": null
        },
        "description": {
            "value": "<p><strong>Trigger</strong> An improvised weapon that you are wielding becomes broken as a result of a critical success on an Improvised Pummel.</p>\n<hr />\n<p>The improvised weapon shatters, destroying it completely but dealing an additional [[/r {3d6}[piercing]]]{3d6 piercing damage} to the creature you hit with the Improvised Pummel. This extra damage you apply on the critical hit doesn't double from the critical hit, as normal.</p>"
        },
        "featType": {
            "value": "archetype"
        },
        "level": {
            "value": 10
        },
        "prerequisites": {
            "value": [
                {
                    "value": "Improvised Pummel"
                }
            ]
        },
        "rules": [],
        "source": {
            "value": "Pathfinder Advanced Player's Guide"
        },
        "traits": {
            "custom": "",
            "rarity": "common",
            "value": [
                "archetype"
            ]
        }
    },
    "effects": [],
    "flags": {},
    "img": "systems/pf2e/icons/features/feats/feats.webp",
    "name": "Shattering Strike (Weapon Improviser)",
    "type": "feat"
}
