{
    "_id": "ZdL8pPPV0QCkBML1",
    "data": {
        "actionCategory": {
            "value": ""
        },
        "actionType": {
            "value": "action"
        },
        "actions": {
            "value": 2
        },
        "description": {
            "value": "<p><strong>Access</strong> Help either the Washboard Dogs or the Diobel Sweepers destroy their rival.</p>\n<p><strong>Requirements</strong> You have a melee weapon of light bulk @Compendium[pf2e.conditionitems.Concealed]{Concealed} on your person via the Stealth skill, and the target isn't aware of it.</p>\n<hr />\n<p>You draw a concealed weapon, attack with it, and then hide it away again in one smooth motion. Interact to draw the weapon, Strike with that weapon, and then Conceal it with a Stealth check. The target is @Compendium[pf2e.conditionitems.Flat-Footed]{Flat-Footed} for this attack.</p>"
        },
        "featType": {
            "value": "class"
        },
        "level": {
            "value": 8
        },
        "prerequisites": {
            "value": []
        },
        "rules": [],
        "source": {
            "value": "Pathfinder #159: All or Nothing"
        },
        "traits": {
            "custom": "",
            "rarity": "uncommon",
            "value": [
                "flourish",
                "rogue"
            ]
        }
    },
    "effects": [],
    "flags": {},
    "img": "systems/pf2e/icons/features/feats/feats.webp",
    "name": "Subtle Shank",
    "type": "feat"
}
