{
    "_id": "pmz1itHp13JtcrjW",
    "data": {
        "actionCategory": {
            "value": ""
        },
        "actionType": {
            "value": "action"
        },
        "actions": {
            "value": 3
        },
        "description": {
            "value": "<p>You make a great sweep about yourself, knocking creatures off their feet and away from you. Choose up to three adjacent foes and choose whether to @Compendium[pf2e.actionspf2e.Shove]{Shove} or @Compendium[pf2e.actionspf2e.Trip]{Trip} all three of them.</p>\n<p>Whichever of the two options you choose, roll a separate Athletics check against each foe, performing the same action against each foe. Each attempt counts toward your multiple attack penalty, but don't increase your penalty until you have made all the attempts.</p>"
        },
        "featType": {
            "value": "class"
        },
        "level": {
            "value": 12
        },
        "prerequisites": {
            "value": []
        },
        "rules": [],
        "source": {
            "value": "Pathfinder Advanced Player's Guide"
        },
        "traits": {
            "custom": "",
            "rarity": "common",
            "value": [
                "barbarian",
                "flourish",
                "open"
            ]
        }
    },
    "effects": [],
    "flags": {},
    "img": "systems/pf2e/icons/features/feats/feats.webp",
    "name": "Unbalancing Sweep",
    "type": "feat"
}
