{
    "_id": "6gtm0YCaDFpyVy35",
    "data": {
        "actionCategory": {
            "value": ""
        },
        "actionType": {
            "value": "passive"
        },
        "actions": {
            "value": null
        },
        "description": {
            "value": "<p>You can convey your prey's location to your allies, no matter how well hidden it is.</p>\n<p>As long as your hunted prey is observed by you, all your allies who roll failures and critical failures when @Compendium[pf2e.actionspf2e.Seek]{Seeking} it get a success instead.</p>\n<p>Your allies need to be able to see or hear you to gain this benefit. You have to be able to call out or use gestures for your allies to get this benefit.</p>"
        },
        "featType": {
            "value": "class"
        },
        "level": {
            "value": 14
        },
        "location": "",
        "prerequisites": {
            "value": []
        },
        "rules": [],
        "source": {
            "value": "Pathfinder Core Rulebook"
        },
        "traits": {
            "custom": "",
            "rarity": "common",
            "value": [
                "ranger"
            ]
        }
    },
    "effects": [],
    "flags": {},
    "img": "systems/pf2e/icons/features/feats/feats.webp",
    "name": "Warden's Guidance",
    "type": "feat"
}
