{
    "_id": "AN9jY1JVcU20Qdw6",
    "data": {
        "actionCategory": {
            "value": ""
        },
        "actionType": {
            "value": "action"
        },
        "actions": {
            "value": 1
        },
        "description": {
            "value": "<p><strong>Requirements</strong> You are unarmored</p>\n<hr />\n<p>You enter the stance of a wolf, low to the ground with your hands held like fanged teeth. You can make wolf jaw unarmed attacks. These deal 1d8 piercing damage; are in the brawling group; and have the agile, backstabber, finesse, nonlethal, and unarmed traits.</p>\n<p>If you're flanking a target while in Wolf Stance, your wolf jaw unarmed attacks also gain the trip trait.</p>\n<p>@Compendium[pf2e.feat-effects.Stance: Wolf Stance]{Stance: Wolf Stance}</p>"
        },
        "featType": {
            "value": "class"
        },
        "level": {
            "value": 1
        },
        "location": "",
        "prerequisites": {
            "value": []
        },
        "rules": [],
        "source": {
            "value": "Pathfinder Core Rulebook"
        },
        "traits": {
            "custom": "",
            "rarity": "common",
            "value": [
                "monk",
                "stance"
            ]
        }
    },
    "effects": [],
    "flags": {},
    "img": "systems/pf2e/icons/features/feats/feats.webp",
    "name": "Wolf Stance",
    "type": "feat"
}
