{
    "_id": "KjPTFfxMAqCngQFB",
    "data": {
        "actionCategory": {
            "value": ""
        },
        "actionType": {
            "value": "passive"
        },
        "actions": {
            "value": null
        },
        "description": {
            "value": "<p><strong>Minor Curse</strong> The secrets of magic become mentally taxing. You are permanently @Compendium[pf2e.conditionitems.Stupefied]{Stupefied 1}.</p>"
        },
        "featType": {
            "value": "curse"
        },
        "level": {
            "value": 0
        },
        "prerequisites": {
            "value": []
        },
        "rules": [],
        "source": {
            "value": ""
        },
        "traits": {
            "custom": "",
            "rarity": "common",
            "value": []
        }
    },
    "effects": [],
    "flags": {},
    "img": "systems/pf2e/icons/deity/Nethys.webp",
    "name": "Nethys - Minor Curse",
    "type": "feat"
}
