{
    "_id": "qkwb5DD3zmKwvbk0",
    "data": {
        "description": {
            "value": "<p>Granted by <em>@Compendium[pf2e.spells-srd.Mage Armor]{Mage Armor}</em></p>\n<p>You ward yourself with shimmering magical energy, gaining a +1 item bonus to AC and a maximum Dexterity modifier of +5. While wearing mage armor, you use your unarmored proficiency to calculate your AC.</p>"
        },
        "duration": {
            "expiry": "turn-start",
            "sustained": false,
            "unit": "days",
            "value": 1
        },
        "level": {
            "value": 1
        },
        "rules": [
            {
                "key": "FlatModifier",
                "label": "Mage Armor",
                "selector": "ac",
                "type": "item",
                "value": {
                    "brackets": [
                        {
                            "end": 5,
                            "value": 1
                        },
                        {
                            "end": 9,
                            "start": 6,
                            "value": 2
                        },
                        {
                            "start": 10,
                            "value": 3
                        }
                    ],
                    "field": "item|data.level.value"
                }
            },
            {
                "key": "FlatModifier",
                "label": "Mage Armor",
                "selector": "saving-throw",
                "type": "item",
                "value": {
                    "brackets": [
                        {
                            "end": 7,
                            "start": 4,
                            "value": 1
                        },
                        {
                            "end": 9,
                            "start": 8,
                            "value": 2
                        },
                        {
                            "start": 10,
                            "value": 3
                        }
                    ],
                    "field": "item|data.level.value"
                }
            },
            {
                "key": "DexterityModifierCap",
                "label": "Mage Armor",
                "value": 5
            }
        ],
        "source": {
            "value": ""
        },
        "start": {
            "value": 0
        },
        "tokenIcon": {
            "show": true
        },
        "traits": {
            "custom": "",
            "rarity": "common",
            "value": []
        }
    },
    "effects": [],
    "flags": {},
    "img": "systems/pf2e/icons/spells/mage-armor.webp",
    "name": "Spell Effect: Mage Armor",
    "type": "effect"
}
