{
    "_id": "buXx8Azr4BYWPtFg",
    "data": {
        "description": {
            "value": "<p>Granted by <em>@Compendium[pf2e.spells-srd.Blood Vendetta]{Blood Vendetta}</em></p>\n<p>Until the bleeding stops, the target has weakness 1 to piercing and slashing damage.</p>"
        },
        "duration": {
            "expiry": "turn-end",
            "sustained": false,
            "unit": "unlimited",
            "value": -1
        },
        "level": {
            "value": 2
        },
        "rules": [
            {
                "key": "Weakness",
                "type": "piercing",
                "value": 1
            },
            {
                "key": "Weakness",
                "type": "slashing",
                "value": 1
            }
        ],
        "source": {
            "value": "Pathfinder Advanced Player's Guide"
        },
        "start": {
            "initiative": null,
            "value": 0
        },
        "target": null,
        "tokenIcon": {
            "show": true
        },
        "traits": {
            "custom": "",
            "rarity": "common",
            "value": []
        }
    },
    "effects": [],
    "flags": {},
    "img": "systems/pf2e/icons/spells/blood-vendetta.webp",
    "name": "Spell Effect: Blood Vendetta (Failure)",
    "type": "effect"
}
