{
    "_id": "5xCheSMgtQhQZm00",
    "data": {
        "description": {
            "value": "<p>A poisonous garden forms, and you and the secondary casters gain a +2 circumstance bonus to Nature or Crafting checks to deal with the plants or animals, such as feeding them or harvesting poison from them.</p>"
        },
        "duration": {
            "expiry": "turn-start",
            "sustained": false,
            "unit": "days",
            "value": 365
        },
        "level": {
            "value": 4
        },
        "rules": [
            {
                "key": "FlatModifier",
                "predicate": {
                    "all": [
                        "dealWithGardenOfDeath"
                    ]
                },
                "selector": "nature",
                "type": "circumstance",
                "value": 2
            },
            {
                "key": "FlatModifier",
                "predicate": {
                    "all": [
                        "dealWithGardenOfDeath"
                    ]
                },
                "selector": "crafting",
                "type": "circumstance",
                "value": 2
            }
        ],
        "source": {
            "value": ""
        },
        "start": {
            "initiative": null,
            "value": 0
        },
        "target": null,
        "tokenIcon": {
            "show": true
        },
        "traits": {
            "custom": "",
            "rarity": "common",
            "value": []
        }
    },
    "effects": [],
    "flags": {},
    "img": "systems/pf2e/icons/default-icons/effect.svg",
    "name": "Spell Effect: Garden of Death (Critical Success)",
    "type": "effect"
}
