{
    "_id": "W1FkMHYVDg3yTU5r",
    "data": {
        "actionCategory": {
            "value": ""
        },
        "actionType": {
            "value": "passive"
        },
        "actions": {
            "value": null
        },
        "description": {
            "value": "<p>Your opportunistic attacks are particularly detrimental. When you use @Compendium[pf2e.actionspf2e.Debilitating Strike]{Debilitating Strike}, you can apply two debilitations simultaneously; removing one removes both.</p>"
        },
        "featType": {
            "value": "classfeature"
        },
        "level": {
            "value": 15
        },
        "location": "",
        "prerequisites": {
            "value": []
        },
        "rules": [],
        "source": {
            "value": ""
        },
        "traits": {
            "custom": "",
            "rarity": "common",
            "value": [
                "rogue"
            ]
        }
    },
    "effects": [],
    "flags": {},
    "img": "systems/pf2e/icons/features/classes/double-debilitation.webp",
    "name": "Double Debilitation",
    "type": "feat"
}
