{
    "_id": "SB8UJ8rZmvbcBweJ",
    "data": {
        "actionCategory": {
            "value": ""
        },
        "actionType": {
            "value": "passive"
        },
        "actions": {
            "value": null
        },
        "description": {
            "value": "<p>You know how to wield your fists as deadly weapons. The damage die for your fist increases to 1d6 instead of 1d4. Most people take a -2 circumstance penalty when making a lethal attack with nonlethal unarmed attacks, because they find it hard to use their fists with deadly force. You don't take this penalty when making a lethal attack with your fist or any other unarmed attacks.</p>"
        },
        "featType": {
            "value": "classfeature"
        },
        "level": {
            "value": 1
        },
        "location": "",
        "prerequisites": {
            "value": []
        },
        "rules": [
            {
                "category": "unarmed",
                "damage": {
                    "base": {
                        "damageType": "bludgeoning",
                        "dice": 1,
                        "die": "d6"
                    }
                },
                "group": "brawling",
                "img": "systems/pf2e/icons/features/classes/powerful-fist.webp",
                "key": "Strike",
                "label": "PF2E.Strike.Fist.Label",
                "range": null,
                "slug": "fist",
                "traits": [
                    "agile",
                    "finesse",
                    "nonlethal",
                    "unarmed"
                ]
            }
        ],
        "source": {
            "value": ""
        },
        "traits": {
            "custom": "",
            "rarity": "common",
            "value": [
                "monk"
            ]
        }
    },
    "effects": [],
    "flags": {},
    "img": "systems/pf2e/icons/features/classes/powerful-fist.webp",
    "name": "Powerful Fist",
    "type": "feat"
}
