{
    "_id": "ZDiRrUHkhFz0mLc7",
    "data": {
        "attributes": {
            "ac": {
                "value": 0
            },
            "hardness": 0,
            "hasHealth": false,
            "hp": {
                "details": "",
                "max": 0,
                "temp": 0,
                "value": 0
            },
            "stealth": {
                "details": "<p>(expert)</p>",
                "value": 15
            }
        },
        "creatureType": "",
        "details": {
            "description": "<p>Illusionary snakes erupt from the trapped door, inflicting a venomous curse on intruders.</p>",
            "disable": "<p>@Check[type:thievery|dc:26|name:Deactivate the trigger|traits:uncommon,magical,trap] (expert) or @Check[type:occultism|dc:24|name:Deactivate the trigger|traits:uncommon,magical,trap] (expert) to deactivate the magical trigger</p>",
            "isComplex": false,
            "level": {
                "value": 7
            },
            "reset": "",
            "routine": ""
        },
        "saves": {
            "fortitude": {
                "saveDetail": "",
                "value": 0
            },
            "reflex": {
                "saveDetail": "",
                "value": 0
            },
            "will": {
                "saveDetail": "",
                "value": 0
            }
        },
        "source": {
            "value": "Pathfinder #170: Spoken on the Song Wind"
        },
        "statusEffects": [],
        "traits": {
            "ci": [],
            "di": {
                "custom": "",
                "selected": {},
                "value": []
            },
            "dr": [],
            "dv": [],
            "rarity": "common",
            "size": {
                "value": "med"
            },
            "traits": {
                "custom": "",
                "value": [
                    "uncommon",
                    "magical"
                ]
            }
        }
    },
    "effects": [],
    "flags": {},
    "img": "systems/pf2e/icons/default-icons/hazard.svg",
    "items": [
        {
            "_id": "47yxh3uwt8p7gtzv",
            "data": {
                "actionCategory": {
                    "value": "offensive"
                },
                "actionType": {
                    "value": "reaction"
                },
                "actions": {
                    "value": null
                },
                "description": {
                    "value": "<p data-visibility=\"gm\"><strong>Trigger</strong> The trapped door is opened other than by a serpentfolk</p>\n<p><strong>Effect</strong> Hissing, illusionary snakes leap from the door. Each living creature within 30 feet is subjected to the curse of potent poison. If a living creature opened the door, that creature must roll its saving throw against the curse twice and take the worse result (this is a misfortune effect).</p>\n<hr />\n<h3>Curse of Potent Poison (uncommon, curse, magical) CURSE 5</h3>\n<p>This curse magically speeds poison through your body.</p>\n<p><strong>Saving Throw</strong> @Check[type:will|dc:20|name:Curse of Potent Poison|traits:uncommon,magical]</p>\n<div data-visibility=\"gm\">\n<p><strong>Effect</strong> You take a -1 status penalty to Fortitude saves and you gain weakness 3 to poison (if you already have weakness to poison, increase it by 3). The curse remains until removed by <em>@Compendium[pf2e.spells-srd.Remove Curse]{Remove Curse}</em> or similar magic.</p>\n<p>@Compendium[pf2e.equipment-effects.Effect: Curse of Potent Poison]{Effect: Curse of Potent Poison}</p>\n</div>"
                },
                "requirements": {
                    "value": ""
                },
                "rules": [],
                "slug": null,
                "source": {
                    "value": ""
                },
                "traits": {
                    "custom": "",
                    "rarity": "common",
                    "value": [
                        "curse",
                        "illusion",
                        "occult"
                    ]
                },
                "trigger": {
                    "value": ""
                },
                "weapon": {
                    "value": ""
                }
            },
            "effects": [],
            "flags": {},
            "img": "systems/pf2e/icons/actions/Reaction.webp",
            "name": "Curse the Intruders",
            "sort": 0,
            "type": "action"
        }
    ],
    "name": "Serpent Ward",
    "token": {
        "disposition": 0,
        "height": 1,
        "img": "systems/pf2e/icons/default-icons/hazard.svg",
        "name": "Serpent Ward",
        "width": 1
    },
    "type": "hazard"
}
