{
    "_id": "Y0qsrBFTFMbaiLzr",
    "data": {
        "abilities": {
            "cha": {
                "mod": 8
            },
            "con": {
                "mod": 10
            },
            "dex": {
                "mod": 7
            },
            "int": {
                "mod": 4
            },
            "str": {
                "mod": 11
            },
            "wis": {
                "mod": 9
            }
        },
        "attributes": {
            "ac": {
                "details": "",
                "value": 49
            },
            "allSaves": {
                "value": ""
            },
            "hp": {
                "details": "regeneration 25 (deactivated by vorpal weapons)",
                "max": 500,
                "temp": 0,
                "value": 500
            },
            "initiative": {
                "ability": "perception"
            },
            "perception": {
                "value": 40
            },
            "speed": {
                "otherSpeeds": [
                    {
                        "type": "fly",
                        "value": "60"
                    }
                ],
                "value": "35"
            }
        },
        "details": {
            "alignment": {
                "value": "CE"
            },
            "blurb": "",
            "creatureType": "Dragon",
            "level": {
                "value": 23
            },
            "privateNotes": "",
            "publicNotes": "<p>Few beasts have inspired as many legends, poems, songs, and myths in as many cultures, as this bizarre draconic creature. The jabberwock hails from the fey realm of the First World and is part of a group of powerful First World creatures known collectively as the Tane.</p>\n<p>Like all members of the Tane, jabberwocks are living creatures that age, eat, drink, and sleep, but do not reproduce normally. Instead, they are created directly by the godlike Eldest who rule the First World, and they serve at the pleasure of these capricious and mysterious entities. Believed to be the most powerful of all the Tane, jabberwocks are typically only ever created with one purpose: to wreak destruction and havoc upon the Material Plane. One of the Eldest might send a jabberwock to devastate a country, continent, or even entire world in order to get revenge for some slight made against them by a single mortal. Sometimes, no specific insult or injury is required, as some of the Eldest resent the very existence of the Material Plane and periodically create jabberwocks simply to express the wrath of the First World against its younger and less chaotic sibling.</p>\n<p>Once a jabberwock arrives on the Material Plane, its first order of business is to seek out a lair. It prefers dwelling in remote forest locations about a day's flight from civilization-the more dangerous the woodland is to those who might eventually come hunting it, the better!</p>\n<p>The relationship between jabberwocks and vorpal weapons is the subject of much debate and speculation among scholars, and the various poems, songs, and legends about the jabberwock do little to clarify the issue, conflicting and diverging on this point. Some believe that vorpal weapons were first created specifically to combat jabberwocks, but others take the story one step further. They cite evidence in certain ancient myths that there may once have been only a single, unique jabberwock, so powerful that nothing could so much as scratch it-nothing, that is, except for the first vorpal sword, crafted for that very purpose. So epic was the resulting battle that it created strange echoes throughout reality, and as a result, these echoes, in the form of vorpal weapons, can now be found on many worlds. Those who subscribe to this belief claim that the jabberwocks seen today are but pale imitations of this proto-jabberwock, and they speculate that only the combined efforts of several Eldest would be sufficient to create such a creature again.</p>\n<p>Variant JabberwocksThe Eldest have sometimes altered certain aspects of the jabberwocks they create. Some of the more notorious or legendary variant jabberwocks include the following.</p>\n<p>Frumious Jabberwock: Frumious jabberwocks have two heads. They are level 24 and gain an extra action on each of their turns they can use only to make a jaws Strike.</p>\n<p>Mimsy Jabberwock: Typically hailing from wintry regions of the First World, mimsy jabberwocks have glowing blue-white scales, resist cold instead of fire, and have eyes that burn with blue flames that deal cold damage instead of fire damage.</p>\n<p>Slithy Jabberwock: Wreaking destruction beneath the waves, these sinuous and slimy jabberwocks are amphibious, have a swim Speed of 80 feet instead of the normal fly Speed, and do not have a wing Strike. A slithy jabberwock's whiffling aura is activated whenever it swims, makes a tail Strike, or Burbles.</p>",
            "source": {
                "value": "Pathfinder Bestiary 2"
            }
        },
        "resources": {
            "focus": {
                "max": 1,
                "value": 1
            }
        },
        "saves": {
            "fortitude": {
                "saveDetail": "",
                "value": 39
            },
            "reflex": {
                "saveDetail": "",
                "value": 37
            },
            "will": {
                "saveDetail": "",
                "value": 40
            }
        },
        "traits": {
            "attitude": {
                "value": "hostile"
            },
            "ci": [],
            "di": {
                "custom": "",
                "value": [
                    "paralyzed",
                    "sleep"
                ]
            },
            "dr": [
                {
                    "label": "Fire",
                    "type": "fire",
                    "value": "20"
                }
            ],
            "dv": [
                {
                    "label": "Vorpal",
                    "type": "vorpal",
                    "value": "20"
                },
                {
                    "label": "Vorpal Fear",
                    "type": "vorpal fear"
                }
            ],
            "languages": {
                "custom": "",
                "selected": [],
                "value": [
                    "aklo",
                    "common",
                    "draconic",
                    "gnomish",
                    "sylvan"
                ]
            },
            "rarity": "rare",
            "senses": {
                "value": "darkvision, scent 120 feet, true seeing"
            },
            "size": {
                "value": "huge"
            },
            "traits": {
                "custom": "",
                "value": [
                    "dragon",
                    "tane"
                ]
            }
        }
    },
    "effects": [],
    "flags": {},
    "img": "systems/pf2e/icons/default-icons/npc.svg",
    "items": [
        {
            "_id": "uAlQecVurdHtCKds",
            "data": {
                "autoHeightenLevel": {
                    "value": null
                },
                "description": {
                    "value": ""
                },
                "displayLevels": {},
                "prepared": {
                    "flexible": false,
                    "value": "innate"
                },
                "proficiency": {
                    "value": 0
                },
                "rules": [],
                "showSlotlessLevels": {
                    "value": true
                },
                "showUnpreparedSpells": {
                    "value": false
                },
                "signatureSpells": {
                    "value": []
                },
                "slots": {
                    "slot0": {
                        "max": 0,
                        "prepared": [],
                        "value": 0
                    },
                    "slot1": {
                        "max": 0,
                        "prepared": [],
                        "value": 0
                    },
                    "slot10": {
                        "max": 0,
                        "prepared": [],
                        "value": 0
                    },
                    "slot11": {
                        "max": 0,
                        "prepared": [],
                        "value": 0
                    },
                    "slot2": {
                        "max": 0,
                        "prepared": [],
                        "value": 0
                    },
                    "slot3": {
                        "max": 0,
                        "prepared": [],
                        "value": 0
                    },
                    "slot4": {
                        "max": 0,
                        "prepared": [],
                        "value": 0
                    },
                    "slot5": {
                        "max": 0,
                        "prepared": [],
                        "value": 0
                    },
                    "slot6": {
                        "max": 0,
                        "prepared": [],
                        "value": 0
                    },
                    "slot7": {
                        "max": 0,
                        "prepared": [],
                        "value": 0
                    },
                    "slot8": {
                        "max": 0,
                        "prepared": [],
                        "value": 0
                    },
                    "slot9": {
                        "max": 0,
                        "prepared": [],
                        "value": 0
                    }
                },
                "slug": null,
                "source": {
                    "value": ""
                },
                "spelldc": {
                    "dc": 43,
                    "item": 0,
                    "mod": 0,
                    "value": 33
                },
                "tradition": {
                    "value": "primal"
                },
                "traits": {
                    "custom": "",
                    "rarity": "common",
                    "value": []
                }
            },
            "effects": [],
            "flags": {},
            "img": "systems/pf2e/icons/default-icons/spellcastingEntry.svg",
            "name": "Primal Innate Spells",
            "sort": 100000,
            "type": "spellcastingEntry"
        },
        {
            "_id": "g2euZN5HL0HEXaye",
            "data": {
                "ability": {
                    "value": ""
                },
                "area": {
                    "areaType": "",
                    "value": null
                },
                "areasize": {
                    "value": ""
                },
                "autoHeightenLevel": {
                    "value": null
                },
                "category": {
                    "value": "spell"
                },
                "components": {
                    "focus": false,
                    "material": false,
                    "somatic": true,
                    "verbal": true
                },
                "cost": {
                    "value": ""
                },
                "damage": {
                    "value": {}
                },
                "description": {
                    "value": "<p>You see things within 60 feet as they actually are. The GM rolls a secret counteract check against any illusion or transmutation in the area, but only for the purpose of determining whether you see through it (for instance, if the check succeeds against a polymorph spell, you can see the creature's true form, but you don't end the polymorph spell).</p>"
                },
                "duration": {
                    "value": "10 minutes"
                },
                "hasCounteractCheck": {
                    "value": true
                },
                "level": {
                    "value": 10
                },
                "location": {
                    "value": "uAlQecVurdHtCKds"
                },
                "materials": {
                    "value": ""
                },
                "prepared": {
                    "value": ""
                },
                "primarycheck": {
                    "value": ""
                },
                "range": {
                    "value": ""
                },
                "rules": [],
                "save": {
                    "basic": "",
                    "value": ""
                },
                "school": {
                    "value": "divination"
                },
                "secondarycasters": {
                    "value": ""
                },
                "secondarycheck": {
                    "value": ""
                },
                "slug": "true-seeing",
                "source": {
                    "value": ""
                },
                "spellType": {
                    "value": "utility"
                },
                "sustained": {
                    "value": false
                },
                "target": {
                    "value": ""
                },
                "time": {
                    "value": "2"
                },
                "traditions": {
                    "value": [
                        "arcane",
                        "divine",
                        "occult",
                        "primal"
                    ]
                },
                "traits": {
                    "custom": "",
                    "rarity": "common",
                    "value": [
                        "revelation"
                    ]
                }
            },
            "effects": [],
            "flags": {
                "core": {
                    "sourceId": "Compendium.pf2e.spells-srd.uqlxMQQeSGWEVjki"
                }
            },
            "img": "systems/pf2e/icons/spells/true-seeing.webp",
            "name": "True Seeing (Constant)",
            "sort": 200000,
            "type": "spell"
        },
        {
            "_id": "vMozJKWMEqEZvBOl",
            "data": {
                "attack": {
                    "value": ""
                },
                "attackEffects": {
                    "value": []
                },
                "bonus": {
                    "value": 42
                },
                "damageRolls": {
                    "0": {
                        "damage": "4d12+19",
                        "damageType": "piercing"
                    }
                },
                "description": {
                    "value": ""
                },
                "rules": [],
                "slug": null,
                "source": {
                    "value": ""
                },
                "traits": {
                    "custom": "",
                    "rarity": "common",
                    "value": [
                        "deadly-d12",
                        "magical",
                        "reach-15"
                    ]
                },
                "weaponType": {
                    "value": "melee"
                }
            },
            "effects": [],
            "flags": {},
            "img": "systems/pf2e/icons/default-icons/melee.svg",
            "name": "Jaws",
            "sort": 300000,
            "type": "melee"
        },
        {
            "_id": "zeyB4l2CYjcqiDrH",
            "data": {
                "attack": {
                    "value": ""
                },
                "attackEffects": {
                    "value": [
                        "improved-grab"
                    ]
                },
                "bonus": {
                    "value": 42
                },
                "damageRolls": {
                    "0zbgcwl0mnj7jsilbnv5": {
                        "damage": "4d8+19",
                        "damageType": "slashing"
                    }
                },
                "description": {
                    "value": ""
                },
                "rules": [],
                "slug": null,
                "source": {
                    "value": ""
                },
                "traits": {
                    "custom": "",
                    "rarity": "common",
                    "value": [
                        "agile",
                        "magical",
                        "reach-15"
                    ]
                },
                "weaponType": {
                    "value": "melee"
                }
            },
            "effects": [],
            "flags": {},
            "img": "systems/pf2e/icons/default-icons/melee.svg",
            "name": "Claw",
            "sort": 400000,
            "type": "melee"
        },
        {
            "_id": "1ChXT4DL7N5JhHEq",
            "data": {
                "attack": {
                    "value": ""
                },
                "attackEffects": {
                    "value": [
                        "improved-knockdown"
                    ]
                },
                "bonus": {
                    "value": 42
                },
                "damageRolls": {
                    "veqtmk34yzfnt9g1l4vc": {
                        "damage": "4d10+19",
                        "damageType": "bludgeoning"
                    }
                },
                "description": {
                    "value": ""
                },
                "rules": [],
                "slug": null,
                "source": {
                    "value": ""
                },
                "traits": {
                    "custom": "",
                    "rarity": "common",
                    "value": [
                        "magical",
                        "reach-15"
                    ]
                },
                "weaponType": {
                    "value": "melee"
                }
            },
            "effects": [],
            "flags": {},
            "img": "systems/pf2e/icons/default-icons/melee.svg",
            "name": "Tail",
            "sort": 500000,
            "type": "melee"
        },
        {
            "_id": "OYTKATaPDdautdNt",
            "data": {
                "attack": {
                    "value": ""
                },
                "attackEffects": {
                    "value": []
                },
                "bonus": {
                    "value": 40
                },
                "damageRolls": {
                    "kkyx4gcke19ksr45ryn4": {
                        "damage": "4d8+19",
                        "damageType": "bludgeoning"
                    }
                },
                "description": {
                    "value": ""
                },
                "rules": [],
                "slug": null,
                "source": {
                    "value": ""
                },
                "traits": {
                    "custom": "",
                    "rarity": "common",
                    "value": [
                        "magical",
                        "agile",
                        "reach-15"
                    ]
                },
                "weaponType": {
                    "value": "melee"
                }
            },
            "effects": [],
            "flags": {},
            "img": "systems/pf2e/icons/default-icons/melee.svg",
            "name": "Wing",
            "sort": 600000,
            "type": "melee"
        },
        {
            "_id": "lOVrcn3AJGm4KWma",
            "data": {
                "attack": {
                    "value": ""
                },
                "attackEffects": {
                    "value": []
                },
                "bonus": {
                    "value": 42
                },
                "damageRolls": {
                    "0": {
                        "damage": "10d6",
                        "damageType": "fire"
                    }
                },
                "description": {
                    "value": "<p>[[/r {4d6}[persistent,fire]]] @Compendium[pf2e.conditionitems.Persistent Damage]{Persistent Fire Damage}</p>"
                },
                "rules": [],
                "slug": null,
                "source": {
                    "value": ""
                },
                "traits": {
                    "custom": "",
                    "rarity": "common",
                    "value": [
                        "fire",
                        "magical",
                        "range-increment-60"
                    ]
                },
                "weaponType": {
                    "value": "ranged"
                }
            },
            "effects": [],
            "flags": {},
            "img": "systems/pf2e/icons/default-icons/melee.svg",
            "name": "Eyes Of Flame",
            "sort": 700000,
            "type": "melee"
        },
        {
            "_id": "NHDhjNbpULppyjkP",
            "data": {
                "actionCategory": {
                    "value": "interaction"
                },
                "actionType": {
                    "value": "passive"
                },
                "actions": {
                    "value": null
                },
                "description": {
                    "value": "<p>@Localize[PF2E.NPC.Abilities.Glossary.Darkvision]</p>"
                },
                "requirements": {
                    "value": ""
                },
                "rules": [],
                "slug": "darkvision",
                "source": {
                    "value": ""
                },
                "traits": {
                    "custom": "",
                    "rarity": "common",
                    "value": []
                },
                "trigger": {
                    "value": ""
                },
                "weapon": {
                    "value": ""
                }
            },
            "effects": [],
            "flags": {
                "core": {
                    "sourceId": "Compendium.pf2e.bestiary-ability-glossary-srd.qCCLZhnp2HhP3Ex6"
                }
            },
            "img": "systems/pf2e/icons/actions/Passive.webp",
            "name": "Darkvision",
            "sort": 800000,
            "type": "action"
        },
        {
            "_id": "5f6mJgvaVADXCaAz",
            "data": {
                "actionCategory": {
                    "value": "interaction"
                },
                "actionType": {
                    "value": "passive"
                },
                "actions": {
                    "value": null
                },
                "description": {
                    "value": "<p>@Localize[PF2E.NPC.Abilities.Glossary.Scent]</p>"
                },
                "requirements": {
                    "value": ""
                },
                "rules": [],
                "slug": "scent",
                "source": {
                    "value": ""
                },
                "traits": {
                    "custom": "",
                    "rarity": "common",
                    "value": []
                },
                "trigger": {
                    "value": ""
                },
                "weapon": {
                    "value": ""
                }
            },
            "effects": [],
            "flags": {
                "core": {
                    "sourceId": "Compendium.pf2e.bestiary-ability-glossary-srd.rqfnQ5VHT5hxm25r"
                }
            },
            "img": "systems/pf2e/icons/actions/Passive.webp",
            "name": "Scent",
            "sort": 900000,
            "type": "action"
        },
        {
            "_id": "R3HSbrKclMuhH014",
            "data": {
                "actionCategory": {
                    "value": "interaction"
                },
                "actionType": {
                    "value": "passive"
                },
                "actions": {
                    "value": null
                },
                "description": {
                    "value": "<p>The jabberwock always treats the plane it is currently located on as its home plane.</p>"
                },
                "requirements": {
                    "value": ""
                },
                "rules": [],
                "slug": null,
                "source": {
                    "value": ""
                },
                "traits": {
                    "custom": "",
                    "rarity": "common",
                    "value": []
                },
                "trigger": {
                    "value": ""
                },
                "weapon": {
                    "value": ""
                }
            },
            "effects": [],
            "flags": {},
            "img": "systems/pf2e/icons/actions/Passive.webp",
            "name": "Planar Acclimation",
            "sort": 1000000,
            "type": "action"
        },
        {
            "_id": "vYo1emHFZe2lLLBo",
            "data": {
                "actionCategory": {
                    "value": "interaction"
                },
                "actionType": {
                    "value": "passive"
                },
                "actions": {
                    "value": null
                },
                "description": {
                    "value": "<hr />\n<p>@Localize[PF2E.NPC.Abilities.Glossary.ConstantSpells]</p>"
                },
                "requirements": {
                    "value": ""
                },
                "rules": [],
                "slug": "constant-spells",
                "source": {
                    "value": ""
                },
                "traits": {
                    "custom": "",
                    "rarity": "common",
                    "value": []
                },
                "trigger": {
                    "value": ""
                },
                "weapon": {
                    "value": ""
                }
            },
            "effects": [],
            "flags": {
                "core": {
                    "sourceId": "Compendium.pf2e.bestiary-ability-glossary-srd.kakyXBG5WA8c6Zfd"
                }
            },
            "img": "systems/pf2e/icons/actions/Passive.webp",
            "name": "Constant Spells",
            "sort": 1100000,
            "type": "action"
        },
        {
            "_id": "gZfWtX8zkOoe49o7",
            "data": {
                "actionCategory": {
                    "value": "defensive"
                },
                "actionType": {
                    "value": "passive"
                },
                "actions": {
                    "value": null
                },
                "description": {
                    "value": "<p>@Localize[PF2E.NPC.Abilities.Glossary.Regeneration]</p>"
                },
                "requirements": {
                    "value": ""
                },
                "rules": [],
                "slug": "regeneration",
                "source": {
                    "value": ""
                },
                "traits": {
                    "custom": "",
                    "rarity": "common",
                    "value": []
                },
                "trigger": {
                    "value": ""
                },
                "weapon": {
                    "value": ""
                }
            },
            "effects": [],
            "flags": {
                "core": {
                    "sourceId": "Compendium.pf2e.bestiary-ability-glossary-srd.lR9R5Vld8Eu2Dha5"
                }
            },
            "img": "systems/pf2e/icons/actions/Passive.webp",
            "name": "Regeneration 25 (deactivated by vorpal weapons)",
            "sort": 1200000,
            "type": "action"
        },
        {
            "_id": "yZCKHSiJwqO7N1sy",
            "data": {
                "actionCategory": {
                    "value": "defensive"
                },
                "actionType": {
                    "value": "reaction"
                },
                "actions": {
                    "value": null
                },
                "description": {
                    "value": "<p data-visibility=\"gm\"><strong>Trigger</strong> A creature within the jabberwock's reach uses a manipulate action or a move action, leaves a square during a move action, makes a ranged attack, or uses a concentrate action</p>\n<p><strong>Effect</strong> The jabberwock makes a claw Strike against the triggering creature. If the Strike hits, the jabberwock disrupts the triggering action.</p>"
                },
                "requirements": {
                    "value": ""
                },
                "rules": [],
                "slug": null,
                "source": {
                    "value": ""
                },
                "traits": {
                    "custom": "",
                    "rarity": "common",
                    "value": [
                        "manipulate",
                        "move",
                        "concentrate"
                    ]
                },
                "trigger": {
                    "value": ""
                },
                "weapon": {
                    "value": ""
                }
            },
            "effects": [],
            "flags": {},
            "img": "systems/pf2e/icons/actions/Reaction.webp",
            "name": "Claws That Catch",
            "sort": 1300000,
            "type": "action"
        },
        {
            "_id": "Xc15ip4V31NZTNdq",
            "data": {
                "actionCategory": {
                    "value": "defensive"
                },
                "actionType": {
                    "value": "passive"
                },
                "actions": {
                    "value": null
                },
                "description": {
                    "value": "<p>@Template[type:emanation|distance:100]{100 feet} @Compendium[pf2e.bestiary-ability-glossary-srd.Aura]{Aura} @Check[type:will|dc:43]</p>\n<p>@Localize[PF2E.NPC.Abilities.Glossary.FrightfulPresence]</p>"
                },
                "requirements": {
                    "value": ""
                },
                "rules": [],
                "slug": "frightful-presence",
                "source": {
                    "value": ""
                },
                "traits": {
                    "custom": "",
                    "rarity": "common",
                    "value": [
                        "aura",
                        "emotion",
                        "fear",
                        "mental"
                    ]
                },
                "trigger": {
                    "value": ""
                },
                "weapon": {
                    "value": ""
                }
            },
            "effects": [],
            "flags": {
                "core": {
                    "sourceId": "Compendium.pf2e.bestiary-ability-glossary-srd.etMnv73EIdEZrYYu"
                }
            },
            "img": "systems/pf2e/icons/actions/Passive.webp",
            "name": "Frightful Presence",
            "sort": 1400000,
            "type": "action"
        },
        {
            "_id": "JJTobEFnvJPV524S",
            "data": {
                "actionCategory": {
                    "value": "defensive"
                },
                "actionType": {
                    "value": "passive"
                },
                "actions": {
                    "value": null
                },
                "description": {
                    "value": "<p>A jabberwock damaged by a vorpal weapon becomes @Compendium[pf2e.conditionitems.Frightened]{Frightened 2} (or @Compendium[pf2e.conditionitems.Frightened]{Frightened 4} on a critical hit).</p>"
                },
                "requirements": {
                    "value": ""
                },
                "rules": [],
                "slug": null,
                "source": {
                    "value": ""
                },
                "traits": {
                    "custom": "",
                    "rarity": "common",
                    "value": []
                },
                "trigger": {
                    "value": ""
                },
                "weapon": {
                    "value": ""
                }
            },
            "effects": [],
            "flags": {},
            "img": "systems/pf2e/icons/actions/Passive.webp",
            "name": "Vorpal Fear",
            "sort": 1500000,
            "type": "action"
        },
        {
            "_id": "XhhOGnxq5cUHkcEd",
            "data": {
                "actionCategory": {
                    "value": "offensive"
                },
                "actionType": {
                    "value": "action"
                },
                "actions": {
                    "value": 2
                },
                "description": {
                    "value": "<p>The jabberwock creates a blast of strange noises and shouted nonsense in the various languages it knows (and invariably some languages it doesn't know), creating one of two effects.</p>\n<p>The jabberwock can't Burble again for [[/br 1d4 #rounds]]{1d4 rounds}.</p>\n<ul>\n<li><strong>Confusion</strong> 60 feet. Each creature in the emanation must succeed at a @Check[type:will|dc:46] save or become @Compendium[pf2e.conditionitems.Confused]{Confused} for [[/br 1d4 #rounds]]{1d4 rounds}.</li>\n<li><strong>Sonic Beam</strong> The jabberwock focuses its Burbling into a 60 foot line of sonic energy that deals [[/r {24d6}[sonic]]]{24d6 sonic damage} to creatures in the area (@Check[type:reflex|dc:46|basic:true] save).</li>\n</ul>"
                },
                "requirements": {
                    "value": ""
                },
                "rules": [],
                "slug": null,
                "source": {
                    "value": ""
                },
                "traits": {
                    "custom": "",
                    "rarity": "common",
                    "value": [
                        "aura",
                        "emotion",
                        "enchantment",
                        "mental",
                        "primal",
                        "evocation",
                        "sonic"
                    ]
                },
                "trigger": {
                    "value": ""
                },
                "weapon": {
                    "value": ""
                }
            },
            "effects": [],
            "flags": {},
            "img": "systems/pf2e/icons/actions/TwoActions.webp",
            "name": "Burble",
            "sort": 1600000,
            "type": "action"
        },
        {
            "_id": "o38MzuC03KOCw8wS",
            "data": {
                "actionCategory": {
                    "value": "offensive"
                },
                "actionType": {
                    "value": "passive"
                },
                "actions": {
                    "value": null
                },
                "description": {
                    "value": "<p>If the jabberwock makes a jaws attack and rolls a natural 19 on the d20 roll, the attack is a critical hit. This has no effect if the 19 would be a failure.</p>"
                },
                "requirements": {
                    "value": ""
                },
                "rules": [],
                "slug": null,
                "source": {
                    "value": ""
                },
                "traits": {
                    "custom": "",
                    "rarity": "common",
                    "value": []
                },
                "trigger": {
                    "value": ""
                },
                "weapon": {
                    "value": ""
                }
            },
            "effects": [],
            "flags": {},
            "img": "systems/pf2e/icons/actions/Passive.webp",
            "name": "Jaws That Bite",
            "sort": 1700000,
            "type": "action"
        },
        {
            "_id": "eN9AmHu7Wb5ZVY5F",
            "data": {
                "actionCategory": {
                    "value": "offensive"
                },
                "actionType": {
                    "value": "reaction"
                },
                "actions": {
                    "value": null
                },
                "description": {
                    "value": "<p data-visibility=\"gm\"><strong>Trigger</strong> The jabberwock Flies or makes a wing Strike</p>\n<p><strong>Effect</strong> The jabberwock's wings whiffle, creating severe winds within a @Template[type:emanation|distance:30]. These winds move outward from the jabberwock, and they persist until the start of the jabberwock's next turn. During this time, flight of any kind in the emanation requires a successful <span data-pf2-action=\"maneuverInFlight\" data-pf2-dc=\"43\" data-pf2-glyph=\"A\" data-pf2-show-dc=\"gm\">Acrobatics</span> check to @Compendium[pf2e.actionspf2e.Maneuver in Flight]{Maneuver in Flight}, and creatures flying toward the jabberwock are moving through greater difficult terrain. Creatures on the ground in the emanation must succeed at a @Check[type:athletics|dc:43|name:Approach Jabberwock] check to approach the jabberwock.</p>"
                },
                "requirements": {
                    "value": ""
                },
                "rules": [],
                "slug": null,
                "source": {
                    "value": ""
                },
                "traits": {
                    "custom": "",
                    "rarity": "common",
                    "value": [
                        "aura"
                    ]
                },
                "trigger": {
                    "value": ""
                },
                "weapon": {
                    "value": ""
                }
            },
            "effects": [],
            "flags": {},
            "img": "systems/pf2e/icons/actions/Reaction.webp",
            "name": "Whiffling",
            "sort": 1800000,
            "type": "action"
        },
        {
            "_id": "VzK5CD8g2ofWRIkk",
            "data": {
                "actionCategory": {
                    "value": "offensive"
                },
                "actionType": {
                    "value": "free"
                },
                "actions": {
                    "value": null
                },
                "description": {
                    "value": "<p>@Localize[PF2E.NPC.Abilities.Glossary.ImprovedGrab]</p>"
                },
                "requirements": {
                    "value": ""
                },
                "rules": [],
                "slug": "improved-grab",
                "source": {
                    "value": ""
                },
                "traits": {
                    "custom": "",
                    "rarity": "common",
                    "value": []
                },
                "trigger": {
                    "value": ""
                },
                "weapon": {
                    "value": ""
                }
            },
            "effects": [],
            "flags": {
                "core": {
                    "sourceId": "Compendium.pf2e.bestiary-ability-glossary-srd.i18TlebMzwONyPhI"
                }
            },
            "img": "systems/pf2e/icons/actions/FreeAction.webp",
            "name": "Improved Grab",
            "sort": 1900000,
            "type": "action"
        },
        {
            "_id": "cRTNLnVuzisUG7kl",
            "data": {
                "actionCategory": {
                    "value": "offensive"
                },
                "actionType": {
                    "value": "free"
                },
                "actions": {
                    "value": null
                },
                "description": {
                    "value": "<p>@Localize[PF2E.NPC.Abilities.Glossary.ImprovedKnockdown]</p>"
                },
                "requirements": {
                    "value": ""
                },
                "rules": [],
                "slug": "improved-knockdown",
                "source": {
                    "value": ""
                },
                "traits": {
                    "custom": "",
                    "rarity": "common",
                    "value": []
                },
                "trigger": {
                    "value": ""
                },
                "weapon": {
                    "value": ""
                }
            },
            "effects": [],
            "flags": {
                "core": {
                    "sourceId": "Compendium.pf2e.bestiary-ability-glossary-srd.LbnsT8yXchHMQT3t"
                }
            },
            "img": "systems/pf2e/icons/actions/FreeAction.webp",
            "name": "Improved Knockdown",
            "sort": 2000000,
            "type": "action"
        },
        {
            "_id": "ULPKwcBSXIGI7ZpY",
            "data": {
                "description": {
                    "value": ""
                },
                "mod": {
                    "value": 40
                },
                "proficient": {
                    "value": 0
                },
                "rules": [],
                "slug": null,
                "source": {
                    "value": ""
                },
                "traits": {
                    "custom": "",
                    "rarity": "common",
                    "value": []
                }
            },
            "effects": [],
            "flags": {},
            "img": "systems/pf2e/icons/default-icons/lore.svg",
            "name": "Acrobatics",
            "sort": 2100000,
            "type": "lore"
        },
        {
            "_id": "SSL88LGbwlOBpD9K",
            "data": {
                "description": {
                    "value": ""
                },
                "mod": {
                    "value": 44
                },
                "proficient": {
                    "value": 0
                },
                "rules": [],
                "slug": null,
                "source": {
                    "value": ""
                },
                "traits": {
                    "custom": "",
                    "rarity": "common",
                    "value": []
                }
            },
            "effects": [],
            "flags": {},
            "img": "systems/pf2e/icons/default-icons/lore.svg",
            "name": "Athletics",
            "sort": 2200000,
            "type": "lore"
        },
        {
            "_id": "SJqlLnIYiaIRAi2q",
            "data": {
                "description": {
                    "value": ""
                },
                "mod": {
                    "value": 41
                },
                "proficient": {
                    "value": 0
                },
                "rules": [],
                "slug": null,
                "source": {
                    "value": ""
                },
                "traits": {
                    "custom": "",
                    "rarity": "common",
                    "value": []
                }
            },
            "effects": [],
            "flags": {},
            "img": "systems/pf2e/icons/default-icons/lore.svg",
            "name": "Intimidation",
            "sort": 2300000,
            "type": "lore"
        },
        {
            "_id": "n7hrSiuJ1q5kU6Bg",
            "data": {
                "description": {
                    "value": ""
                },
                "mod": {
                    "value": 38
                },
                "proficient": {
                    "value": 0
                },
                "rules": [],
                "slug": null,
                "source": {
                    "value": ""
                },
                "traits": {
                    "custom": "",
                    "rarity": "common",
                    "value": []
                }
            },
            "effects": [],
            "flags": {},
            "img": "systems/pf2e/icons/default-icons/lore.svg",
            "name": "Nature",
            "sort": 2400000,
            "type": "lore"
        },
        {
            "_id": "MG21QVsLEbh4GCIc",
            "data": {
                "description": {
                    "value": ""
                },
                "mod": {
                    "value": 40
                },
                "proficient": {
                    "value": 0
                },
                "rules": [],
                "slug": null,
                "source": {
                    "value": ""
                },
                "traits": {
                    "custom": "",
                    "rarity": "common",
                    "value": []
                }
            },
            "effects": [],
            "flags": {},
            "img": "systems/pf2e/icons/default-icons/lore.svg",
            "name": "Survival",
            "sort": 2500000,
            "type": "lore"
        }
    ],
    "name": "Jabberwock",
    "token": {
        "disposition": -1,
        "height": 3,
        "img": "systems/pf2e/icons/default-icons/npc.svg",
        "name": "Jabberwock",
        "width": 3
    },
    "type": "npc"
}
