{
    "_id": "xrAx0xj0UsM4DG5T",
    "data": {
        "abilities": {
            "cha": {
                "mod": 0
            },
            "con": {
                "mod": 2
            },
            "dex": {
                "mod": 1
            },
            "int": {
                "mod": 0
            },
            "str": {
                "mod": 4
            },
            "wis": {
                "mod": 2
            }
        },
        "attributes": {
            "ac": {
                "details": "",
                "value": 19
            },
            "allSaves": {
                "value": ""
            },
            "hp": {
                "details": "",
                "max": 20,
                "temp": 0,
                "value": 20
            },
            "initiative": {
                "ability": "perception"
            },
            "perception": {
                "value": 7
            },
            "speed": {
                "otherSpeeds": [],
                "value": "20"
            }
        },
        "details": {
            "alignment": {
                "value": "LN"
            },
            "blurb": "",
            "creatureType": "Humanoid",
            "level": {
                "value": 1
            },
            "privateNotes": "",
            "publicNotes": "<p>Elemental earth laces through the bones of oreads, who appear similar to stone statues of their mortal ancestry, with delicate crystals in place of hair, fur, or scales. Oreads are stoic and slow to plan but are of steadfast resolve and unwavering in their convictions.</p>\n<p>The typical oread cherishes quiet seclusion. Yet as they age, many oreads find themselves inexplicably drawn to some far-flung location with a pull like that exerted on the needle of a compass-intangible, constant, and ultimately irresistible. The destination of this mysterious pilgrimage is unique to each oread, though it usually ends in some place of great mystical power, natural splendor, or esoteric learning. Most oreads are drawn to a place with which they are somewhat familiar, but a rare few feel drawn to travel in a seemingly random direction, departing with only their hope that they'll discover whatever mystery lies at the end of their invisible path.</p>\n<p>Many oreads find that the role of a guard suits their personality well, for in such a role they can feel as if they are helping to promote order but also find time to stand vigil as lone sentinels over a specific portion of a fortification or a remote location on a wilderness trail.</p>",
            "source": {
                "value": "Pathfinder Bestiary 2"
            }
        },
        "resources": {},
        "saves": {
            "fortitude": {
                "saveDetail": "",
                "value": 7
            },
            "reflex": {
                "saveDetail": "",
                "value": 6
            },
            "will": {
                "saveDetail": "",
                "value": 5
            }
        },
        "traits": {
            "attitude": {
                "value": "hostile"
            },
            "ci": [],
            "di": {
                "custom": "",
                "value": []
            },
            "dr": [],
            "dv": [],
            "languages": {
                "custom": "",
                "selected": [],
                "value": [
                    "common",
                    "terran"
                ]
            },
            "rarity": "common",
            "senses": {
                "value": ""
            },
            "size": {
                "value": "med"
            },
            "traits": {
                "custom": "",
                "value": [
                    "human",
                    "humanoid",
                    "oread"
                ]
            }
        }
    },
    "effects": [],
    "flags": {},
    "img": "systems/pf2e/icons/default-icons/npc.svg",
    "items": [
        {
            "_id": "bol3nFbFk0gXhnBT",
            "data": {
                "MAP": {
                    "value": ""
                },
                "baseItem": "bastard-sword",
                "bonus": {
                    "value": 0
                },
                "bonusDamage": {
                    "value": 0
                },
                "brokenThreshold": {
                    "value": 0
                },
                "bulkCapacity": {
                    "value": ""
                },
                "category": "martial",
                "collapsed": {
                    "value": false
                },
                "containerId": {
                    "value": ""
                },
                "damage": {
                    "damageType": "slashing",
                    "dice": 1,
                    "die": "d8",
                    "value": ""
                },
                "description": {
                    "value": "<p>This broad‑bladed sword, sometimes called the hand‑and‑a‑half sword, has a longer grip so it can be held in one hand or used with two hands to provide extra piercing or slashing power.</p>"
                },
                "equipped": {
                    "value": false
                },
                "equippedBulk": {
                    "value": ""
                },
                "group": "sword",
                "hands": {
                    "value": ""
                },
                "hardness": {
                    "value": 0
                },
                "hp": {
                    "value": 0
                },
                "identification": {
                    "misidentified": {},
                    "status": "identified",
                    "unidentified": {
                        "data": {
                            "description": {
                                "value": ""
                            }
                        },
                        "img": "",
                        "name": ""
                    }
                },
                "invested": {
                    "value": false
                },
                "level": {
                    "value": 0
                },
                "maxHp": {
                    "value": 0
                },
                "negateBulk": {
                    "value": "0"
                },
                "potencyRune": {
                    "value": null
                },
                "preciousMaterial": {
                    "value": ""
                },
                "preciousMaterialGrade": {
                    "value": ""
                },
                "price": {
                    "value": "4 gp"
                },
                "property1": {
                    "critDamage": "",
                    "critDamageType": "",
                    "critDice": null,
                    "critDie": "",
                    "criticalConditionType": "",
                    "criticalConditionValue": null,
                    "damageType": "",
                    "dice": null,
                    "die": "",
                    "strikeConditionType": "",
                    "strikeConditionValue": null,
                    "value": ""
                },
                "propertyRune1": {
                    "value": ""
                },
                "propertyRune2": {
                    "value": ""
                },
                "propertyRune3": {
                    "value": ""
                },
                "propertyRune4": {
                    "value": ""
                },
                "quantity": {
                    "value": 1
                },
                "range": null,
                "reload": {
                    "value": ""
                },
                "rules": [],
                "size": {
                    "value": "med"
                },
                "slug": "bastard-sword",
                "source": {
                    "value": ""
                },
                "specific": {
                    "value": false
                },
                "splashDamage": {
                    "value": 0
                },
                "stackGroup": {
                    "value": ""
                },
                "strikingRune": {
                    "value": ""
                },
                "traits": {
                    "custom": "",
                    "rarity": "common",
                    "value": [
                        "two-hand-d12"
                    ]
                },
                "usage": {
                    "value": "held-in-one-hand"
                },
                "weight": {
                    "value": "1"
                }
            },
            "effects": [],
            "flags": {
                "core": {
                    "sourceId": "Compendium.pf2e.equipment-srd.6KWYmeRMxsQfWhhJ"
                }
            },
            "img": "systems/pf2e/icons/equipment/weapons/bastard-sword.webp",
            "name": "Bastard Sword",
            "sort": 100000,
            "type": "weapon"
        },
        {
            "_id": "86j5EDUeEkpLxXZx",
            "data": {
                "MAP": {
                    "value": ""
                },
                "baseItem": "light-hammer",
                "bonus": {
                    "value": 0
                },
                "bonusDamage": {
                    "value": 0
                },
                "brokenThreshold": {
                    "value": 0
                },
                "bulkCapacity": {
                    "value": ""
                },
                "category": "martial",
                "collapsed": {
                    "value": false
                },
                "containerId": {
                    "value": ""
                },
                "damage": {
                    "damageType": "bludgeoning",
                    "dice": 1,
                    "die": "d6",
                    "value": ""
                },
                "description": {
                    "value": "<p>This smaller version of the warhammer has a wooden or metal shaft ending in a metal head. Unlike its heavier cousin, it is light enough to throw.</p>"
                },
                "equipped": {
                    "value": false
                },
                "equippedBulk": {
                    "value": ""
                },
                "group": "hammer",
                "hands": {
                    "value": ""
                },
                "hardness": {
                    "value": 0
                },
                "hp": {
                    "value": 0
                },
                "identification": {
                    "misidentified": {},
                    "status": "identified",
                    "unidentified": {
                        "data": {
                            "description": {
                                "value": ""
                            }
                        },
                        "img": "",
                        "name": ""
                    }
                },
                "invested": {
                    "value": false
                },
                "level": {
                    "value": 0
                },
                "maxHp": {
                    "value": 0
                },
                "negateBulk": {
                    "value": "0"
                },
                "potencyRune": {
                    "value": null
                },
                "preciousMaterial": {
                    "value": ""
                },
                "preciousMaterialGrade": {
                    "value": ""
                },
                "price": {
                    "value": "3 sp"
                },
                "property1": {
                    "critDamage": "",
                    "critDamageType": "",
                    "critDice": null,
                    "critDie": "",
                    "criticalConditionType": "",
                    "criticalConditionValue": null,
                    "damageType": "",
                    "dice": null,
                    "die": "",
                    "strikeConditionType": "",
                    "strikeConditionValue": null,
                    "value": ""
                },
                "propertyRune1": {
                    "value": ""
                },
                "propertyRune2": {
                    "value": ""
                },
                "propertyRune3": {
                    "value": ""
                },
                "propertyRune4": {
                    "value": ""
                },
                "quantity": {
                    "value": 1
                },
                "range": null,
                "reload": {
                    "value": ""
                },
                "rules": [],
                "size": {
                    "value": "med"
                },
                "slug": "light-hammer",
                "source": {
                    "value": ""
                },
                "specific": {
                    "value": false
                },
                "splashDamage": {
                    "value": 0
                },
                "stackGroup": {
                    "value": ""
                },
                "strikingRune": {
                    "value": ""
                },
                "traits": {
                    "custom": "",
                    "rarity": "common",
                    "value": [
                        "agile",
                        "thrown-20"
                    ]
                },
                "usage": {
                    "value": "held-in-one-hand"
                },
                "weight": {
                    "value": "L"
                }
            },
            "effects": [],
            "flags": {
                "core": {
                    "sourceId": "Compendium.pf2e.equipment-srd.FibwLZ12EIEwLGhw"
                }
            },
            "img": "systems/pf2e/icons/equipment/weapons/light-hammer.webp",
            "name": "Light Hammer",
            "sort": 200000,
            "type": "weapon"
        },
        {
            "_id": "Kf9w0S1CWT0gSsVo",
            "data": {
                "armor": {
                    "value": 6
                },
                "baseItem": "full-plate",
                "brokenThreshold": {
                    "value": null
                },
                "bulkCapacity": {
                    "value": ""
                },
                "category": "heavy",
                "check": {
                    "value": -3
                },
                "collapsed": {
                    "value": false
                },
                "containerId": {
                    "value": ""
                },
                "description": {
                    "value": "<p>Plate mail consists of interlocking plates that encase nearly the entire body in a carapace of steel. It is costly and heavy, and the wearer often requires help to don it correctly, but it provides some of the best defense armor can supply. A suit of this armor comes with an undercoat of padded armor and a pair of gauntlets.</p>"
                },
                "dex": {
                    "value": 0
                },
                "equipped": {
                    "value": false
                },
                "equippedBulk": {
                    "value": "4"
                },
                "group": "plate",
                "hardness": {
                    "value": null
                },
                "hp": {
                    "value": null
                },
                "identification": {
                    "misidentified": {},
                    "status": "identified",
                    "unidentified": {
                        "data": {
                            "description": {
                                "value": ""
                            }
                        },
                        "img": "",
                        "name": ""
                    }
                },
                "invested": {
                    "value": false
                },
                "level": {
                    "value": 2
                },
                "maxHp": {
                    "value": null
                },
                "negateBulk": {
                    "value": "0"
                },
                "potency": {},
                "potencyRune": {
                    "value": 0
                },
                "preciousMaterial": {
                    "value": ""
                },
                "preciousMaterialGrade": {
                    "value": ""
                },
                "price": {
                    "value": "30 gp"
                },
                "propertyRune1": {
                    "value": ""
                },
                "propertyRune2": {
                    "value": ""
                },
                "propertyRune3": {
                    "value": ""
                },
                "propertyRune4": {
                    "value": ""
                },
                "quantity": {
                    "value": 1
                },
                "resiliencyRune": {
                    "value": ""
                },
                "rules": [],
                "size": {
                    "value": "med"
                },
                "slug": "full-plate",
                "source": {
                    "value": ""
                },
                "speed": {
                    "value": -10
                },
                "stackGroup": {
                    "value": ""
                },
                "strength": {
                    "value": 18
                },
                "traits": {
                    "custom": "",
                    "rarity": "common",
                    "value": [
                        "bulwark"
                    ]
                },
                "usage": {
                    "value": "wornarmor"
                },
                "weight": {
                    "value": "5"
                }
            },
            "effects": [],
            "flags": {
                "core": {
                    "sourceId": "Compendium.pf2e.equipment-srd.Gq1cZWSKOtJhKd2p"
                }
            },
            "img": "systems/pf2e/icons/equipment//armor/fullplate.webp",
            "name": "Full Plate",
            "sort": 300000,
            "type": "armor"
        },
        {
            "_id": "1nTnA04mVDd329bd",
            "data": {
                "armor": {
                    "value": 2
                },
                "baseItem": null,
                "brokenThreshold": {
                    "value": 10
                },
                "bulkCapacity": {
                    "value": ""
                },
                "category": "shield",
                "check": {
                    "value": 0
                },
                "collapsed": {
                    "value": false
                },
                "containerId": {
                    "value": ""
                },
                "description": {
                    "value": "<p>Like wooden shields, steel shields come in a variety of shapes and sizes. Though more expensive than wooden shields, they are much more durable.</p>\n<table class=\"pf2-table\">\n<thead>\n<tr>\n<th>Hardness</th>\n<th>HP</th>\n<th>BT</th>\n</tr>\n</thead>\n<tbody>\n<tr>\n<td>5</td>\n<td>20</td>\n<td>10</td>\n</tr>\n</tbody>\n</table>"
                },
                "dex": {
                    "value": 0
                },
                "equipped": {
                    "value": true
                },
                "equippedBulk": {
                    "value": ""
                },
                "group": null,
                "hardness": {
                    "value": 5
                },
                "hp": {
                    "value": 20
                },
                "identification": {
                    "misidentified": {},
                    "status": "identified",
                    "unidentified": {
                        "data": {
                            "description": {
                                "value": ""
                            }
                        },
                        "img": "",
                        "name": ""
                    }
                },
                "invested": {
                    "value": false
                },
                "level": {
                    "value": 0
                },
                "maxHp": {
                    "value": 20
                },
                "negateBulk": {
                    "value": "0"
                },
                "potency": {},
                "potencyRune": {
                    "value": 0
                },
                "preciousMaterial": {
                    "value": ""
                },
                "preciousMaterialGrade": {
                    "value": ""
                },
                "price": {
                    "value": "2 gp"
                },
                "propertyRune1": {
                    "value": ""
                },
                "propertyRune2": {
                    "value": ""
                },
                "propertyRune3": {
                    "value": ""
                },
                "propertyRune4": {
                    "value": ""
                },
                "quantity": {
                    "value": 1
                },
                "resiliencyRune": {
                    "value": ""
                },
                "rules": [],
                "size": {
                    "value": "med"
                },
                "slug": "steel-shield",
                "source": {
                    "value": ""
                },
                "speed": {
                    "value": 0
                },
                "stackGroup": {
                    "value": ""
                },
                "strength": {
                    "value": 0
                },
                "traits": {
                    "custom": "",
                    "rarity": "common",
                    "value": []
                },
                "usage": {
                    "value": "held-in-one-hand"
                },
                "weight": {
                    "value": "1"
                }
            },
            "effects": [],
            "flags": {
                "core": {
                    "sourceId": "Compendium.pf2e.equipment-srd.Yr9yCuJiAlFh3QEB"
                }
            },
            "img": "systems/pf2e/icons/equipment/shields/steel-shield.webp",
            "name": "Steel Shield",
            "sort": 400000,
            "type": "armor"
        },
        {
            "_id": "2oF9dlmEoHZ6o4U9",
            "data": {
                "attack": {
                    "value": ""
                },
                "attackEffects": {
                    "value": []
                },
                "bonus": {
                    "value": 9
                },
                "damageRolls": {
                    "0": {
                        "damage": "1d8+4",
                        "damageType": "slashing"
                    }
                },
                "description": {
                    "value": ""
                },
                "rules": [
                    {
                        "key": "ToggleProperty",
                        "label": "PF2E.SpecificRule.TwoHanded.BastardSword",
                        "property": "flags.pf2e.rollOptions.damage-roll.twoHanded"
                    },
                    {
                        "key": "DamageDice",
                        "label": "PF2E.TraitTwoHandD12",
                        "override": {
                            "dieSize": "d12"
                        },
                        "predicate": {
                            "all": [
                                "twoHanded"
                            ]
                        },
                        "selector": "{item|_id}-damage"
                    }
                ],
                "slug": null,
                "source": {
                    "value": ""
                },
                "traits": {
                    "custom": "",
                    "rarity": "common",
                    "value": [
                        "two-hand-d12"
                    ]
                },
                "weaponType": {
                    "value": "melee"
                }
            },
            "effects": [],
            "flags": {},
            "img": "systems/pf2e/icons/default-icons/melee.svg",
            "name": "Bastard Sword",
            "sort": 500000,
            "type": "melee"
        },
        {
            "_id": "zuum0VinuCKcAh3D",
            "data": {
                "attack": {
                    "value": ""
                },
                "attackEffects": {
                    "value": []
                },
                "bonus": {
                    "value": 6
                },
                "damageRolls": {
                    "0": {
                        "damage": "1d6+4",
                        "damageType": "bludgeoning"
                    }
                },
                "description": {
                    "value": ""
                },
                "rules": [],
                "slug": null,
                "source": {
                    "value": ""
                },
                "traits": {
                    "custom": "",
                    "rarity": "common",
                    "value": [
                        "agile",
                        "thrown-20"
                    ]
                },
                "weaponType": {
                    "value": "ranged"
                }
            },
            "effects": [],
            "flags": {},
            "img": "systems/pf2e/icons/default-icons/melee.svg",
            "name": "Light Hammer",
            "sort": 600000,
            "type": "melee"
        },
        {
            "_id": "K45PxGQvJlwB2Y0j",
            "data": {
                "actionCategory": {
                    "value": "defensive"
                },
                "actionType": {
                    "value": "reaction"
                },
                "actions": {
                    "value": null
                },
                "description": {
                    "value": "<p>@Localize[PF2E.NPC.Abilities.Glossary.ShieldBlock]</p>"
                },
                "requirements": {
                    "value": ""
                },
                "rules": [],
                "slug": "shield-block",
                "source": {
                    "value": ""
                },
                "traits": {
                    "custom": "",
                    "rarity": "common",
                    "value": []
                },
                "trigger": {
                    "value": ""
                },
                "weapon": {
                    "value": ""
                }
            },
            "effects": [],
            "flags": {
                "core": {
                    "sourceId": "Compendium.pf2e.bestiary-ability-glossary-srd.m4HQ2o5aPxjXf2kY"
                }
            },
            "img": "systems/pf2e/icons/actions/Reaction.webp",
            "name": "Shield Block",
            "sort": 700000,
            "type": "action"
        },
        {
            "_id": "eR2U38j5LSvSk5t6",
            "data": {
                "actionCategory": {
                    "value": "offensive"
                },
                "actionType": {
                    "value": "reaction"
                },
                "actions": {
                    "value": null
                },
                "description": {
                    "value": "<p>@Localize[PF2E.NPC.Abilities.Glossary.AttackOfOpportunity]</p>"
                },
                "requirements": {
                    "value": ""
                },
                "rules": [],
                "slug": "attack-of-opportunity",
                "source": {
                    "value": ""
                },
                "traits": {
                    "custom": "",
                    "rarity": "common",
                    "value": []
                },
                "trigger": {
                    "value": ""
                },
                "weapon": {
                    "value": ""
                }
            },
            "effects": [],
            "flags": {
                "core": {
                    "sourceId": "Compendium.pf2e.bestiary-ability-glossary-srd.hFtNbo1LKYCoDy2O"
                }
            },
            "img": "systems/pf2e/icons/actions/Reaction.webp",
            "name": "Attack of Opportunity",
            "sort": 800000,
            "type": "action"
        },
        {
            "_id": "aKGDMqsWvw2cOIdE",
            "data": {
                "actionCategory": {
                    "value": "offensive"
                },
                "actionType": {
                    "value": "action"
                },
                "actions": {
                    "value": 2
                },
                "description": {
                    "value": "<p>@Localize[PF2E.NPC.Abilities.Glossary.PowerAttack]</p>"
                },
                "requirements": {
                    "value": ""
                },
                "rules": [
                    {
                        "key": "ToggleProperty",
                        "property": "flags.pf2e.rollOptions.damage-roll.power-attack"
                    },
                    {
                        "diceNumber": 1,
                        "key": "DamageDice",
                        "predicate": {
                            "all": [
                                "melee",
                                "power-attack"
                            ]
                        },
                        "selector": "damage"
                    }
                ],
                "slug": null,
                "source": {
                    "value": ""
                },
                "traits": {
                    "custom": "",
                    "rarity": "common",
                    "value": []
                },
                "trigger": {
                    "value": ""
                },
                "weapon": {
                    "value": ""
                }
            },
            "effects": [],
            "flags": {
                "core": {
                    "sourceId": "Compendium.pf2e.bestiary-ability-glossary-srd.0B39GdScyZMPWalX"
                }
            },
            "img": "systems/pf2e/icons/actions/TwoActions.webp",
            "name": "Power Attack",
            "sort": 900000,
            "type": "action"
        },
        {
            "_id": "uqGP9nCqQ7hXFS8n",
            "data": {
                "description": {
                    "value": ""
                },
                "mod": {
                    "value": 7
                },
                "proficient": {
                    "value": 0
                },
                "rules": [],
                "slug": null,
                "source": {
                    "value": ""
                },
                "traits": {
                    "custom": "",
                    "rarity": "common",
                    "value": []
                }
            },
            "effects": [],
            "flags": {},
            "img": "systems/pf2e/icons/default-icons/lore.svg",
            "name": "Athletics",
            "sort": 1000000,
            "type": "lore"
        },
        {
            "_id": "vpp5nzJEjnW5I4US",
            "data": {
                "description": {
                    "value": ""
                },
                "mod": {
                    "value": 3
                },
                "proficient": {
                    "value": 0
                },
                "rules": [],
                "slug": null,
                "source": {
                    "value": ""
                },
                "traits": {
                    "custom": "",
                    "rarity": "common",
                    "value": []
                }
            },
            "effects": [],
            "flags": {},
            "img": "systems/pf2e/icons/default-icons/lore.svg",
            "name": "Crafting",
            "sort": 1100000,
            "type": "lore"
        },
        {
            "_id": "zUQHMNFm7wBhgpoc",
            "data": {
                "description": {
                    "value": ""
                },
                "mod": {
                    "value": 5
                },
                "proficient": {
                    "value": 0
                },
                "rules": [],
                "slug": null,
                "source": {
                    "value": ""
                },
                "traits": {
                    "custom": "",
                    "rarity": "common",
                    "value": []
                }
            },
            "effects": [],
            "flags": {},
            "img": "systems/pf2e/icons/default-icons/lore.svg",
            "name": "Medicine",
            "sort": 1200000,
            "type": "lore"
        },
        {
            "_id": "2GUV4xdkBRLED667",
            "data": {
                "description": {
                    "value": ""
                },
                "mod": {
                    "value": 3
                },
                "proficient": {
                    "value": 0
                },
                "rules": [],
                "slug": null,
                "source": {
                    "value": ""
                },
                "traits": {
                    "custom": "",
                    "rarity": "common",
                    "value": []
                }
            },
            "effects": [],
            "flags": {},
            "img": "systems/pf2e/icons/default-icons/lore.svg",
            "name": "Society",
            "sort": 1300000,
            "type": "lore"
        },
        {
            "_id": "lRYB4mDFr6BrSQT6",
            "data": {
                "description": {
                    "value": ""
                },
                "mod": {
                    "value": 5
                },
                "proficient": {
                    "value": 0
                },
                "rules": [],
                "slug": null,
                "source": {
                    "value": ""
                },
                "traits": {
                    "custom": "",
                    "rarity": "common",
                    "value": []
                }
            },
            "effects": [],
            "flags": {},
            "img": "systems/pf2e/icons/default-icons/lore.svg",
            "name": "Survival",
            "sort": 1400000,
            "type": "lore"
        }
    ],
    "name": "Oread Guard",
    "token": {
        "disposition": -1,
        "height": 1,
        "img": "systems/pf2e/icons/default-icons/npc.svg",
        "name": "Oread Guard",
        "width": 1
    },
    "type": "npc"
}
