{
    "_id": "ba1RyDpwq6tfW8VM",
    "data": {
        "ability": {
            "value": ""
        },
        "area": {
            "areaType": "",
            "value": ""
        },
        "autoHeightenLevel": {
            "value": null
        },
        "category": {
            "value": "spell"
        },
        "components": {
            "focus": false,
            "material": false,
            "somatic": true,
            "verbal": true
        },
        "cost": {
            "value": ""
        },
        "damage": {
            "value": {
                "gftav8gvt4i3mqj6": {
                    "applyMod": false,
                    "type": {
                        "categories": [],
                        "subtype": "",
                        "value": "healing"
                    },
                    "value": "2d4"
                }
            }
        },
        "description": {
            "value": "<p>You surround yourself in holy light that restores the living and rebuffs undead. You glow with bright light in a 30-foot radius and dim light to the next 30 feet.</p>\n<p>Living creatures that begin their turn adjacent to you recover 2d4 Hit Points. Undead creatures that begin their turn adjacent to you take [[/r {4d4}[positive]]]{4d4 positive damage}.</p>\n<hr />\n<p><strong>Heightened (+2)</strong> The healing increases by 1d4, and the damage to undead increases by [[/r {2d4}[positive]]]{2d4 positive damage}.</p>"
        },
        "duration": {
            "value": "sustained up to 5 rounds"
        },
        "hasCounteractCheck": {
            "value": false
        },
        "level": {
            "value": 4
        },
        "location": {
            "value": ""
        },
        "materials": {
            "value": ""
        },
        "range": {
            "value": ""
        },
        "rules": [],
        "save": {
            "basic": "",
            "value": ""
        },
        "scaling": {
            "damage": {
                "gftav8gvt4i3mqj6": "1d4"
            },
            "interval": 2
        },
        "school": {
            "value": "necromancy"
        },
        "source": {
            "value": "Pathfinder #172: Secrets of the Temple-City"
        },
        "spellType": {
            "value": "heal"
        },
        "sustained": {
            "value": false
        },
        "target": {
            "value": ""
        },
        "time": {
            "value": "2"
        },
        "traditions": {
            "custom": "",
            "value": [
                "divine",
                "primal"
            ]
        },
        "traits": {
            "custom": "",
            "rarity": "uncommon",
            "value": [
                "healing",
                "light",
                "positive"
            ]
        }
    },
    "effects": [],
    "flags": {},
    "img": "systems/pf2e/icons/default-icons/spell.svg",
    "name": "Cloak of Light",
    "type": "spell"
}
