{
    "_id": "pZTqGY1MLRjgKasV",
    "data": {
        "ability": {
            "value": ""
        },
        "area": {
            "areaType": "",
            "value": ""
        },
        "areasize": {
            "value": ""
        },
        "autoHeightenLevel": {
            "value": null
        },
        "category": {
            "value": "spell"
        },
        "components": {
            "material": false,
            "somatic": true,
            "verbal": true
        },
        "cost": {
            "value": ""
        },
        "damage": {
            "value": {}
        },
        "description": {
            "value": "<p>You grant yourself supernatural sight in areas of darkness. You gain Darkvision.</p>\n<p>@Compendium[pf2e.spell-effects.Spell Effect: Darkvision]{Spell Effect: Darkvision}</p>\n<p>@Compendium[pf2e.spell-effects.Spell Effect: Darkvision (24 hours)]{Spell Effect: Darkvision (24 hours)}</p>\n<hr />\n<p><strong>Heightened (3rd)</strong> The spell's range is touch and it targets 1 willing creature.</p>\n<p><strong>Heightened (5th)</strong> The spell's range is touch and it targets 1 willing creature. The duration is until the next time you make your daily preparations.</p>"
        },
        "duration": {
            "value": "1 hour"
        },
        "hasCounteractCheck": {
            "value": false
        },
        "level": {
            "value": 2
        },
        "location": {
            "value": ""
        },
        "materials": {
            "value": ""
        },
        "prepared": {
            "value": ""
        },
        "primarycheck": {
            "value": ""
        },
        "range": {
            "value": ""
        },
        "rules": [],
        "save": {
            "basic": "",
            "value": ""
        },
        "school": {
            "value": "divination"
        },
        "secondarycasters": {
            "value": ""
        },
        "secondarycheck": {
            "value": ""
        },
        "source": {
            "value": "Pathfinder Core Rulebook"
        },
        "spellType": {
            "value": "utility"
        },
        "sustained": {
            "value": false
        },
        "target": {
            "value": ""
        },
        "time": {
            "value": "2"
        },
        "traditions": {
            "value": [
                "arcane",
                "divine",
                "occult",
                "primal"
            ]
        },
        "traits": {
            "custom": "",
            "rarity": "common",
            "value": []
        }
    },
    "effects": [],
    "flags": {},
    "img": "systems/pf2e/icons/spells/darkvision.webp",
    "name": "Darkvision",
    "type": "spell"
}
