{
    "_id": "XS7Wyh5YC0NWeWyB",
    "data": {
        "ability": {
            "value": ""
        },
        "area": {
            "areaType": "",
            "value": ""
        },
        "areasize": {
            "value": ""
        },
        "autoHeightenLevel": {
            "value": null
        },
        "category": {
            "value": "spell"
        },
        "components": {
            "focus": false,
            "material": false,
            "somatic": true,
            "verbal": true
        },
        "cost": {
            "value": ""
        },
        "damage": {
            "value": {
                "0": {
                    "applyMod": false,
                    "type": {
                        "categories": [],
                        "subtype": "",
                        "value": "fire"
                    },
                    "value": "3d6"
                }
            }
        },
        "description": {
            "value": "<p>You become living flame, giving you fire immunity, resistance 10 to precision damage, and weakness 5 to cold and to water. Any creature that touches you or damages you with an unarmed attack or non-reach melee weapon takes 3d6 fire damage. Your unarmed attacks deal 1d4 additional fire damage, and your fire spells deal one additional die of fire damage (of the same damage die the spell uses). You can cast produce flame as an innate spell; the casting is reduced from 2 actions to 1. In fire form, you have a fly Speed of 40 feet and don't need to breathe.</p>\n<p>@Compendium[pf2e.spell-effects.Spell Effect: Fiery Body]{Spell Effect: Fiery Body}</p>\n<hr />\n<p><strong>Heightened (9th)</strong> Creatures touching you take 4d6 fire damage instead of 3d6, your unarmed attacks deal 2d4 additional fire damage, and you have a fly Speed of 60 feet.</p>\n<p>@Compendium[pf2e.spell-effects.Spell Effect: Fiery Body (9th Level)]{Spell Effect: Fiery Body (9th Level)}</p>"
        },
        "duration": {
            "value": "1 minute"
        },
        "hasCounteractCheck": {
            "value": false
        },
        "level": {
            "value": 7
        },
        "location": {
            "value": ""
        },
        "materials": {
            "value": ""
        },
        "prepared": {
            "value": ""
        },
        "primarycheck": {
            "value": ""
        },
        "range": {
            "value": ""
        },
        "rules": [],
        "save": {
            "basic": "",
            "value": ""
        },
        "school": {
            "value": "transmutation"
        },
        "secondarycasters": {
            "value": ""
        },
        "secondarycheck": {
            "value": ""
        },
        "source": {
            "value": "Pathfinder Core Rulebook"
        },
        "spellType": {
            "value": "utility"
        },
        "sustained": {
            "value": false
        },
        "target": {
            "value": ""
        },
        "time": {
            "value": "2"
        },
        "traditions": {
            "value": [
                "arcane",
                "primal"
            ]
        },
        "traits": {
            "custom": "",
            "rarity": "common",
            "value": [
                "fire",
                "polymorph"
            ]
        }
    },
    "effects": [],
    "flags": {},
    "img": "systems/pf2e/icons/spells/fiery-body.webp",
    "name": "Fiery Body",
    "type": "spell"
}
