{
    "_id": "b5BQbwmuBhgPXTyi",
    "data": {
        "ability": {
            "value": ""
        },
        "area": {
            "areaType": "cone",
            "value": "15"
        },
        "autoHeightenLevel": {
            "value": null
        },
        "category": {
            "value": "spell"
        },
        "components": {
            "focus": false,
            "material": false,
            "somatic": false,
            "verbal": false
        },
        "cost": {
            "value": ""
        },
        "damage": {
            "applyMod": true,
            "value": {
                "0": {
                    "applyMod": true,
                    "type": {
                        "categories": [],
                        "subtype": "",
                        "value": "sonic"
                    },
                    "value": ""
                }
            }
        },
        "description": {
            "value": "<p>You echo a jarring hymn that only creatures in the area can hear. The hymn deals sonic damage equal to your spellcasting ability modifier, with a basic Fortitude save. If a target critically fails the save, it's also @Compendium[pf2e.conditionitems.Deafened]{Deafened} for 1 minute.</p>\n<hr />\n<p><strong>Heightened (+2)</strong> The damage increases by 1d6.</p>"
        },
        "duration": {
            "value": ""
        },
        "hasCounteractCheck": {
            "value": false
        },
        "level": {
            "value": 1
        },
        "location": {
            "value": ""
        },
        "materials": {
            "value": ""
        },
        "range": {
            "value": ""
        },
        "rules": [],
        "save": {
            "basic": "basic",
            "value": "fortitude"
        },
        "scaling": {
            "damage": {
                "0": "1d6"
            },
            "interval": 2
        },
        "school": {
            "value": "evocation"
        },
        "source": {
            "value": "Pathfinder Secrets of Magic"
        },
        "spellType": {
            "value": "save"
        },
        "sustained": {
            "value": false
        },
        "target": {
            "value": ""
        },
        "time": {
            "value": "2"
        },
        "traditions": {
            "custom": "",
            "value": [
                "divine",
                "occult"
            ]
        },
        "traits": {
            "custom": "",
            "rarity": "common",
            "value": [
                "auditory",
                "cantrip",
                "sonic"
            ]
        }
    },
    "effects": [],
    "flags": {},
    "img": "systems/pf2e/icons/spells/haunting-hymn.webp",
    "name": "Haunting Hymn",
    "type": "spell"
}
