{
    "_id": "eSEmqOBuywoJ6tYd",
    "data": {
        "ability": {
            "value": ""
        },
        "area": {
            "areaType": "line",
            "value": "60"
        },
        "autoHeightenLevel": {
            "value": null
        },
        "category": {
            "value": "spell"
        },
        "components": {
            "focus": false,
            "material": false,
            "somatic": false,
            "verbal": false
        },
        "cost": {
            "value": ""
        },
        "damage": {
            "applyMod": false,
            "value": {
                "0": {
                    "applyMod": false,
                    "type": {
                        "subtype": "",
                        "value": "force"
                    },
                    "value": "4d4"
                }
            }
        },
        "description": {
            "value": "<p>You gradually manifest your spiritual energy into your cupped hands before firing off a storm of bolts and beams that deal 4d4 force damage to all creatures in a 60-foot line. Creatures in the area must attempt a basic Reflex save. On a critical failure, they're also blinded for 1 round. The number of actions you spend when Casting this Spell determines the area. If the line passes through an area of magical darkness or targets a creature affected by magical darkness, <em>inner radiance torrent</em> attempts to counteract the darkness.</p>\n<p><span class=\"pf2-icon\">2</span> <strong>(somatic, verbal)</strong> The line is 60 feet long.</p>\n<p><span class=\"pf2-icon\">3</span> <strong>(material, somatic, verbal)</strong> The line is @Template[type:line|distance:120]{120 feet} long.</p>\n<p><strong>Two Rounds</strong> The line is 120 feet long. If you spend 3 actions casting the spell, you can avoid finishing the spell and spend another 3 actions on your next turn to empower the spell even further. If you choose to do so, the damage dealt by this spell increases by 4d4, and you enter a shining state for 1 minute, causing you to glow with light and deal [[/r {1}[force]]]{1 force damage} to creatures that end their turn adjacent to you.</p>\n<hr />\n<p><strong>Heightened (+1)</strong> The initial damage, as well as the additional damage for the 2-round casting time, each increase by 4d4, and the damage to adjacent creatures dealt while in your shining state increases by 1.</p>"
        },
        "duration": {
            "value": ""
        },
        "hasCounteractCheck": {
            "value": true
        },
        "level": {
            "value": 2
        },
        "location": {
            "value": ""
        },
        "materials": {
            "value": ""
        },
        "range": {
            "value": ""
        },
        "rules": [],
        "save": {
            "basic": "basic",
            "value": "reflex"
        },
        "scaling": {
            "damage": {
                "0": "4d4"
            },
            "interval": 1
        },
        "school": {
            "value": "evocation"
        },
        "source": {
            "value": "Pathfinder Secrets of Magic"
        },
        "spellType": {
            "value": "save"
        },
        "sustained": {
            "value": false
        },
        "target": {
            "value": ""
        },
        "time": {
            "value": "2 to 2 rounds"
        },
        "traditions": {
            "custom": "",
            "value": [
                "divine",
                "occult"
            ]
        },
        "traits": {
            "custom": "",
            "rarity": "common",
            "value": [
                "force",
                "light"
            ]
        }
    },
    "effects": [],
    "flags": {},
    "img": "systems/pf2e/icons/spells/inner-radiance-torrent.webp",
    "name": "Inner Radiance Torrent",
    "type": "spell"
}
