{
    "_id": "6lO6uMQxbqmYho0e",
    "data": {
        "ability": {
            "value": ""
        },
        "area": {
            "areaType": "",
            "value": ""
        },
        "autoHeightenLevel": {
            "value": null
        },
        "category": {
            "value": "spell"
        },
        "components": {
            "focus": false,
            "material": false,
            "somatic": true,
            "verbal": true
        },
        "cost": {
            "value": ""
        },
        "damage": {
            "applyMod": false,
            "value": {
                "0": {
                    "applyMod": false,
                    "type": {
                        "subtype": "",
                        "value": "negative"
                    },
                    "value": "12d6"
                }
            }
        },
        "description": {
            "value": "<p>You necrotize part of a creature's body, harming it and debilitating it as its body putrefies, mimicking the natural process of decay. The target takes 12d6 negative damage and one of the following debilitations; roll [[/r 1d4]] to randomly determine which. The effects depend on its Fortitude save.</p>\n<ol>\n<li><strong>Bones</strong> The target's bones necrotize and become spongy and weak, giving it weakness 3 to bludgeoning damage.</li>\n<li><strong>Joints</strong> The target's joints necrotize, making its movements ungainly and clumsy. It becomes @Compendium[pf2e.conditionitems.Clumsy]{Clumsy 1}.</li>\n<li><strong>Legs</strong> The target's legs necrotize, as well as any other limbs associated with forms of movement, making it harder for the creature to move. The target takes a -10-foot status penalty to its Speeds. @Compendium[pf2e.spell-effects.Spell Effect: Necrotize (Legs)]{Spell Effect: Necrotize (Legs)}</li>\n<li><strong>Muscles</strong> The target's muscles necrotize, rotting away. The target becomes @Compendium[pf2e.conditionitems.Enfeebled]{Enfeebled 1}.</li>\n</ol>\n<hr />\n<p><strong>Critical Success</strong> The target is unaffected.</p>\n<p><strong>Success</strong> The target takes half damage and the debilitation lasts until the end of your next turn.</p>\n<p><strong>Failure</strong> The target takes full damage and the debilitation lasts for 1 minute.</p>\n<p><strong>Critical Failure</strong> The target takes double damage, and you can pick a second debilitation to apply, in addition to the one you rolled randomly. Both debilitations last for 1 minute.</p>\n<hr />\n<p><strong>Heightened (+1)</strong> The damage increases by 2d6.</p>"
        },
        "duration": {
            "value": ""
        },
        "hasCounteractCheck": {
            "value": false
        },
        "level": {
            "value": 6
        },
        "location": {
            "value": ""
        },
        "materials": {
            "value": ""
        },
        "range": {
            "value": "60 feet"
        },
        "rules": [],
        "save": {
            "basic": "",
            "value": "fortitude"
        },
        "scaling": {
            "damage": {
                "0": "2d6"
            },
            "interval": 1
        },
        "school": {
            "value": "necromancy"
        },
        "source": {
            "value": "Pathfinder Secrets of Magic"
        },
        "spellType": {
            "value": "save"
        },
        "sustained": {
            "value": false
        },
        "target": {
            "value": "1 living creature"
        },
        "time": {
            "value": "2"
        },
        "traditions": {
            "custom": "",
            "value": [
                "arcane",
                "divine",
                "primal"
            ]
        },
        "traits": {
            "custom": "",
            "rarity": "common",
            "value": [
                "negative"
            ]
        }
    },
    "effects": [],
    "flags": {},
    "img": "systems/pf2e/icons/spells/necrotize.webp",
    "name": "Necrotize",
    "type": "spell"
}
