{
    "_id": "RztmhJrLLQWoGVdB",
    "data": {
        "ability": {
            "value": ""
        },
        "area": {
            "areaType": "",
            "value": null
        },
        "areasize": {
            "value": ""
        },
        "category": {
            "value": "focus"
        },
        "components": {
            "material": false,
            "somatic": true,
            "verbal": true
        },
        "cost": {
            "value": ""
        },
        "damage": {
            "value": {}
        },
        "description": {
            "value": "<p>By touching an object, you draw forth the experience of those who created and used it.</p>\n<p>If you touch a weapon, your proficiency rank with that weapon temporarily increases to trained (if it is not already higher).</p>\n<p>If you touch a tool, your proficiency rank with the next skill check you attempt with that tool (such as a Crafting check with a blacksmith's hammer) within the spell's duration temporarily increases to trained (if it is not already higher). This spell has no benefit for activities that take longer than a minute to complete.</p>\n<hr />\n<p><strong>Heightened (6th)</strong> Your proficiency rank increases to expert instead of trained.</p>\n<p>@Compendium[pf2e.spell-effects.Spell Effect: Object Memory (Weapon)]{Spell Effect: Object Memory (Weapon)}</p>"
        },
        "duration": {
            "value": "1 minute"
        },
        "hasCounteractCheck": {
            "value": false
        },
        "level": {
            "value": 1
        },
        "location": {
            "value": ""
        },
        "materials": {
            "value": ""
        },
        "prepared": {
            "value": ""
        },
        "primarycheck": {
            "value": ""
        },
        "range": {
            "value": ""
        },
        "rules": [],
        "save": {
            "basic": "",
            "value": ""
        },
        "school": {
            "value": "divination"
        },
        "secondarycasters": {
            "value": ""
        },
        "secondarycheck": {
            "value": ""
        },
        "source": {
            "value": "Pathfinder Lost Omens: Gods & Magic"
        },
        "spellType": {
            "value": "utility"
        },
        "sustained": {
            "value": false
        },
        "target": {
            "value": "1 weapon or tool"
        },
        "time": {
            "value": "2"
        },
        "traditions": {
            "custom": "",
            "value": []
        },
        "traits": {
            "custom": "",
            "rarity": "uncommon",
            "value": [
                "cleric"
            ]
        }
    },
    "effects": [],
    "flags": {},
    "img": "systems/pf2e/icons/spells/object-memory.webp",
    "name": "Object Memory",
    "type": "spell"
}
