{
    "_id": "HHGUBGle4OjoxvNR",
    "data": {
        "ability": {
            "value": ""
        },
        "area": {
            "value": ""
        },
        "areasize": {
            "value": ""
        },
        "category": {
            "value": "spell"
        },
        "components": {
            "material": true,
            "somatic": true,
            "verbal": false
        },
        "cost": {
            "value": ""
        },
        "damage": {
            "value": {}
        },
        "description": {
            "value": "<p>You change the sounds made by a creature or object. Choose how you're altering the sounds when you @Compendium[pf2e.actionspf2e.Cast a Spell]{Cast the Spell}; you can't alter it later. You can cause something that didn't create a sound to make sound, alter the voice of a creature, amplify or deaden a sound, or transform one sound into another. A creature who succeeds at a Perception check against your spell DC can determine that the sound was altered by an illusion, including hearing faint sounds if you deadened the sound, but they can't determine the true sound unless they critically succeed at the Perception check. You can @Compendium[pf2e.actionspf2e.Dismiss]{Dismiss} the spell.</p>\n<p>Because this spell obscures sound instead of preventing it, using the spell to quiet a creature doesn't prevent that creature from using verbal spell components, though it does prevent most auditory effects that rely on another creature hearing them accurately. An unwilling target can attempt a Will save.</p>\n<hr />\n<p><strong>Success</strong> The affected sound from the creature isn't altered.</p>\n<p><strong>Failure</strong> The affected sound from the creature is altered in the way you determine.</p>\n<p><strong>Critical Failure</strong> The affected sound from the creature is altered and the target becomes @Compendium[pf2e.conditionitems.Stupefied]{Stupefied 2} for 1 minute as it struggles with the disorienting effects of its altered sound.</p>\n<hr />\n<p><strong>Heightened (5th)</strong> You can target up to 6 creatures or 6 objects, altering the sounds of all affected creatures or objects in the same way.</p>"
        },
        "duration": {
            "value": "10 minutes"
        },
        "hasCounteractCheck": {
            "value": false
        },
        "level": {
            "value": 3
        },
        "location": {
            "value": ""
        },
        "materials": {
            "value": ""
        },
        "prepared": {
            "value": false
        },
        "primarycheck": {
            "value": ""
        },
        "range": {
            "value": "touch"
        },
        "rules": [],
        "save": {
            "basic": "",
            "value": "will"
        },
        "school": {
            "value": "illusion"
        },
        "secondarycasters": {
            "value": ""
        },
        "secondarycheck": {
            "value": ""
        },
        "source": {
            "value": "Pathfinder Advanced Player's Guide"
        },
        "spellType": {
            "value": "utility"
        },
        "sustained": {
            "value": false
        },
        "target": {
            "value": "1 creature or object"
        },
        "time": {
            "value": "2"
        },
        "traditions": {
            "value": [
                "occult"
            ]
        },
        "traits": {
            "custom": "",
            "rarity": "common",
            "value": []
        }
    },
    "effects": [],
    "flags": {},
    "img": "systems/pf2e/icons/spells/sculpt-sound.webp",
    "name": "Sculpt Sound",
    "type": "spell"
}
