{
    "_id": "juzb53CW6Uzz5pFY",
    "data": {
        "ability": {
            "value": ""
        },
        "area": {
            "areaType": "",
            "value": ""
        },
        "autoHeightenLevel": {
            "value": null
        },
        "category": {
            "value": "spell"
        },
        "components": {
            "focus": false,
            "material": false,
            "somatic": true,
            "verbal": true
        },
        "cost": {
            "value": ""
        },
        "damage": {
            "value": {}
        },
        "description": {
            "value": "<p>You reflect a spell into a shadowy version of itself, in the process depleting the power of the initial spell. During <em>umbral graft's</em> duration, you can use the Steal action to attempt to abscond with spells affecting a foe instead of stealing an item. You can also make one attempt to Steal as part of Casting <em>umbral graft</em>. If you succeed at your check to Steal a spell, randomly determine a spell affecting the foe that has a target entry. That spell ceases to affect the target, and you can either cause the spell to affect you or store it in your shadow. If your attempt to Steal was a critical success, you automatically steal the spell if its level is equal to or lower than umbral graft. If it was a success, you automatically steal it if its level is lower than umbral graft. If you succeeded, but the spell's level was too high to steal automatically, you must attempt a counteract check to see if you steal the spell. You know what the spell is as soon as you steal it. If you store it, you can transfer it to a willing creature as a single action that has the manipulate trait. The spell lasts for its remaining duration, to a maximum of 1 minute, and any time you keep it stored subtracts from its duration normally. The spell gains the shadow trait.</p>\n<p>You can't steal constant innate spells that are always active on a creature, such as a choral angel's constant tongues, or innate spells that have special restrictions that remove their ability to target other creatures, such as an imp's invisibility. At the GM's discretion, you might not be able to steal innate spells with other unusual modifications to the base spell.</p>\n<p>As normal, you can Steal only from a target within your reach. Once you've stolen a spell, you can't attempt to Steal more spells, nor can you choose not to take a spell if you succeed at your Thievery check. When you cast umbral graft, any spells you stole with a previous umbral graft end even if their duration hasn't elapsed. If you're affected by both umbral graft and umbral extraction, you make the choice whether to steal a spell slot, an active spell, or an item each time you Steal.</p>"
        },
        "duration": {
            "value": "3 rounds"
        },
        "hasCounteractCheck": {
            "value": false
        },
        "level": {
            "value": 4
        },
        "location": {
            "value": ""
        },
        "materials": {
            "value": ""
        },
        "range": {
            "value": ""
        },
        "rules": [],
        "save": {
            "basic": "",
            "value": ""
        },
        "school": {
            "value": "illusion"
        },
        "source": {
            "value": "Pathfinder Secrets of Magic"
        },
        "spellType": {
            "value": "utility"
        },
        "sustained": {
            "value": false
        },
        "target": {
            "value": ""
        },
        "time": {
            "value": "2"
        },
        "traditions": {
            "custom": "",
            "value": [
                "arcane",
                "occult"
            ]
        },
        "traits": {
            "custom": "",
            "rarity": "common",
            "value": [
                "shadow"
            ]
        }
    },
    "effects": [],
    "flags": {},
    "img": "systems/pf2e/icons/spells/umbral-graft.webp",
    "name": "Umbral Graft",
    "type": "spell"
}
