{
    "_id": "K21KQsrR3RMcJ1du",
    "data": {
        "actionCategory": {
            "value": ""
        },
        "actionType": {
            "value": "passive"
        },
        "actions": {
            "value": null
        },
        "description": {
            "value": "<p><strong>[Service]</strong></p>\n<p><strong>Prerequisites</strong> Tier 2 with the Horizon Hunters</p>\n<p><strong>Cost</strong> 2 Fame</p>\n<p><strong>Effect</strong> No matter how far afield you travel, it seems there's always a fellow explorer ready to help you return home in record time and enjoy a few extra days to recuperate. You can purchase this boon at the end of an adventure that granted at least 4 XP while the GM is filling out Chronicle sheets. When you do so, you gain an additional 4 days of Downtime.</p>"
        },
        "featType": {
            "value": "pfsboon"
        },
        "level": {
            "value": 0
        },
        "prerequisites": {
            "value": []
        },
        "rules": [],
        "source": {
            "value": ""
        },
        "traits": {
            "custom": "",
            "rarity": "common",
            "value": []
        }
    },
    "effects": [],
    "flags": {},
    "img": "systems/pf2e/icons/default-icons/mystery-man.webp",
    "name": "Swift Traveler",
    "type": "feat"
}
