{
    "_id": "FIgud5jqZgIjwkRE",
    "data": {
        "description": {
            "value": "<p>You gain a number of temporary Hit Points equal to half your level (minimum 1) that last until the end of your next turn.</p>"
        },
        "duration": {
            "expiry": "turn-end",
            "sustained": false,
            "unit": "rounds",
            "value": 1
        },
        "level": {
            "value": 1
        },
        "rules": [
            {
                "key": "TempHP",
                "value": "max(floor(@actor.level/2),1)"
            }
        ],
        "source": {
            "value": ""
        },
        "start": {
            "initiative": null,
            "value": 0
        },
        "target": null,
        "tokenIcon": {
            "show": true
        },
        "traits": {
            "custom": "",
            "rarity": "common",
            "value": []
        }
    },
    "effects": [],
    "flags": {},
    "img": "systems/pf2e/icons/spells/healers-blessing.webp",
    "name": "Effect: Maiden's Mending",
    "type": "effect"
}
