{
    "_id": "nlaxROgSSLVHZ1hx",
    "data": {
        "description": {
            "value": "<p>Granted by @Compendium[pf2e.feats-srd.Monster Warden]{Monster Warden}</p>\n<p>You gain a +1 circumstance bonus to your next attack roll against that prey.</p>\n<p>You gain a +1 circumstance bonus to your next saving throw against that particular creature and to your AC against that creature's next attack against you.</p>"
        },
        "duration": {
            "expiry": "turn-start",
            "sustained": false,
            "unit": "unlimited",
            "value": -1
        },
        "level": {
            "value": 1
        },
        "rules": [
            {
                "key": "ToggleProperty",
                "label": "Target is the subject of Monster Hunter",
                "property": "flags.pf2e.rollOptions.all.monster-hunter"
            },
            {
                "key": "FlatModifier",
                "label": "Monster Warden",
                "predicate": {
                    "all": [
                        "monster-hunter"
                    ]
                },
                "selector": "saving-throw",
                "type": "circumstance",
                "value": 1
            },
            {
                "key": "FlatModifier",
                "label": "Monster Warden",
                "predicate": {
                    "all": [
                        "monster-hunter"
                    ]
                },
                "selector": "ac",
                "type": "circumstance",
                "value": 1
            },
            {
                "key": "FlatModifier",
                "label": "Monster Hunter",
                "predicate": {
                    "all": [
                        "monster-hunter"
                    ]
                },
                "selector": "attack",
                "type": "circumstance",
                "value": 1
            }
        ],
        "source": {
            "value": ""
        },
        "start": {
            "initiative": null,
            "value": 0
        },
        "target": null,
        "tokenIcon": {
            "show": true
        },
        "traits": {
            "custom": "",
            "rarity": "common",
            "value": []
        }
    },
    "effects": [],
    "flags": {},
    "img": "systems/pf2e/icons/spells/monstrosity-form.webp",
    "name": "Effect: Monster Warden",
    "type": "effect"
}
