{
    "_id": "KkbFlNfcQQUfSVXd",
    "data": {
        "description": {
            "value": "<p>Granted by @Compendium[pf2e.feats-srd.Align Armament]{Align Armament}.</p>\n<p>For 1 round, that weapon deals an additional 1d6 lawful damage.</p>"
        },
        "duration": {
            "expiry": "turn-start",
            "sustained": false,
            "unit": "rounds",
            "value": 1
        },
        "level": {
            "value": 8
        },
        "rules": [
            {
                "key": "EffectTarget",
                "scope": "weapon"
            },
            {
                "damageType": "lawful",
                "diceNumber": 1,
                "dieSize": "d6",
                "key": "DamageDice",
                "selector": "{item|data.target}-damage"
            }
        ],
        "source": {
            "value": ""
        },
        "start": {
            "initiative": null,
            "value": 0
        },
        "target": null,
        "tokenIcon": {
            "show": true
        },
        "traits": {
            "custom": "",
            "rarity": "common",
            "value": []
        }
    },
    "effects": [],
    "flags": {},
    "img": "systems/pf2e/icons/spells/weapon-storm.webp",
    "name": "Effect: Align Armament (Lawful)",
    "type": "effect"
}
