{
    "_id": "CUgmb7g65vYNT2hn",
    "data": {
        "badge": null,
        "description": {
            "value": "<p>The creature gains weakness to fire 20.</p>"
        },
        "duration": {
            "expiry": "turn-start",
            "sustained": false,
            "unit": "unlimited",
            "value": -1
        },
        "level": {
            "value": 21
        },
        "rules": [
            {
                "key": "Weakness",
                "type": "fire",
                "value": 20
            }
        ],
        "source": {
            "value": "Pathfinder Bestiary"
        },
        "start": {
            "initiative": null,
            "value": 0
        },
        "target": null,
        "tokenIcon": {
            "show": true
        },
        "traits": {
            "custom": "",
            "rarity": "common",
            "value": []
        }
    },
    "effects": [],
    "flags": {},
    "img": "systems/pf2e/icons/spells/wildfire.webp",
    "name": "Effect: Curse of Boiling Blood",
    "type": "effect"
}
